%!PS-Adobe-3.0 EPSF-3.0
%%Title: parportMdriver
%%Creator: Xcircuit v3.1
%%CreationDate: Wed Aug  6 03:02:23 2003
%%Pages: 1
%%BoundingBox: 68 68 760 763
%%DocumentNeededResources: font Helvetica font Times-Roman 
%%EndComments
%%BeginProlog
%
%  PostScript prolog for output from xcircuit
%  Version: 2.4
%
%  Electrical circuit (and otherwise general) drawing program
%
%  Written by Tim Edwards 8/5/93--1/15/03  (tim@bach.ece.jhu.edu)
%  The Johns Hopkins University
%
%%BeginResource: procset XCIRCproc 2.4 2
% supporting definitions --- these are the primary xcircuit types.

/XCIRCsave save def
/topmat matrix currentmatrix def

/fontslant { /slant exch def [1 0 slant 1 0 0] 
    exch findfont exch makefont dup length dict /ndict exch def
    { 1 index /FID ne { ndict 3 1 roll put } { pop pop } ifelse } forall
    ndict definefont pop} def
/ul { dup type /stringtype eq showflag 1 eq and { gsave 
   currentpoint topmat setmatrix 0 0 moveto 2 index stringwidth pop (_)
   false charpath flattenpath pathbbox grestore exch pop 1 index
   sub setlinewidth exch pop currentpoint 3 -1 roll add moveto 0
   rlineto stroke moveto } if } def
/ol { dup type /stringtype eq showflag 1 eq and { gsave gsave
   currentpoint topmat setmatrix 2 index stringwidth pop 3 index
   true charpath flattenpath pathbbox grestore exch pop
   exch pop topmat setmatrix (_) true charpath pathbbox grestore
   exch pop 1 index sub setlinewidth exch pop currentpoint
   exch 4 1 roll exch sub add moveto pop 0 rlineto stroke
   moveto } if } def
/stW { gsave currentpoint newpath moveto true charpath flattenpath
	pathbbox pop exch pop sub grestore } def
/Ts {mark Tabs aload pop counttomark 1 add array astore /Tabs exch def Tabs
	0 currentpoint pop put} def
/Tbn {mark Tabs aload pop counttomark dup 2 add 1 roll cleartomark 1 sub} def
/Tb { 0 1 Tbn {Tabs exch get dup currentpoint pop lt
	{currentpoint exch pop moveto exit} {pop} ifelse } for } def
/Tf { Tbn -1 0 {Tabs exch get dup currentpoint pop gt
	{currentpoint exch pop moveto exit} {pop} ifelse } for } def
/qS { (aa) stW (a a) stW sub 4 div 0 Kn } def
/hS { qS qS } def
/pspc 0 def
/cf0 { scalefont setfont } bind def
/Kn { dup kY add /kY exch def rmoveto } bind def
/ss { /fscale fscale 0.67 mul def currentfont 0.67 cf0 0 fscale0 fscale mul
	0.33 mul neg Kn} def
/Ss { /fscale fscale 0.67 mul def currentfont 0.67 cf0 0 fscale0 fscale mul
	0.67 mul Kn } def
/ns { 0 kY neg Kn /kY 0 def /fscale 1.0 def xfont0 1.0 cf0 } def
/CR { ns 0 /Bline Bline fscale0 neg add def Bline moveto } def
/cf { dup type /realtype ne {1.0} if exch findfont exch kY 0 eq
	{ 40 mul dup /fscale0 exch def cf0 /xfont0 currentfont def}
	{fscale0 mul fscale mul cf0} ifelse } def
/ctmk { counttomark dup 2 add -1 roll pop } bind def
/label { gsave translate 0 0 moveto dup scale neg /rotval exch def
	/just exch def just 16 and 0 gt {gsave rotval rotate 0 1 dtransform
	gsave pagemat setmatrix idtransform exch grestore 1 0 dtransform
	gsave pagemat setmatrix idtransform exch grestore dup abs 1e-9 lt
	{pop mul 0 gt} {3 1 roll pop pop 0 lt} ifelse grestore {-1 /rotval
	rotval neg def /just just dup 3 and 1 ne {3 xor} if def} {1} ifelse
	exch -1e-9 lt {-1 /rotval rotval neg def /just just dup 12 and
	4 ne {12 xor} if def} {1} ifelse scale } if /showflag 0 def
	/fspc pspc def /Bline 0 def /Tabs 0 array def /fscale 1.0 def
	/kY 0 def gsave dup 1 add copy 0 exch 1 0 dtransform exch atan rotate
	{exch dup type /stringtype eq {true charpath flattenpath} {exec}
	ifelse } repeat pop pathbbox grestore 3 -1 roll pop 3 1 roll just
	1 and 0 gt {just 2 and 0 gt {exch pop neg fspc sub} {exch sub 0.5
	mul neg} ifelse} {pop neg fspc add} ifelse exch Bline exch just 4
	and 0 gt {just 8 and 0 gt {exch pop neg fspc sub} {add 0.5 mul neg}
	ifelse} {pop neg fspc add} ifelse rotval rotate Kn currentpoint
	translate /showflag 1 def /Bline 0 def /Tabs 0 array def /fscale
	1.0 def /kY 0 def {dup type /stringtype eq {show}{exec} ifelse}
	repeat grestore } def
/pinlabel { 4 index 32 and 0 ne hlevel 0 eq or { /pspc 10 def label
	/pspc 0 def } { pop pop pop pop pop {pop} repeat } ifelse } def
/pinglobal { pinlabel } def
/infolabel { pinlabel } def

/scb { setrgbcolor } bind def  /sce { defColor aload pop scb } bind def
/cRedef {/defColor currentcolor 3 array astore def} def
/begingate { /hlevel hlevel 1 add def /defColor currentcolor sce 3 array
	astore def gsave sce translate 0 0 moveto neg rotate dup abs scale
	} bind def
/makeparm  {3 string cvs dup length 1 add string /tstr exch def tstr exch
	1 exch putinterval tstr 0 (v) putinterval tstr cvn} bind def
/beginparm { -1 1 {makeparm exch def} for
	dup type /arraytype eq { aload length -1 1 {makeparm exch def}
	for } if begingate } bind def
/endgate { /hlevel hlevel 1 sub def grestore defColor aload pop cRedef
	scb} bind def

/hlevel 0 def
/tmpa [1 0 0 1 0 0] def
/gar {8 8 true tmpa {<c0 c0 00 00 0c 0c 00 00>} imagemask} bind
{8 8 true tmpa {<30 70 60 02 03 07 06 20>} imagemask} bind
{8 8 true tmpa {<0c 1e 1e 0c c0 e1 e1 c0>} imagemask} bind
{8 8 true tmpa {<0f 0f 0f 0f f0 f0 f0 f0>} imagemask} bind
{8 8 true tmpa {<3f f3 e1 e1 f3 3f 1e 1e>} imagemask} bind
{8 8 true tmpa {<df cf 8f 9f fd fc f8 f9>} imagemask} bind
{8 8 true tmpa {<ff 3f 3f ff ff f3 f3 ff>} imagemask} bind 7 array astore def
/ppaint { gsave clip tmpa dup setmatrix pathbbox neg exch neg 4 2 roll
  neg 4 -1 roll 2 copy gt {exch} if 8 div ceiling 8 mul 4 2 roll neg 2 copy
  gt {exch} if 8 div ceiling 8 mul 3 -1 roll -8 5 -1 roll
  { 3 index exch 5 exch put dup -8 3 index { 3 index
  exch 4 exch put 3 index exec } for } for pop pop pop pop grestore } bind def
/setstyles {
  currentlinewidth mul setlinewidth /style exch def
  style 1 and 0 gt not {closepath} if
  style 2 and 0 gt {currentlinewidth 4 mul dup 2 array astore 0 setdash} if
  style 4 and 0 gt {0.5 currentlinewidth 4 mul 2 array astore 0 setdash} if
  gsave style 16 and 0 gt { style 224 and -5 bitshift style 256 and 0 gt {
  7 exch sub 8 div dup 1 exch sub currentrgbcolor 3 array astore
  {3 copy mul add 4 1 roll pop} forall pop pop setrgbcolor eofill}
  {dup 7 lt {gar exch get ppaint} {pop eofill} ifelse} ifelse}
  {style 256 and 0 gt {1 setgray eofill} if} ifelse grestore style 8 and 0 gt 
  style 512 eq or {newpath} {stroke} ifelse grestore} def     

/polygon { gsave /num exch def moveto num 1 sub {lineto} repeat setstyles } def
/xcarc   { gsave newpath arc setstyles } def
/elb { matrix currentmatrix 7 -1 roll 7 -1 roll translate 5 1 roll 4 -1 roll
	3 index div 1 scale } def
/ele { 0 4 1 roll 0 4 1 roll } bind def
/ellipse { gsave elb newpath ele arc setmatrix setstyles } def
/pellip  { elb ele arc setmatrix } def
/nellip  { elb ele arcn setmatrix } def
/spline  { gsave moveto curveto setstyles } def
/polyc   { {lineto} repeat } bind def
/beginpath { gsave moveto } bind def
/endpath { setstyles } bind def
/bop	 { 1 setlinecap 0 setlinejoin 6 setmiterlimit 0 0 0 scb cRedef } def
/psinsertion {/PSobj save def /showpage {} def bop rotate translate dup scale} def
/end_insert {PSobj restore} def
/setpagemat {/pagemat matrix currentmatrix def} def
/inchscale  {setpagemat 0.375 mul dup scale} def
/cmscale    {setpagemat 0.35433071 mul dup scale} def

%%EndResource
%%EndProlog

% XCircuit output starts here.

/generic14 {
{(14-pin IC) {/Helvetica-Bold cf} } 1 beginparm
0 1.00 -240 -16 -240 464 240 464 240 -16 4 polygon
(2) {/Helvetica cf} 2 20 0 1.00 -224 352 label
(3) {/Helvetica cf} 2 20 0 1.00 -224 288 label
(4) {/Helvetica cf} 2 20 0 1.00 -224 224 label
(5) {/Helvetica cf} 2 20 0 1.00 -224 160 label
(6) {/Helvetica cf} 2 20 0 1.00 -224 96 label
(7) {/Helvetica cf} 2 20 0 1.00 -224 32 label
1.000 0.000 0.000 scb
(1) {/Helvetica cf} 2 23 0 1.00 -240 416 pinlabel
(2) {/Helvetica cf} 2 23 0 1.00 -240 352 pinlabel
(3) {/Helvetica cf} 2 23 0 1.00 -240 288 pinlabel
(4) {/Helvetica cf} 2 23 0 1.00 -240 224 pinlabel
(5) {/Helvetica cf} 2 23 0 1.00 -240 160 pinlabel
(6) {/Helvetica cf} 2 23 0 1.00 -240 96 pinlabel
(7) {/Helvetica cf} 2 23 0 1.00 -240 32 pinlabel
(8) {/Helvetica cf} 2 20 0 1.00 240 32 pinlabel
(9) {/Helvetica cf} 2 20 0 1.00 240 96 pinlabel
(10) {/Helvetica cf} 2 20 0 1.00 240 160 pinlabel
(11) {/Helvetica cf} 2 20 0 1.00 240 224 pinlabel
(12) {/Helvetica cf} 2 20 0 1.00 240 288 pinlabel
(13) {/Helvetica cf} 2 20 0 1.00 240 352 pinlabel
(14) {/Helvetica cf} 2 20 0 1.00 240 416 pinlabel
sce
(1) {/Helvetica cf} 2 20 0 1.00 -224 416 label
(8) {/Helvetica cf} 2 23 0 1.00 224 32 label
(9) {/Helvetica cf} 2 23 0 1.00 224 96 label
(10) {/Helvetica cf} 2 23 0 1.00 224 160 label
(11) {/Helvetica cf} 2 23 0 1.00 224 224 label
(12) {/Helvetica cf} 2 23 0 1.00 224 288 label
(13) {/Helvetica cf} 2 23 0 1.00 224 352 label
(14) {/Helvetica cf} 2 23 0 1.00 224 416 label
(    7407) {/Helvetica cf} 2 16 0 1.00 -112 272 label
endgate
} def

/resistor {
begingate
1 1.00 0 64 0 36 2 polygon
1 1.00 0 -64 0 -36 2 polygon
1 1.00 0 -36 14 -30 -14 -18 14 -6 -14 6 14 18 -14 30 0 36 8 polygon
1.000 0.000 0.000 scb
(r.1) {/Times-Roman cf} 2 9 0 1.00 0 64 pinlabel
(r.2) {/Times-Roman cf} 2 13 0 1.00 0 -64 pinlabel
0.180 0.545 0.341 scb
(spice:R%i %pr.1 %pr.2 1.0K) {/Times-Roman cf} 2 0 0 1.00 -208 -160 infolabel
(sim:r %pr.1 %pr.2) {/Times-Roman cf} 2 0 0 1.00 -208 -208 infolabel
endgate
} def

/diode {
begingate
248 1.00 -18 -16 0 16 18 -16 3 polygon
1 1.00 0 -48 0 -16 2 polygon
1 1.00 0 48 0 16 2 polygon
1 1.00 -18 16 18 16 2 polygon
1.000 0.000 0.000 scb
(d.m) {/Times-Roman cf} 2 9 0 1.00 0 48 pinlabel
(d.p) {/Times-Roman cf} 2 13 0 1.00 0 -48 pinlabel
endgate
} def

/arrowhead {
% trivial
begingate
8 -28 beginpath
3 -18 3 -15 0 0 curveto
-3 -15 -3 -18 -8 -28 curveto
-2 -26 2 -26 8 -28 curveto
249 1.00 endpath
endgate
} def

/npn {
begingate
1 1.00 -48 0 -64 0 2 polygon
1 1.00 -48 48 -48 -48 2 polygon
1 1.00 0 48 -48 22 2 polygon
1 1.00 0 48 0 64 2 polygon
1 1.00 0 -48 -48 -22 2 polygon
1 1.00 0 -48 0 -64 2 polygon
1.00 120 0 -48 arrowhead
1.000 0.000 0.000 scb
(C) {/Times-Roman cf} 2 9 0 1.00 0 64 pinlabel
(B) {/Times-Roman cf} 2 7 0 1.00 -64 0 pinlabel
(E) {/Times-Roman cf} 2 13 0 1.00 0 -64 pinlabel
0.180 0.545 0.341 scb
(spice:Q%i %pC %pB %pE npn) {/Times-Roman cf} 2 4 0 1.00 -244 -139 infolabel
(sim:b %pB %pE %pC) {/Times-Roman cf} 2 4 0 1.00 -244 -187 infolabel
endgate
} def

%%Page: 11 11
%%PageOrientation: Portrait
/pgsave save def bop
% 1056 1280 offsets
1.0000 inchscale
2.6000 setlinewidth

1.00 0 1536 1040 generic14
1.00 0 1120 1056 resistor
1 1.00 1296 1120 1120 1120 2 polygon
1 1.00 1296 1072 1216 1072 2 polygon
1 1.00 1216 1072 1216 864 1216 832 3 polygon
1.00 0 1120 1184 resistor
1 1.00 1296 1200 352 1200 2 polygon
1 1.00 1296 1264 992 1264 2 polygon
1.00 0 992 1200 resistor
1.00 0 992 1328 resistor
1 1.00 1296 1328 352 1328 2 polygon
1.00 0 864 1472 resistor
1 1.00 1296 1392 864 1392 880 1392 3 polygon
1.00 0 864 1344 resistor
-1.00 180 864 1648 diode
-1.00 180 992 1648 diode
-1.00 180 1120 1648 diode
-1.00 180 1248 1648 diode
1 1.00 992 1392 992 1600 2 polygon
1 1.00 864 1536 864 1616 2 polygon
1 1.00 1120 1248 1120 1600 2 polygon
1 1.00 1296 1456 352 1456 2 polygon
1.00 0 672 1136 resistor
1.00 0 608 1232 resistor
1.00 0 544 1328 resistor
1 1.00 608 1296 608 1328 592 1328 3 polygon
1 1.00 544 1392 544 1456 2 polygon
1 1.00 544 1264 544 832 2 polygon
1 1.00 608 1168 608 832 2 polygon
1 1.00 672 1072 672 832 2 polygon
1 1.00 352 1072 736 1072 2 polygon
1.00 0 736 1008 resistor
1 1.00 736 944 736 832 2 polygon
1 1.00 352 832 1216 832 2 polygon
1.00 0 1888 1472 resistor
1 1.00 1776 1456 1824 1456 1824 1712 1824 1760 608 1760 5 polygon
1 1.00 1248 1696 1248 1760 2 polygon
1 1.00 1120 1696 1120 1760 2 polygon
1 1.00 992 1696 992 1760 2 polygon
1 1.00 864 1696 864 1760 2 polygon
1 1.00 1888 1536 1888 1600 1248 1600 3 polygon
1 1.00 1888 1408 1776 1408 2 polygon
1.00 0 1888 1344 resistor
1 1.00 864 1280 864 688 2 polygon
1 1.00 992 1136 992 688 2 polygon
1 1.00 1120 992 1120 688 2 polygon
1 1.00 1888 768 1888 1280 2 polygon
1 1.00 736 1072 800 1072 800 928 1824 928 1824 1328 1776 1328 6 polygon
1 1.00 1248 688 1248 768 1888 768 3 polygon
-1.00 270 864 560 npn
1 1.00 864 688 864 624 2 polygon
1 1.00 928 560 928 832 2 polygon
-1.00 270 992 464 npn
1 1.00 992 528 992 688 2 polygon
1 1.00 1056 464 1056 832 2 polygon
-1.00 270 1120 368 npn
1 1.00 1120 688 1120 432 2 polygon
1 1.00 1184 368 1184 832 2 polygon
-1.00 270 1248 256 npn
1 1.00 1248 688 1248 320 2 polygon
1 1.00 1312 256 1312 832 1168 832 3 polygon
1 1.00 1296 832 2016 832 2016 1856 608 1856 4 polygon
(330) {/Helvetica cf} 2 16 0 1.00 880 1520 label
(330) {/Helvetica cf} 2 16 0 1.00 1008 1360 label
(330) {/Helvetica cf} 2 16 0 1.00 1136 1216 label
(330) {/Helvetica cf} 2 16 0 1.00 1920 1488 label
(700) {/Helvetica cf} 2 16 0 1.00 1920 1376 label
(700) {/Helvetica cf} 2 16 0 1.00 1136 1072 label
(700) {/Helvetica cf} 2 16 0 1.00 1008 1216 label
(700) {/Helvetica cf} 2 16 0 1.00 880 1344 label
(1K) {/Helvetica cf} 2 16 0 1.00 560 1376 label
(1K) {/Helvetica cf} 2 16 0 1.00 624 1248 label
(1K) {/Helvetica cf} 2 16 0 1.00 688 1136 label
(1K) {/Helvetica cf} 2 16 0 1.00 752 1008 label
(4xBD137) {/Helvetica cf} 2 16 0 1.00 1248 208 label
1 1.00 1568 640 1568 480 1696 480 1696 656 1568 656 1568 608 6 polygon
1 1.00 1664 480 1664 384 2 polygon
1 1.00 1632 480 1632 384 2 polygon
1 1.00 1600 480 1600 384 2 polygon
1 1.00 1632 592 22 0.00 360.00 xcarc
1 1.00 1616 608 1600 624 2 polygon
1 1.00 1648 608 1664 624 2 polygon
( E C B) {/Helvetica cf} 2 16 0 1.00 1568 352 label
(BD137) {/Helvetica cf} 2 16 0 1.00 1600 288 label
(2) {/Helvetica cf} 2 16 0 1.00 256 1456 label
( 3) {/Helvetica cf} 2 16 0 1.00 240 1328 label
(4) {/Helvetica cf} 2 16 0 1.00 256 1184 label
( 5) {/Helvetica cf} 2 16 0 1.00 240 1072 label
(  18-25) {/Helvetica cf} 2 16 0 1.00 192 832 label
(+5V) {/Helvetica cf} 2 16 0 1.00 528 1760 label
( GND) {/Helvetica cf} 2 16 0 1.00 512 1840 label
(4xLED) {/Helvetica cf} 2 16 0 1.00 1312 1664 label
1 1.00 800 560 800 432 2 polygon
1 1.00 768 432 832 432 832 400 768 400 768 432 5 polygon
1 1.00 800 352 45 0.00 360.00 xcarc
1 1.00 768 304 832 304 832 272 768 272 768 304 5 polygon
1 1.00 800 272 800 192 2 polygon
( M) {/Helvetica cf} 2 16 0 1.00 768 352 label
(+9V) {/Helvetica cf} 2 16 0 1.00 816 208 label
(GND) {/Helvetica cf} 2 16 0 1.00 432 784 label
(Parallel Port Driver  E.Boelen  5 aug 2003) {/Helvetica cf} 2 16 0 1.00 832 
2000 label
(parallel port) {/Helvetica cf} 2 16 0 1.00 208 1616 label
(pin nr:) {/Helvetica cf} 2 16 0 1.00 208 1568 label
pgsave restore showpage

%%Trailer
XCIRCsave restore
%%EOF
