%!PS-Adobe-3.0
%%Title: switch1
%%Creator: Xcircuit v2.5
%%CreationDate: Fri Aug 16 12:00:20 2002
%%Pages: 1
%%BoundingBox: 69 77 543 715
%%DocumentNeededResources: font Helvetica font Times-Roman font Symbol 
%%EndComments
%%BeginProlog
%
%  PostScript prolog for output from xcircuit
%  Version: 2.4
%
%  Electrical circuit (and otherwise general) drawing program
%
%  Written by Tim Edwards 8/5/93--5/16/01  (tim@bach.ece.jhu.edu)
%  The Johns Hopkins University
%
%%BeginResource: procset XCIRCproc 2.4 1
% supporting definitions --- these are the primary xcircuit types.

/XCIRCsave save def
/topmat matrix currentmatrix def

/fontslant { /slant exch def [1 0 slant 1 0 0] 
    exch findfont exch makefont dup length dict /ndict exch def
    { 1 index /FID ne { ndict 3 1 roll put } { pop pop } ifelse } forall
    ndict definefont pop} def
/ul { dup type /stringtype eq showflag 1 eq and { gsave 
   currentpoint topmat setmatrix 0 0 moveto 2 index stringwidth pop (_)
   false charpath flattenpath pathbbox grestore exch pop 1 index
   sub setlinewidth exch pop currentpoint 3 -1 roll add moveto 0
   rlineto stroke moveto } if } def
/ol { dup type /stringtype eq showflag 1 eq and { gsave gsave
   currentpoint topmat setmatrix 2 index stringwidth pop 3 index
   true charpath flattenpath pathbbox grestore exch pop
   exch pop topmat setmatrix (_) true charpath pathbbox grestore
   exch pop 1 index sub setlinewidth exch pop currentpoint
   exch 4 1 roll exch sub add moveto pop 0 rlineto stroke
   moveto } if } def
/stW { gsave currentpoint newpath moveto true charpath flattenpath
	pathbbox pop exch pop sub grestore } def
/Ts {mark Tabs aload pop counttomark 1 add array astore /Tabs exch def Tabs
	0 currentpoint pop put} def
/Tbn {mark Tabs aload pop counttomark dup 2 add 1 roll cleartomark 1 sub} def
/Tb { 0 1 Tbn {Tabs exch get dup currentpoint pop lt
	{currentpoint exch pop moveto exit} {pop} ifelse } for } def
/Tf { Tbn -1 0 {Tabs exch get dup currentpoint pop gt
	{currentpoint exch pop moveto exit} {pop} ifelse } for } def
/qS { (aa) stW (a a) stW sub 4 div 0 Kn } def
/hS { qS qS } def
/pspc 0 def
/cf0 { scalefont setfont } bind def
/Kn { dup kY add /kY exch def rmoveto } bind def
/ss { /fscale fscale 0.67 mul def currentfont 0.67 cf0 0 fscale0 fscale mul
	0.33 mul neg Kn} def
/Ss { /fscale fscale 0.67 mul def currentfont 0.67 cf0 0 fscale0 fscale mul
	0.67 mul Kn } def
/ns { 0 kY neg Kn /kY 0 def /fscale 1.0 def xfont0 1.0 cf0 } def
/CR { ns 0 /Bline Bline fscale0 neg add def Bline moveto } def
/cf { dup type /realtype ne {1.0} if exch findfont exch kY 0 eq
	{ 40 mul dup /fscale0 exch def cf0 /xfont0 currentfont def}
	{fscale0 mul fscale mul cf0} ifelse } def
/ctmk { counttomark dup 2 add -1 roll pop } bind def
/label { gsave translate 0 0 moveto dup scale neg /rotval exch def
	/just exch def just 16 and 0 gt {gsave rotval rotate 0 1 dtransform
	gsave pagemat setmatrix idtransform exch grestore 1 0 dtransform
	gsave pagemat setmatrix idtransform exch grestore dup abs 1e-9 lt
	{pop mul 0 gt} {3 1 roll pop pop 0 lt} ifelse grestore {-1 /rotval
	rotval neg def /just just dup 3 and 1 ne {3 xor} if def} {1} ifelse
	exch -1e-9 lt {-1 /rotval rotval neg def /just just dup 12 and
	4 ne {12 xor} if def} {1} ifelse scale } if /showflag 0 def
	/fspc pspc def /Bline 0 def /Tabs 0 array def /fscale 1.0 def
	/kY 0 def gsave dup 1 add copy 0 exch 1 0 dtransform exch atan rotate
	{exch dup type /stringtype eq {true charpath flattenpath} {exec}
	ifelse } repeat pop pathbbox grestore 3 -1 roll pop 3 1 roll just
	1 and 0 gt {just 2 and 0 gt {exch pop neg fspc sub} {exch sub 0.5
	mul neg} ifelse} {pop neg fspc add} ifelse exch Bline exch just 4
	and 0 gt {just 8 and 0 gt {exch pop neg fspc sub} {add 0.5 mul neg}
	ifelse} {pop neg fspc add} ifelse rotval rotate Kn currentpoint
	translate /showflag 1 def /Bline 0 def /Tabs 0 array def /fscale
	1.0 def /kY 0 def {dup type /stringtype eq {show}{exec} ifelse}
	repeat grestore } def
/pinlabel { 4 index 32 and 0 ne hlevel 0 eq or { /pspc 10 def label
	/pspc 0 def } { pop pop pop pop pop {pop} repeat } ifelse } def
/pinglobal { pinlabel } def
/infolabel { pinlabel } def

/scb { setrgbcolor } bind def  /sce { defColor aload pop scb } bind def
/cRedef {/defColor currentcolor 3 array astore def} def
/begingate { /hlevel hlevel 1 add def /defColor currentcolor sce 3 array
	astore def gsave sce translate 0 0 moveto neg rotate dup abs scale
	} bind def
/makeparm  {3 string cvs dup length 1 add string /tstr exch def tstr exch
	1 exch putinterval tstr 0 (v) putinterval tstr cvn} bind def
/beginparm { -1 1 {makeparm exch def} for
	dup type /arraytype eq { aload length -1 1 {makeparm exch def}
	for } if begingate } bind def
/endgate { /hlevel hlevel 1 sub def grestore defColor aload pop cRedef
	scb} bind def

/hlevel 0 def
/tmpa [1 0 0 1 0 0] def
/gar {8 8 true tmpa {<c0 c0 00 00 0c 0c 00 00>} imagemask} bind
{8 8 true tmpa {<30 70 60 02 03 07 06 20>} imagemask} bind
{8 8 true tmpa {<0c 1e 1e 0c c0 e1 e1 c0>} imagemask} bind
{8 8 true tmpa {<0f 0f 0f 0f f0 f0 f0 f0>} imagemask} bind
{8 8 true tmpa {<3f f3 e1 e1 f3 3f 1e 1e>} imagemask} bind
{8 8 true tmpa {<df cf 8f 9f fd fc f8 f9>} imagemask} bind
{8 8 true tmpa {<ff 3f 3f ff ff f3 f3 ff>} imagemask} bind 7 array astore def
/ppaint { gsave clip tmpa dup setmatrix pathbbox neg exch neg 4 2 roll
  neg 4 -1 roll 2 copy gt {exch} if 8 div ceiling 8 mul 4 2 roll neg 2 copy
  gt {exch} if 8 div ceiling 8 mul 3 -1 roll -8 5 -1 roll
  { 3 index exch 5 exch put dup -8 3 index { 3 index
  exch 4 exch put 3 index exec } for } for pop pop pop pop grestore } bind def
/setstyles {
  currentlinewidth mul setlinewidth /style exch def
  style 1 and 0 gt not {closepath} if
  style 2 and 0 gt {currentlinewidth 4 mul dup 2 array astore 0 setdash} if 
  style 4 and 0 gt {0.5 currentlinewidth 4 mul 2 array astore 0 setdash} if 
  style dup 256 ge exch 480 lt and { gsave 1 setgray eofill grestore } if
  style 16 and 0 gt { gsave style 224 and -5 bitshift dup 7 lt
	{gar exch get ppaint} { pop eofill } ifelse grestore } if
  style 8 and 0 gt style 512 eq or { newpath } { stroke } ifelse grestore } def

/polygon { gsave /num exch def moveto num 1 sub {lineto} repeat setstyles } def
/xcarc   { gsave newpath arc setstyles } def
/elb { matrix currentmatrix 7 -1 roll 7 -1 roll translate 5 1 roll 4 -1 roll
	3 index div 1 scale } def
/ele { 0 4 1 roll 0 4 1 roll } bind def
/ellipse { gsave elb newpath ele arc setmatrix setstyles } def
/pellip  { elb ele arc setmatrix } def
/nellip  { elb ele arcn setmatrix } def
/spline  { gsave moveto curveto setstyles } def
/polyc   { {lineto} repeat } bind def
/beginpath { gsave moveto } bind def
/endpath { setstyles } bind def
/bop	 { 1 setlinecap 0 setlinejoin 6 setmiterlimit 0 0 0 scb cRedef } def
/psinsertion {/PSobj save def /showpage {} def bop rotate translate dup scale} def
/end_insert {PSobj restore} def
/setpagemat {/pagemat matrix currentmatrix def} def
/inchscale  {setpagemat 0.375 mul dup scale} def
/cmscale    {setpagemat 0.35433071 mul dup scale} def

%%EndResource
%%EndProlog

% XCircuit output starts here.

/dot {
% trivial
begingate
248 1.00 0 0 6 0.00 360.00 xcarc
1.000 0.000 0.000 scb
(x) {/Times-Roman cf} 2 29 0 1.00 0 0 pinlabel
endgate
} def

/buffer {
% trivial
begingate
0 1.00 -32 -40 -32 40 40 0 3 polygon
1 1.00 -32 0 -48 0 2 polygon
1 1.00 40 0 64 0 2 polygon
1.000 0.000 0.000 scb
(Out) {/Times-Roman cf} 2 4 0 1.00 64 0 pinlabel
(In) {/Times-Roman cf} 2 7 0 1.00 -48 0 pinlabel
endgate
} def

/resistor {
begingate
1 1.00 0 64 0 36 2 polygon
1 1.00 0 -64 0 -36 2 polygon
1 1.00 0 -36 14 -30 -14 -18 14 -6 -14 6 14 18 -14 30 0 36 8 polygon
1.000 0.000 0.000 scb
(r.1) {/Times-Roman cf} 2 9 0 1.00 0 64 pinlabel
(r.2) {/Times-Roman cf} 2 13 0 1.00 0 -64 pinlabel
0.159 0.540 0.349 scb
(spice:R%i %pr.1 %pr.2 1.0K) {/Times-Roman cf} 2 0 0 1.00 -208 -160 infolabel
(sim:r %pr.1 %pr.2) {/Times-Roman cf} 2 0 0 1.00 -208 -208 infolabel
endgate
} def

/arrowhead {
% trivial
begingate
8 -28 beginpath
3 -18 3 -15 0 0 curveto
-3 -15 -3 -18 -8 -28 curveto
-2 -26 2 -26 8 -28 curveto
249 1.00 endpath
endgate
} def

/npn {
begingate
1 1.00 -48 0 -64 0 2 polygon
1 1.00 -48 48 -48 -48 2 polygon
1 1.00 0 48 -48 22 2 polygon
1 1.00 0 48 0 64 2 polygon
1 1.00 0 -48 -48 -22 2 polygon
1 1.00 0 -48 0 -64 2 polygon
1.00 120 0 -48 arrowhead
1.000 0.000 0.000 scb
(C) {/Times-Roman cf} 2 9 0 1.00 0 64 pinlabel
(B) {/Times-Roman cf} 2 7 0 1.00 -64 0 pinlabel
(E) {/Times-Roman cf} 2 13 0 1.00 0 -64 pinlabel
0.159 0.540 0.349 scb
(spice:Q%i %pC %pB %pE npn) {/Times-Roman cf} 2 4 0 1.00 -244 -139 infolabel
(sim:b %pB %pE %pC) {/Times-Roman cf} 2 4 0 1.00 -244 -187 infolabel
endgate
} def

/gnd {
% trivial
begingate
1 1.00 0 0 0 -32 2 polygon
1 1.00 -32 -32 32 -32 2 polygon
1 1.00 -18 -46 18 -46 2 polygon
1 1.00 -4 -60 4 -60 2 polygon
0.937 0.603 0.000 scb
(GND) {/Times-Roman cf} 2 1 0 1.00 0 0 pinglobal
endgate
} def

/diode {
begingate
248 1.00 -18 -16 0 16 18 -16 3 polygon
1 1.00 0 -48 0 -16 2 polygon
1 1.00 0 48 0 16 2 polygon
1 1.00 -18 16 18 16 2 polygon
1.000 0.000 0.000 scb
(d.m) {/Times-Roman cf} 2 9 0 1.00 0 48 pinlabel
(d.p) {/Times-Roman cf} 2 13 0 1.00 0 -48 pinlabel
endgate
} def

/vdd {
% trivial
begingate
1 1.00 0 0 0 32 2 polygon
1 1.00 -32 32 32 32 2 polygon
(Vdd) {/Times-Roman cf} 2 17 0 0.90 0 38 label
0.937 0.603 0.000 scb
(Vdd) {/Times-Roman cf} 2 13 0 1.00 0 0 pinglobal
endgate
} def

/circle {
% trivial
begingate
1 1.00 16 0 6 0.00 360.00 xcarc
1 1.00 0 0 10 0 2 polygon
1.000 0.000 0.000 scb
(out) {/Times-Roman cf} 2 4 0 1.00 16 0 pinlabel
(out) {/Times-Roman cf} 2 7 0 1.00 0 0 pinlabel
endgate
} def

/switch {
% trivial
begingate
1 1.30 32 32 2 -43 2 polygon
1 0.60 0 -48 57 49.00 90.00 xcarc
-1.00 90 0 -64 circle
0.60 270 -12 8 arrowhead
1.00 90 0 48 circle
1.000 0.000 0.000 scb
(sw.1) {/Times-Roman cf} 2 9 0 1.00 0 48 pinlabel
(sw.2) {/Times-Roman cf} 2 13 0 1.00 0 -64 pinlabel
endgate
} def

/5V {
% trivial
begingate
1 1.00 -32 0 32 0 2 polygon
1 1.00 0 0 0 -32 2 polygon
(V) {/Times-Roman cf} (+5) {/Symbol cf} 4 17 0 0.90 0 8 label
0.937 0.603 0.000 scb
(dVdd) {/Times-Roman cf} 2 13 0 1.00 0 -32 pinglobal
endgate
} def

%%Page: switch_schematic 1
%%PageOrientation: Portrait
/pgsave save def bop
% 1564 2451 offsets
0.5270 inchscale
2.6000 setlinewidth

1.00 0 508 1955 dot
1.00 0 508 1923 dot
1.00 0 508 1891 dot
1.00 0 508 1859 dot
1.00 0 508 1827 dot
1.00 0 508 1795 dot
1.00 0 508 1763 dot
1.00 0 508 1731 dot
1.00 0 508 1699 dot
1.00 0 508 1667 dot
1.00 0 508 1635 dot
1.00 0 508 1603 dot
1.00 0 508 1571 dot
1.00 0 508 1571 dot
1.00 0 476 1939 dot
1.00 0 476 1907 dot
1.00 0 476 1875 dot
1.00 0 476 1843 dot
1.00 0 476 1811 dot
1.00 0 476 1779 dot
1.00 0 476 1747 dot
1.00 0 476 1715 dot
1.00 0 476 1683 dot
1.00 0 476 1651 dot
1.00 0 476 1619 dot
1.00 0 476 1587 dot
1 1.00 444 1955 444 1539 540 1491 540 2003 444 1955 5 polygon
(parallel port) {/Helvetica cf} 2 16 0 1.00 380 2067 label
( 1) {/Helvetica cf} 2 16 0 0.50 508 1971 label
(13) {/Helvetica cf} 2 16 0 0.50 508 1539 label
1.00 0 1212 2803 buffer
1 1.00 1308 2867 1308 2739 1468 2739 1468 2867 1308 2867 5 polygon
1 1.00 1276 2803 1308 2803 2 polygon
1.00 0 1628 2803 buffer
1 1.00 1516 2803 1468 2803 2 polygon
1 1.00 1164 2803 1116 2803 2 polygon
1.00 0 1532 2803 dot
1 1.00 1580 2803 1532 2803 2 polygon
1.00 0 1532 2931 resistor
1 1.00 1532 2803 1532 2867 2 polygon
1.00 0 1692 2995 npn
1 1.00 1532 2995 1628 2995 1580 2995 3 polygon
1 1.00 1852 2931 1932 2931 2 polygon
1.00 0 1692 3219 resistor
1.00 0 1932 2931 gnd
1.00 0 1804 3187 diode
(IC1a) {/Helvetica cf} 2 16 0 1.00 1116 2867 label
(FF1a) {/Helvetica cf} 2 16 0 1.00 1340 2803 label
(IC1f) {/Helvetica cf} 2 16 0 1.00 1596 2867 label
-1.00 180 1692 3107 diode
1 1.00 1852 3235 1852 3139 1996 3139 1996 3235 1852 3235 1996 3139 6 polygon
1 1.00 1932 3139 1932 3059 1868 3059 3 polygon
1 1.00 1804 3059 1804 3139 2 polygon
1 1.00 1692 3315 1932 3315 1932 3251 3 polygon
1 1.00 1932 3235 1932 3251 2 polygon
1 1.00 1804 3251 1804 3315 2 polygon
1 1.00 1804 3235 1804 3267 2 polygon
1 1.00 1692 3283 1692 3315 2 polygon
1 1.00 1868 3059 1692 3059 2 polygon
1 1.00 1692 2931 1852 2931 2 polygon
1.00 0 1740 3315 vdd
1.00 0 2156 3187 switch
1.00 0 2268 3187 switch
3 1.00 1996 3187 2268 3187 2 polygon
1.00 0 1212 2083 buffer
1 1.00 1308 2147 1308 2019 1468 2019 1468 2147 1308 2147 5 polygon
1.00 0 1628 2083 buffer
1 1.00 1516 2083 1468 2083 2 polygon
1 1.00 1164 2083 1116 2083 2 polygon
1.00 0 1532 2083 dot
1 1.00 1580 2083 1532 2083 2 polygon
1.00 0 1532 2211 resistor
1 1.00 1532 2083 1532 2147 2 polygon
1.00 0 1692 2275 npn
1 1.00 1532 2275 1628 2275 1580 2275 3 polygon
1 1.00 1852 2211 1932 2211 2 polygon
1.00 0 1692 2499 resistor
1.00 0 1932 2211 gnd
1.00 0 1804 2467 diode
-1.00 180 1692 2387 diode
1 1.00 1852 2515 1852 2419 1996 2419 1996 2515 1852 2515 1996 2419 6 polygon
1 1.00 1932 2419 1932 2339 1868 2339 3 polygon
1 1.00 1804 2339 1804 2419 2 polygon
1 1.00 1692 2595 1932 2595 1932 2531 3 polygon
1 1.00 1932 2515 1932 2531 2 polygon
1 1.00 1804 2531 1804 2595 2 polygon
1 1.00 1804 2515 1804 2547 2 polygon
1 1.00 1692 2563 1692 2595 2 polygon
1 1.00 1868 2339 1692 2339 2 polygon
1 1.00 1692 2211 1852 2211 2 polygon
1.00 0 1740 2595 vdd
1.00 0 2156 2467 switch
1.00 0 2268 2467 switch
3 1.00 1996 2467 2268 2467 2 polygon
1.00 0 1212 1331 buffer
1 1.00 1308 1395 1308 1267 1468 1267 1468 1395 1308 1395 5 polygon
1 1.00 1276 1331 1308 1331 2 polygon
1.00 0 1628 1331 buffer
1 1.00 1516 1331 1468 1331 2 polygon
1 1.00 1164 1331 1116 1331 2 polygon
1.00 0 1532 1331 dot
1 1.00 1580 1331 1532 1331 2 polygon
1.00 0 1532 1459 resistor
1 1.00 1532 1331 1532 1395 2 polygon
1.00 0 1692 1523 npn
1 1.00 1532 1523 1628 1523 1580 1523 3 polygon
1 1.00 1852 1459 1932 1459 2 polygon
1.00 0 1692 1747 resistor
1.00 0 1932 1459 gnd
1.00 0 1804 1715 diode
-1.00 180 1692 1635 diode
1 1.00 1852 1763 1852 1667 1996 1667 1996 1763 1852 1763 1996 1667 6 polygon
1 1.00 1932 1667 1932 1587 1868 1587 3 polygon
1 1.00 1804 1587 1804 1667 2 polygon
1 1.00 1692 1843 1932 1843 1932 1779 3 polygon
1 1.00 1932 1763 1932 1779 2 polygon
1 1.00 1804 1779 1804 1843 2 polygon
1 1.00 1804 1763 1804 1795 2 polygon
1 1.00 1692 1811 1692 1843 2 polygon
1 1.00 1868 1587 1692 1587 2 polygon
1 1.00 1692 1459 1852 1459 2 polygon
1.00 0 1740 1843 vdd
1.00 0 2156 1715 switch
1.00 0 2268 1715 switch
3 1.00 1996 1715 2268 1715 2 polygon
1.00 0 1212 579 buffer
1 1.00 1308 643 1308 515 1468 515 1468 643 1308 643 5 polygon
1 1.00 1276 579 1308 579 2 polygon
1.00 0 1628 579 buffer
1 1.00 1516 579 1468 579 2 polygon
1 1.00 1164 579 1116 579 2 polygon
1.00 0 1532 579 dot
1.00 0 1532 707 resistor
1 1.00 1532 579 1532 643 2 polygon
1.00 0 1692 771 npn
1 1.00 1532 771 1628 771 1580 771 3 polygon
1 1.00 1852 707 1932 707 2 polygon
1.00 0 1692 995 resistor
1.00 0 1932 707 gnd
1.00 0 1804 963 diode
-1.00 180 1692 883 diode
1 1.00 1852 1011 1852 915 1996 915 1996 1011 1852 1011 1996 915 6 polygon
1 1.00 1932 915 1932 835 1868 835 3 polygon
1 1.00 1804 835 1804 915 2 polygon
1 1.00 1692 1091 1932 1091 1932 1027 3 polygon
1 1.00 1932 1011 1932 1027 2 polygon
1 1.00 1804 1027 1804 1091 2 polygon
1 1.00 1804 1011 1804 1043 2 polygon
1 1.00 1692 1059 1692 1091 2 polygon
1 1.00 1868 835 1692 835 2 polygon
1 1.00 1692 707 1852 707 2 polygon
1.00 0 1740 1091 vdd
1.00 0 2156 963 switch
1.00 0 2268 963 switch
3 1.00 1996 963 2268 963 2 polygon
1 1.00 508 1923 652 1923 652 2803 1100 2803 1116 2803 5 polygon
1 1.00 1116 2083 700 2083 700 1907 700 1891 508 1891 5 polygon
1 1.00 508 1859 700 1859 700 1331 1132 1331 4 polygon
1 1.00 508 1827 652 1827 652 579 1132 579 4 polygon
1 1.00 1692 579 1692 467 572 467 572 1571 508 1571 5 polygon
1 1.00 1692 1331 1692 1219 764 1219 764 1603 508 1603 5 polygon
1 1.00 508 1667 748 1667 764 1667 764 1955 1692 1955 1692 2083 1692 2067 
7 polygon
1 1.00 508 1635 828 1635 828 2707 1692 2707 1692 2803 5 polygon
(IC1b) {/Helvetica cf} 2 16 0 1.00 1116 2147 label
(IC1e) {/Helvetica cf} 2 16 0 1.00 1596 2147 label
(FF1b) {/Helvetica cf} 2 16 0 1.00 1340 2083 label
(IC2a) {/Helvetica cf} 2 16 0 1.00 1100 1395 label
(IC2e) {/Helvetica cf} 2 16 0 1.00 1596 1395 label
(10K) {/Helvetica cf} 2 16 0 1.00 1452 2915 label
(10K) {/Helvetica cf} 2 16 0 1.00 1436 2195 label
(10K) {/Helvetica cf} 2 16 0 1.00 1452 1459 label
(FF2b) {/Helvetica cf} 2 16 0 1.00 1340 579 label
(FF2a) {/Helvetica cf} 2 16 0 1.00 1340 1347 label
(IC2b) {/Helvetica cf} 2 16 0 1.00 1116 643 label
(IC2e) {/Helvetica cf} 2 16 0 1.00 1596 643 label
(10K) {/Helvetica cf} 2 16 0 1.00 1452 707 label
1 1.00 2268 3235 2268 3299 2684 3299 3 polygon
1 1.00 2156 3235 2156 3411 2684 3411 3 polygon
1 1.00 2268 2515 2268 2579 2684 2579 3 polygon
1 1.00 2156 2531 2156 2675 2684 2675 3 polygon
1 1.00 2156 1763 2156 1971 2668 1971 2700 1971 4 polygon
1 1.00 2268 1763 2268 1859 2700 1859 3 polygon
1 1.00 2268 1011 2268 1091 2732 1091 3 polygon
1 1.00 2156 1011 2156 1171 2156 1203 2732 1203 4 polygon
1 1.00 2268 883 2268 835 2380 835 3 polygon
1 1.00 2156 883 2156 755 2188 755 2188 771 4 polygon
1 1.00 2188 739 2188 755 2 polygon
1 1.00 2188 771 2268 771 2268 739 2188 739 4 polygon
1 1.00 2188 755 2460 755 2 polygon
(2A) {/Helvetica cf} 2 16 0 1.00 2204 707 label
1 1.00 2268 1635 2268 1587 2380 1587 3 polygon
1 1.00 2156 1635 2156 1507 2188 1507 2188 1523 4 polygon
1 1.00 2188 1491 2188 1507 2 polygon
1 1.00 2188 1523 2268 1523 2268 1491 2188 1491 4 polygon
1 1.00 2188 1507 2460 1507 2 polygon
(2A) {/Helvetica cf} 2 16 0 1.00 2204 1459 label
1 1.00 2268 2387 2268 2339 2380 2339 3 polygon
1 1.00 2156 2387 2156 2259 2188 2259 2188 2275 4 polygon
1 1.00 2188 2243 2188 2259 2 polygon
1 1.00 2188 2275 2268 2275 2268 2243 2188 2243 4 polygon
1 1.00 2188 2259 2460 2259 2 polygon
(2A) {/Helvetica cf} 2 16 0 1.00 2204 2211 label
1 1.00 2268 3107 2268 3059 2380 3059 3 polygon
1 1.00 2156 3107 2156 2979 2188 2979 2188 2995 4 polygon
1 1.00 2188 2963 2188 2979 2 polygon
1 1.00 2188 2995 2268 2995 2268 2963 2188 2963 4 polygon
1 1.00 2188 2979 2460 2979 2 polygon
(2A) {/Helvetica cf} 2 16 0 1.00 2204 2931 label
1 1.00 2380 3059 2380 451 2460 451 3 polygon
1 1.00 2460 579 2460 2995 2 polygon
1 1.00 2460 435 2460 451 2 polygon
1 1.00 2460 467 2540 467 2540 435 2460 435 4 polygon
1 1.00 2460 451 2732 451 2 polygon
1 1.00 2460 435 2460 467 2460 435 3 polygon
1 1.00 2460 579 2732 579 2 polygon
(10A) {/Helvetica cf} 2 16 0 1.00 2476 403 label
1 1.00 476 1779 476 1587 2 polygon
1 1.00 476 1683 396 1683 396 1459 396 1475 4 polygon
1.00 0 396 1459 gnd
1.00 0 1052 3379 5V
1.00 90 1244 3299 circle
(IC1) {/Helvetica cf} 2 16 0 1.00 1212 3219 label
1.00 90 1116 3299 circle
1.00 90 988 3299 circle
1.00 90 860 3299 circle
1 1.00 1116 3299 1116 3347 2 polygon
1 1.00 988 3299 988 3347 2 polygon
1 1.00 860 3299 860 3347 2 polygon
1 1.00 860 3347 1244 3347 2 polygon
1 1.00 1244 3347 1244 3299 2 polygon
1 1.00 1244 3123 860 3123 2 polygon
{/Helvetica cf} 1 16 0 1.00 1628 3603 label
1.00 270 1244 3155 circle
1 1.00 1244 3155 1244 3123 2 polygon
{/Helvetica cf} 1 16 0 1.00 1500 3603 label
1.00 270 1116 3155 circle
1 1.00 1116 3155 1116 3123 2 polygon
{/Helvetica cf} 1 16 0 1.00 1372 3603 label
1.00 270 988 3155 circle
1 1.00 988 3155 988 3123 2 polygon
{/Helvetica cf} 1 16 0 1.00 1244 3603 label
1.00 270 860 3155 circle
1 1.00 860 3155 860 3123 2 polygon
(IC2) {/Helvetica cf} 2 16 0 1.00 1084 3219 label
(FF1) {/Helvetica cf} 2 16 0 1.00 956 3219 label
(FF2) {/Helvetica cf} 2 16 0 1.00 828 3219 label
(14) {/Helvetica cf} 2 16 0 0.60 1276 3267 label
(14) {/Helvetica cf} 2 16 0 0.60 1132 3267 label
(7) {/Helvetica cf} 2 16 0 0.60 1276 3171 label
(7) {/Helvetica cf} 2 16 0 0.60 1132 3171 label
(13) {/Helvetica cf} 2 16 0 0.60 1004 3171 label
(13) {/Helvetica cf} 2 16 0 0.60 876 3171 label
(5) {/Helvetica cf} 2 16 0 0.60 876 3283 label
(5) {/Helvetica cf} 2 16 0 0.60 1004 3283 label
(1) {/Helvetica cf} 2 16 0 0.60 1148 2819 label
(1) {/Helvetica cf} 2 16 0 0.60 1164 1347 label
(2) {/Helvetica cf} 2 16 0 0.60 1244 2819 label
(2) {/Helvetica cf} 2 16 0 0.60 1244 1347 label
( 1) {/Helvetica cf} 2 16 0 0.60 1308 2787 label
( 15) {/Helvetica cf} 2 16 0 0.60 1436 2787 label
( 13) {/Helvetica cf} 2 16 0 0.60 1564 2819 label
(12) {/Helvetica cf} 2 16 0 0.60 1660 2819 label
(3) {/Helvetica cf} 2 16 0 0.60 1148 2099 label
(4) {/Helvetica cf} 2 16 0 0.60 1244 2099 label
( 11) {/Helvetica cf} 2 16 0 0.60 1436 2067 label
1 1.00 1276 2083 1308 2083 2 polygon
( 6) {/Helvetica cf} 2 16 0 0.60 1308 2067 label
(11) {/Helvetica cf} 2 16 0 0.60 1580 2099 label
(10) {/Helvetica cf} 2 16 0 0.60 1660 2099 label
1.00 0 1052 3123 gnd
pgsave restore showpage

%%Trailer
XCIRCsave restore
%%EOF
