17.799999 Mon Mar 11 17:50:42 2002
16.799999 Mon Mar 11 18:01:47 2002
17.400000 Mon Mar 11 18:02:23 2002
16.799999 Mon Mar 11 20:19:25 2002
16.600000 Mon Mar 11 20:19:57 2002
16.200001 Mon Mar 11 21:31:47 2002
16.000000 Mon Mar 11 22:02:11 2002
16.200001 Mon Mar 11 22:31:46 2002
16.200001 Mon Mar 11 23:02:10 2002
16.400000 Mon Mar 11 23:31:47 2002
16.799999 Tue Mar 12 00:02:11 2002
16.600000 Tue Mar 12 00:31:46 2002
16.000000 Tue Mar 12 01:02:10 2002
15.800000 Tue Mar 12 01:31:45 2002
15.600000 Tue Mar 12 02:02:10 2002
15.400000 Tue Mar 12 02:31:46 2002
15.400000 Tue Mar 12 03:02:10 2002
15.200000 Tue Mar 12 03:31:45 2002
15.000000 Tue Mar 12 04:02:09 2002
14.800000 Tue Mar 12 04:31:46 2002
14.400000 Tue Mar 12 05:02:10 2002
15.000000 Tue Mar 12 05:31:46 2002
15.200000 Tue Mar 12 06:02:10 2002
14.800000 Tue Mar 12 06:31:46 2002
15.200000 Tue Mar 12 07:02:10 2002
15.000000 Tue Mar 12 07:31:46 2002
14.800000 Tue Mar 12 08:02:10 2002
14.800000 Tue Mar 12 08:31:45 2002
15.000000 Tue Mar 12 09:02:10 2002
14.800000 Tue Mar 12 09:31:46 2002
14.600000 Tue Mar 12 10:02:10 2002
15.000000 Tue Mar 12 10:31:46 2002
15.200000 Tue Mar 12 11:02:10 2002
15.000000 Tue Mar 12 11:31:46 2002
15.200000 Tue Mar 12 12:02:11 2002
15.800000 Tue Mar 12 12:31:46 2002
15.400000 Tue Mar 12 13:02:10 2002
15.200000 Tue Mar 12 13:31:45 2002
16.000000 Tue Mar 12 14:02:09 2002
16.400000 Tue Mar 12 14:31:46 2002
16.799999 Tue Mar 12 15:02:10 2002
16.600000 Tue Mar 12 15:31:46 2002
17.000000 Tue Mar 12 16:02:10 2002
17.400000 Tue Mar 12 16:31:46 2002
16.799999 Tue Mar 12 17:02:10 2002
16.799999 Tue Mar 12 17:31:45 2002
17.600000 Tue Mar 12 18:02:10 2002
15.400000 Tue Mar 12 18:31:46 2002
16.600000 Tue Mar 12 19:02:10 2002
16.000000 Tue Mar 12 19:31:46 2002
16.000000 Tue Mar 12 20:02:10 2002
16.000000 Tue Mar 12 20:31:46 2002
16.000000 Tue Mar 12 21:02:10 2002
16.000000 Tue Mar 12 21:31:46 2002
16.000000 Tue Mar 12 22:02:10 2002
16.000000 Tue Mar 12 22:31:46 2002
16.000000 Tue Mar 12 23:02:10 2002
16.000000 Tue Mar 12 23:31:46 2002
16.600000 Wed Mar 13 00:02:10 2002
16.799999 Wed Mar 13 00:31:46 2002
15.400000 Wed Mar 13 01:02:11 2002
16.799999 Wed Mar 13 01:31:46 2002
15.600000 Wed Mar 13 02:02:10 2002
15.400000 Wed Mar 13 02:31:45 2002
15.200000 Wed Mar 13 03:02:10 2002
15.400000 Wed Mar 13 03:31:46 2002
15.200000 Wed Mar 13 04:02:10 2002
15.200000 Wed Mar 13 04:31:46 2002
15.200000 Wed Mar 13 05:02:10 2002
15.400000 Wed Mar 13 05:31:46 2002
14.600000 Wed Mar 13 06:02:10 2002
14.600000 Wed Mar 13 06:31:46 2002
14.400000 Wed Mar 13 07:02:10 2002
14.600000 Wed Mar 13 07:31:46 2002
14.600000 Wed Mar 13 08:02:10 2002
14.600000 Wed Mar 13 08:31:46 2002
15.600000 Wed Mar 13 09:02:10 2002
16.000000 Wed Mar 13 09:31:46 2002
14.800000 Wed Mar 13 10:02:10 2002
14.600000 Wed Mar 13 10:31:45 2002
14.800000 Wed Mar 13 11:02:10 2002
15.000000 Wed Mar 13 11:31:46 2002
14.000000 Wed Mar 13 12:02:10 2002
15.000000 Wed Mar 13 12:31:46 2002
14.000000 Wed Mar 13 13:02:10 2002
14.000000 Wed Mar 13 13:31:46 2002
14.200000 Wed Mar 13 14:02:10 2002
15.600000 Wed Mar 13 14:31:46 2002
13.600000 Wed Mar 13 15:02:10 2002
13.600000 Wed Mar 13 15:31:46 2002
13.400000 Wed Mar 13 16:02:10 2002
13.800000 Wed Mar 13 16:31:46 2002
13.600000 Wed Mar 13 17:02:10 2002
13.200000 Wed Mar 13 17:31:46 2002
13.400000 Wed Mar 13 18:02:10 2002
13.600000 Wed Mar 13 18:31:46 2002
13.200000 Wed Mar 13 19:02:10 2002
13.600000 Wed Mar 13 19:31:46 2002
13.200000 Wed Mar 13 20:02:10 2002
13.600000 Wed Mar 13 20:31:46 2002
13.400000 Wed Mar 13 21:02:10 2002
13.800000 Wed Mar 13 21:31:46 2002
13.400000 Wed Mar 13 22:02:10 2002
13.000000 Wed Mar 13 22:31:46 2002
13.000000 Wed Mar 13 23:02:10 2002
13.600000 Wed Mar 13 23:31:46 2002
13.000000 Thu Mar 14 00:02:10 2002
13.000000 Thu Mar 14 00:31:46 2002
14.000000 Thu Mar 14 01:02:10 2002
13.600000 Thu Mar 14 01:31:45 2002
13.600000 Thu Mar 14 02:02:10 2002
13.200000 Thu Mar 14 02:31:46 2002
13.000000 Thu Mar 14 03:02:11 2002
13.200000 Thu Mar 14 03:31:46 2002
13.200000 Thu Mar 14 04:02:10 2002
13.000000 Thu Mar 14 04:31:46 2002
13.400000 Thu Mar 14 05:02:10 2002
13.000000 Thu Mar 14 06:02:10 2002
12.800000 Thu Mar 14 06:31:46 2002
13.000000 Thu Mar 14 07:02:10 2002
12.800000 Thu Mar 14 08:02:10 2002
13.200000 Thu Mar 14 08:31:46 2002
13.200000 Thu Mar 14 09:02:10 2002
13.200000 Thu Mar 14 09:31:45 2002
12.600000 Thu Mar 14 10:02:10 2002
12.800000 Thu Mar 14 10:31:46 2002
13.400000 Thu Mar 14 11:02:10 2002
13.600000 Thu Mar 14 11:31:46 2002
13.400000 Thu Mar 14 12:02:10 2002
13.200000 Thu Mar 14 12:31:46 2002
12.800000 Thu Mar 14 13:02:10 2002
12.800000 Thu Mar 14 13:31:46 2002
13.400000 Thu Mar 14 14:02:10 2002
13.000000 Thu Mar 14 14:31:46 2002
13.200000 Thu Mar 14 15:02:10 2002
13.200000 Thu Mar 14 15:31:46 2002
13.200000 Thu Mar 14 16:02:10 2002
13.400000 Thu Mar 14 16:31:46 2002
13.200000 Thu Mar 14 17:02:10 2002
12.800000 Thu Mar 14 17:31:46 2002
12.800000 Thu Mar 14 18:02:10 2002
13.600000 Thu Mar 14 18:31:46 2002
13.000000 Thu Mar 14 19:02:10 2002
13.200000 Thu Mar 14 19:31:46 2002
12.600000 Thu Mar 14 20:02:10 2002
12.800000 Thu Mar 14 20:31:46 2002
13.000000 Thu Mar 14 21:02:10 2002
13.000000 Thu Mar 14 21:31:45 2002
13.200000 Thu Mar 14 22:02:10 2002
12.800000 Thu Mar 14 22:31:46 2002
12.200000 Thu Mar 14 23:02:10 2002
12.200000 Thu Mar 14 23:31:46 2002
12.400000 Fri Mar 15 00:02:10 2002
12.000000 Fri Mar 15 00:31:45 2002
12.200000 Fri Mar 15 01:02:10 2002
12.200000 Fri Mar 15 01:31:46 2002
12.200000 Fri Mar 15 02:02:10 2002
12.600000 Fri Mar 15 02:31:46 2002
13.000000 Fri Mar 15 03:02:10 2002
12.200000 Fri Mar 15 04:02:10 2002
12.200000 Fri Mar 15 04:31:46 2002
12.000000 Fri Mar 15 05:02:10 2002
11.600000 Fri Mar 15 05:31:46 2002
11.800000 Fri Mar 15 06:02:10 2002
12.200000 Fri Mar 15 06:31:46 2002
12.000000 Fri Mar 15 07:02:10 2002
12.000000 Fri Mar 15 07:31:46 2002
12.200000 Fri Mar 15 08:02:10 2002
12.200000 Fri Mar 15 08:31:46 2002
11.400000 Fri Mar 15 09:02:10 2002
11.600000 Fri Mar 15 09:31:45 2002
12.200000 Fri Mar 15 10:02:10 2002
12.200000 Fri Mar 15 10:31:45 2002
12.000000 Fri Mar 15 11:02:10 2002
12.200000 Fri Mar 15 11:31:46 2002
12.200000 Fri Mar 15 12:02:10 2002
12.200000 Fri Mar 15 12:31:46 2002
12.600000 Fri Mar 15 13:02:11 2002
13.000000 Fri Mar 15 13:31:46 2002
12.400000 Fri Mar 15 14:02:10 2002
12.600000 Fri Mar 15 14:31:46 2002
13.000000 Fri Mar 15 15:02:10 2002
12.400000 Fri Mar 15 15:31:46 2002
12.600000 Fri Mar 15 16:02:10 2002
12.600000 Fri Mar 15 16:31:46 2002
12.800000 Fri Mar 15 17:02:10 2002
13.200000 Fri Mar 15 17:31:47 2002
13.000000 Fri Mar 15 18:02:11 2002
12.600000 Fri Mar 15 18:31:46 2002
12.000000 Fri Mar 15 19:02:10 2002
12.400000 Fri Mar 15 19:31:46 2002
12.000000 Fri Mar 15 20:02:10 2002
12.800000 Fri Mar 15 20:31:45 2002
13.000000 Fri Mar 15 21:02:10 2002
12.200000 Fri Mar 15 21:31:46 2002
12.800000 Fri Mar 15 22:02:10 2002
12.600000 Fri Mar 15 22:31:45 2002
12.200000 Fri Mar 15 23:02:10 2002
12.000000 Fri Mar 15 23:31:46 2002
12.200000 Sat Mar 16 00:02:10 2002
12.200000 Sat Mar 16 00:31:46 2002
13.000000 Sat Mar 16 01:02:10 2002
12.400000 Sat Mar 16 01:31:45 2002
12.400000 Sat Mar 16 02:02:10 2002
12.400000 Sat Mar 16 02:31:46 2002
12.200000 Sat Mar 16 03:02:10 2002
12.200000 Sat Mar 16 03:31:46 2002
12.400000 Sat Mar 16 04:02:10 2002
12.600000 Sat Mar 16 04:31:45 2002
12.400000 Sat Mar 16 05:02:10 2002
12.200000 Sat Mar 16 05:31:46 2002
12.600000 Sat Mar 16 06:02:11 2002
12.200000 Sat Mar 16 06:31:46 2002
12.800000 Sat Mar 16 07:02:10 2002
12.200000 Sat Mar 16 07:31:45 2002
13.000000 Sat Mar 16 08:02:09 2002
12.200000 Sat Mar 16 08:31:45 2002
12.600000 Sat Mar 16 09:02:10 2002
12.400000 Sat Mar 16 09:31:45 2002
14.400000 Sat Mar 16 10:02:10 2002
14.200000 Sat Mar 16 10:31:46 2002
15.200000 Sat Mar 16 11:02:10 2002
15.800000 Sat Mar 16 11:31:46 2002
16.000000 Sat Mar 16 12:02:10 2002
15.400000 Sat Mar 16 12:31:46 2002
15.600000 Sat Mar 16 13:02:10 2002
15.000000 Sat Mar 16 13:31:46 2002
15.400000 Sat Mar 16 14:02:10 2002
15.200000 Sat Mar 16 14:31:46 2002
15.600000 Sat Mar 16 15:02:10 2002
15.400000 Sat Mar 16 15:31:46 2002
15.600000 Sat Mar 16 16:02:10 2002
15.800000 Sat Mar 16 16:31:45 2002
15.000000 Sat Mar 16 17:02:09 2002
15.400000 Sat Mar 16 17:31:45 2002
15.200000 Sat Mar 16 18:02:10 2002
15.400000 Sat Mar 16 18:31:45 2002
14.800000 Sat Mar 16 19:02:10 2002
15.400000 Sat Mar 16 19:31:46 2002
15.200000 Sat Mar 16 20:02:10 2002
14.800000 Sat Mar 16 20:31:46 2002
15.200000 Sat Mar 16 21:02:10 2002
15.400000 Sat Mar 16 21:31:46 2002
15.400000 Sat Mar 16 22:02:10 2002
15.200000 Sat Mar 16 22:31:46 2002
14.800000 Sat Mar 16 23:02:10 2002
14.400000 Sat Mar 16 23:31:46 2002
15.400000 Sun Mar 17 00:02:10 2002
15.000000 Sun Mar 17 00:31:45 2002
15.000000 Sun Mar 17 01:02:09 2002
14.600000 Sun Mar 17 01:31:45 2002
14.800000 Sun Mar 17 02:02:10 2002
15.200000 Sun Mar 17 02:31:45 2002
14.800000 Sun Mar 17 03:02:10 2002
14.800000 Sun Mar 17 03:31:46 2002
14.600000 Sun Mar 17 04:02:10 2002
14.600000 Sun Mar 17 04:31:46 2002
14.200000 Sun Mar 17 05:02:10 2002
14.600000 Sun Mar 17 05:31:46 2002
15.200000 Sun Mar 17 06:02:10 2002
14.800000 Sun Mar 17 06:31:46 2002
14.200000 Sun Mar 17 07:02:10 2002
14.200000 Sun Mar 17 07:31:46 2002
13.400000 Sun Mar 17 08:02:10 2002
14.400000 Sun Mar 17 08:31:46 2002
14.800000 Sun Mar 17 09:02:10 2002
15.000000 Sun Mar 17 09:31:45 2002
15.200000 Sun Mar 17 10:02:10 2002
15.600000 Sun Mar 17 10:31:45 2002
15.900000 Sun Mar 17 11:02:10 2002
16.799999 Sun Mar 17 11:31:46 2002
16.799999 Sun Mar 17 12:02:10 2002
16.799999 Sun Mar 17 12:31:46 2002
16.799999 Sun Mar 17 13:02:10 2002
15.400000 Sun Mar 17 13:31:46 2002
15.400000 Sun Mar 17 14:02:10 2002
16.400000 Sun Mar 17 14:31:46 2002
16.400000 Sun Mar 17 15:02:10 2002
16.400000 Sun Mar 17 15:31:46 2002
16.000000 Sun Mar 17 16:02:10 2002
16.000000 Sun Mar 17 16:31:46 2002
16.000000 Sun Mar 17 17:02:10 2002
16.799999 Sun Mar 17 17:31:45 2002
16.200001 Sun Mar 17 18:02:09 2002
16.000000 Sun Mar 17 18:31:45 2002
15.400000 Sun Mar 17 19:02:09 2002
16.000000 Sun Mar 17 19:31:45 2002
15.400000 Sun Mar 17 20:02:10 2002
15.600000 Sun Mar 17 20:31:45 2002
16.000000 Sun Mar 17 21:02:10 2002
16.000000 Sun Mar 17 21:31:46 2002
16.000000 Sun Mar 17 22:02:10 2002
16.000000 Sun Mar 17 22:31:46 2002
15.800000 Sun Mar 17 23:02:10 2002
16.400000 Sun Mar 17 23:31:46 2002
15.600000 Mon Mar 18 00:02:10 2002
15.800000 Mon Mar 18 00:31:46 2002
15.400000 Mon Mar 18 01:02:10 2002
15.400000 Mon Mar 18 01:31:46 2002
15.200000 Mon Mar 18 02:02:10 2002
15.400000 Mon Mar 18 02:31:46 2002
15.600000 Mon Mar 18 03:02:10 2002
15.400000 Mon Mar 18 03:31:45 2002
15.200000 Mon Mar 18 04:02:10 2002
15.200000 Mon Mar 18 04:31:45 2002
15.400000 Mon Mar 18 05:02:10 2002
15.000000 Mon Mar 18 05:31:46 2002
15.200000 Mon Mar 18 06:02:10 2002
15.000000 Mon Mar 18 06:31:45 2002
15.000000 Mon Mar 18 07:02:10 2002
15.000000 Mon Mar 18 07:31:45 2002
15.000000 Mon Mar 18 08:02:10 2002
14.800000 Mon Mar 18 08:31:46 2002
15.000000 Mon Mar 18 09:02:10 2002
15.200000 Mon Mar 18 09:31:46 2002
15.400000 Mon Mar 18 10:02:10 2002
15.600000 Mon Mar 18 10:31:46 2002
15.400000 Mon Mar 18 11:02:10 2002
15.200000 Mon Mar 18 11:31:46 2002
15.400000 Mon Mar 18 12:02:10 2002
15.400000 Mon Mar 18 12:31:46 2002
15.400000 Mon Mar 18 13:02:10 2002
15.000000 Mon Mar 18 13:31:46 2002
15.200000 Mon Mar 18 14:02:10 2002
15.400000 Mon Mar 18 14:31:45 2002
15.400000 Mon Mar 18 15:02:10 2002
15.600000 Mon Mar 18 15:31:46 2002
15.200000 Mon Mar 18 16:02:10 2002
15.400000 Mon Mar 18 16:31:46 2002
15.400000 Mon Mar 18 17:02:10 2002
14.400000 Mon Mar 18 17:31:45 2002
15.200000 Mon Mar 18 18:02:10 2002
15.200000 Mon Mar 18 18:31:46 2002
15.000000 Mon Mar 18 19:02:10 2002
15.600000 Mon Mar 18 19:31:46 2002
15.400000 Mon Mar 18 20:02:10 2002
14.800000 Mon Mar 18 20:31:46 2002
15.200000 Mon Mar 18 21:02:10 2002
15.400000 Mon Mar 18 21:31:46 2002
15.000000 Mon Mar 18 22:02:10 2002
15.400000 Mon Mar 18 22:31:45 2002
14.600000 Mon Mar 18 23:02:09 2002
14.800000 Mon Mar 18 23:31:46 2002
15.000000 Tue Mar 19 00:02:10 2002
14.600000 Tue Mar 19 00:31:46 2002
14.800000 Tue Mar 19 01:02:10 2002
15.000000 Tue Mar 19 01:31:46 2002
15.200000 Tue Mar 19 02:02:11 2002
14.800000 Tue Mar 19 02:31:45 2002
14.800000 Tue Mar 19 03:02:10 2002
14.600000 Tue Mar 19 03:31:46 2002
14.600000 Tue Mar 19 04:02:10 2002
14.400000 Tue Mar 19 04:31:45 2002
14.800000 Tue Mar 19 05:02:10 2002
14.800000 Tue Mar 19 05:31:46 2002
15.000000 Tue Mar 19 06:02:10 2002
14.400000 Tue Mar 19 06:31:46 2002
15.200000 Tue Mar 19 07:02:10 2002
14.400000 Tue Mar 19 07:31:46 2002
14.600000 Tue Mar 19 08:02:10 2002
14.400000 Tue Mar 19 08:31:45 2002
14.800000 Tue Mar 19 09:02:10 2002
14.800000 Tue Mar 19 09:31:45 2002
14.000000 Tue Mar 19 10:02:10 2002
14.600000 Tue Mar 19 10:31:46 2002
14.800000 Tue Mar 19 11:02:10 2002
15.400000 Tue Mar 19 11:31:46 2002
15.200000 Tue Mar 19 12:02:10 2002
15.000000 Tue Mar 19 12:31:46 2002
14.800000 Tue Mar 19 13:02:10 2002
14.800000 Tue Mar 19 13:31:46 2002
15.200000 Tue Mar 19 14:02:10 2002
15.200000 Tue Mar 19 14:31:46 2002
15.600000 Tue Mar 19 15:02:10 2002
14.000000 Tue Mar 19 15:31:46 2002
14.800000 Tue Mar 19 16:02:10 2002
15.200000 Tue Mar 19 16:31:46 2002
14.800000 Tue Mar 19 17:02:10 2002
15.000000 Tue Mar 19 17:31:46 2002
15.200000 Tue Mar 19 18:02:10 2002
15.400000 Tue Mar 19 18:31:46 2002
14.600000 Tue Mar 19 19:02:10 2002
14.800000 Tue Mar 19 19:31:45 2002
14.800000 Tue Mar 19 20:02:10 2002
14.600000 Tue Mar 19 20:31:46 2002
15.600000 Tue Mar 19 21:02:10 2002
15.600000 Tue Mar 19 21:31:45 2002
14.800000 Tue Mar 19 22:02:10 2002
15.000000 Tue Mar 19 22:31:46 2002
14.800000 Tue Mar 19 23:02:11 2002
14.600000 Tue Mar 19 23:31:46 2002
15.000000 Wed Mar 20 00:02:10 2002
15.200000 Wed Mar 20 00:31:46 2002
14.800000 Wed Mar 20 01:02:10 2002
15.000000 Wed Mar 20 01:31:46 2002
14.400000 Wed Mar 20 02:02:10 2002
14.600000 Wed Mar 20 02:31:46 2002
14.600000 Wed Mar 20 03:02:10 2002
13.800000 Wed Mar 20 03:31:46 2002
14.400000 Wed Mar 20 04:02:10 2002
14.600000 Wed Mar 20 04:31:46 2002
14.600000 Wed Mar 20 05:02:10 2002
14.600000 Wed Mar 20 05:31:46 2002
14.400000 Wed Mar 20 06:02:10 2002
14.800000 Wed Mar 20 06:31:45 2002
14.400000 Wed Mar 20 07:02:10 2002
14.600000 Wed Mar 20 07:31:46 2002
14.800000 Wed Mar 20 08:02:10 2002
14.000000 Wed Mar 20 08:31:45 2002
15.000000 Wed Mar 20 09:02:10 2002
14.200000 Wed Mar 20 09:31:45 2002
14.800000 Wed Mar 20 10:02:10 2002
15.200000 Wed Mar 20 10:31:46 2002
14.800000 Wed Mar 20 11:02:10 2002
14.600000 Wed Mar 20 11:31:46 2002
15.600000 Wed Mar 20 12:02:11 2002
15.000000 Wed Mar 20 12:31:46 2002
15.600000 Wed Mar 20 13:02:10 2002
15.200000 Wed Mar 20 13:31:47 2002
14.600000 Wed Mar 20 14:02:11 2002
15.000000 Wed Mar 20 14:31:45 2002
14.600000 Wed Mar 20 15:02:10 2002
15.000000 Wed Mar 20 15:31:47 2002
14.800000 Wed Mar 20 16:02:11 2002
14.600000 Wed Mar 20 16:31:46 2002
14.600000 Wed Mar 20 17:02:10 2002
14.400000 Wed Mar 20 17:31:46 2002
14.800000 Wed Mar 20 18:02:10 2002
15.000000 Wed Mar 20 18:31:46 2002
14.800000 Wed Mar 20 19:02:10 2002
14.800000 Wed Mar 20 19:31:46 2002
14.800000 Wed Mar 20 20:02:10 2002
15.000000 Wed Mar 20 20:31:46 2002
15.000000 Wed Mar 20 21:02:10 2002
14.600000 Wed Mar 20 21:31:46 2002
14.600000 Wed Mar 20 22:02:10 2002
15.600000 Wed Mar 20 22:31:45 2002
14.600000 Wed Mar 20 23:02:10 2002
14.800000 Wed Mar 20 23:31:46 2002
14.200000 Thu Mar 21 00:02:11 2002
14.800000 Thu Mar 21 00:31:46 2002
14.800000 Thu Mar 21 01:02:10 2002
14.600000 Thu Mar 21 01:31:46 2002
14.400000 Thu Mar 21 02:02:11 2002
15.000000 Thu Mar 21 02:31:46 2002
14.200000 Thu Mar 21 03:02:10 2002
14.800000 Thu Mar 21 03:31:46 2002
14.000000 Thu Mar 21 04:02:10 2002
14.400000 Thu Mar 21 04:31:46 2002
14.400000 Thu Mar 21 05:02:10 2002
14.200000 Thu Mar 21 05:31:46 2002
14.600000 Thu Mar 21 06:02:10 2002
14.000000 Thu Mar 21 06:31:46 2002
14.000000 Thu Mar 21 07:02:10 2002
14.600000 Thu Mar 21 07:31:46 2002
14.000000 Thu Mar 21 08:02:10 2002
14.200000 Thu Mar 21 08:31:45 2002
14.400000 Thu Mar 21 09:02:10 2002
14.200000 Thu Mar 21 09:31:45 2002
14.400000 Thu Mar 21 10:02:10 2002
14.200000 Thu Mar 21 10:31:46 2002
14.800000 Thu Mar 21 11:02:10 2002
14.600000 Thu Mar 21 11:31:45 2002
15.000000 Thu Mar 21 12:02:10 2002
15.000000 Thu Mar 21 12:31:46 2002
14.600000 Thu Mar 21 13:02:10 2002
14.800000 Thu Mar 21 13:31:46 2002
15.600000 Thu Mar 21 14:02:10 2002
15.400000 Thu Mar 21 14:31:46 2002
14.600000 Thu Mar 21 15:02:10 2002
15.000000 Thu Mar 21 15:31:46 2002
15.400000 Thu Mar 21 16:02:10 2002
15.000000 Thu Mar 21 16:31:46 2002
14.600000 Thu Mar 21 17:02:10 2002
15.200000 Thu Mar 21 17:31:45 2002
15.200000 Thu Mar 21 18:02:10 2002
15.400000 Thu Mar 21 18:31:46 2002
14.600000 Thu Mar 21 19:02:10 2002
14.400000 Thu Mar 21 19:31:46 2002
15.600000 Thu Mar 21 20:02:10 2002
14.800000 Thu Mar 21 20:31:46 2002
15.600000 Thu Mar 21 21:02:10 2002
15.600000 Thu Mar 21 21:31:46 2002
15.000000 Thu Mar 21 22:02:10 2002
15.000000 Thu Mar 21 22:31:46 2002
15.200000 Thu Mar 21 23:02:10 2002
15.000000 Thu Mar 21 23:31:46 2002
14.800000 Fri Mar 22 00:02:10 2002
15.600000 Fri Mar 22 00:31:46 2002
15.200000 Fri Mar 22 01:02:10 2002
14.600000 Fri Mar 22 01:31:46 2002
14.600000 Fri Mar 22 02:02:10 2002
14.600000 Fri Mar 22 02:31:46 2002
15.600000 Fri Mar 22 03:02:10 2002
14.600000 Fri Mar 22 03:31:45 2002
14.800000 Fri Mar 22 04:02:10 2002
14.800000 Fri Mar 22 04:31:45 2002
14.400000 Fri Mar 22 05:02:10 2002
14.400000 Fri Mar 22 05:31:46 2002
14.600000 Fri Mar 22 06:02:10 2002
14.600000 Fri Mar 22 06:31:45 2002
14.400000 Fri Mar 22 07:02:10 2002
14.600000 Fri Mar 22 07:31:46 2002
14.400000 Fri Mar 22 08:02:10 2002
15.600000 Fri Mar 22 08:31:46 2002
14.800000 Fri Mar 22 09:02:10 2002
14.200000 Fri Mar 22 09:31:46 2002
14.200000 Fri Mar 22 10:02:10 2002
14.000000 Fri Mar 22 10:31:46 2002
14.200000 Fri Mar 22 11:02:10 2002
14.000000 Fri Mar 22 11:31:45 2002
15.200000 Fri Mar 22 12:02:10 2002
15.200000 Fri Mar 22 12:31:46 2002
14.800000 Fri Mar 22 13:02:10 2002
14.600000 Fri Mar 22 13:31:45 2002
14.600000 Fri Mar 22 14:02:10 2002
14.800000 Fri Mar 22 14:31:45 2002
14.800000 Fri Mar 22 15:02:10 2002
14.600000 Fri Mar 22 15:31:46 2002
14.000000 Fri Mar 22 16:02:10 2002
14.400000 Fri Mar 22 16:31:45 2002
14.600000 Fri Mar 22 17:02:10 2002
14.000000 Fri Mar 22 17:31:46 2002
14.400000 Fri Mar 22 18:02:10 2002
14.400000 Fri Mar 22 18:31:46 2002
14.400000 Fri Mar 22 19:02:10 2002
14.400000 Fri Mar 22 19:31:46 2002
13.800000 Fri Mar 22 20:02:10 2002
13.800000 Fri Mar 22 20:31:46 2002
14.400000 Fri Mar 22 21:02:10 2002
14.200000 Fri Mar 22 21:31:46 2002
14.400000 Fri Mar 22 22:02:10 2002
14.800000 Fri Mar 22 22:31:46 2002
13.800000 Fri Mar 22 23:02:10 2002
13.800000 Fri Mar 22 23:31:45 2002
13.800000 Sat Mar 23 00:02:10 2002
13.800000 Sat Mar 23 00:31:46 2002
13.600000 Sat Mar 23 01:02:10 2002
13.800000 Sat Mar 23 01:31:45 2002
13.600000 Sat Mar 23 02:02:10 2002
14.000000 Sat Mar 23 02:31:45 2002
13.600000 Sat Mar 23 03:02:10 2002
13.800000 Sat Mar 23 03:31:45 2002
13.800000 Sat Mar 23 04:02:09 2002
13.600000 Sat Mar 23 04:31:46 2002
13.600000 Sat Mar 23 05:02:10 2002
13.600000 Sat Mar 23 05:31:46 2002
13.600000 Sat Mar 23 06:02:11 2002
13.800000 Sat Mar 23 06:31:46 2002
13.200000 Sat Mar 23 07:02:10 2002
15.600000 Sat Mar 23 07:31:45 2002
13.200000 Sat Mar 23 08:02:10 2002
13.400000 Sat Mar 23 08:31:46 2002
15.200000 Sat Mar 23 09:02:10 2002
15.200000 Sat Mar 23 09:31:46 2002
15.400000 Sat Mar 23 10:02:10 2002
16.200000 Sat Mar 23 10:31:46 2002
16.000000 Sat Mar 23 11:02:10 2002
16.200001 Sat Mar 23 11:31:46 2002
15.800000 Sat Mar 23 12:02:10 2002
15.400000 Sat Mar 23 12:31:45 2002
14.800000 Sat Mar 23 13:02:10 2002
15.200000 Sat Mar 23 13:31:46 2002
14.800000 Sat Mar 23 14:02:10 2002
14.600000 Sat Mar 23 14:31:46 2002
15.000000 Sat Mar 23 15:02:10 2002
15.400000 Sat Mar 23 15:31:46 2002
14.800000 Sat Mar 23 16:02:10 2002
14.400000 Sat Mar 23 16:31:46 2002
14.400000 Sat Mar 23 17:02:10 2002
14.400000 Sat Mar 23 17:31:45 2002
14.600000 Sat Mar 23 18:02:10 2002
14.800000 Sat Mar 23 18:31:46 2002
14.400000 Sat Mar 23 19:02:10 2002
14.800000 Sat Mar 23 19:31:46 2002
15.600000 Sat Mar 23 20:02:10 2002
15.600000 Sat Mar 23 20:31:46 2002
14.400000 Sat Mar 23 21:02:10 2002
14.400000 Sat Mar 23 21:31:46 2002
14.400000 Sat Mar 23 22:02:10 2002
13.800000 Sat Mar 23 22:31:45 2002
13.800000 Sat Mar 23 23:02:10 2002
13.600000 Sat Mar 23 23:31:46 2002
13.400000 Sun Mar 24 00:02:10 2002
14.400000 Sun Mar 24 00:31:46 2002
13.800000 Sun Mar 24 01:02:10 2002
14.000000 Sun Mar 24 01:31:46 2002
13.800000 Sun Mar 24 02:02:10 2002
13.600000 Sun Mar 24 02:31:45 2002
13.200000 Sun Mar 24 03:02:10 2002
13.400000 Sun Mar 24 03:31:46 2002
12.800000 Sun Mar 24 04:02:10 2002
13.000000 Sun Mar 24 04:31:46 2002
13.200000 Sun Mar 24 05:02:10 2002
13.000000 Sun Mar 24 05:31:46 2002
13.200000 Sun Mar 24 06:02:10 2002
13.600000 Sun Mar 24 06:31:46 2002
13.200000 Sun Mar 24 07:02:10 2002
15.600000 Sun Mar 24 07:31:46 2002
12.600000 Sun Mar 24 08:02:10 2002
13.200000 Sun Mar 24 08:31:46 2002
15.200000 Sun Mar 24 09:02:10 2002
14.800000 Sun Mar 24 09:31:45 2002
15.000000 Sun Mar 24 10:02:10 2002
15.000000 Sun Mar 24 10:31:46 2002
14.600000 Sun Mar 24 11:02:10 2002
14.400000 Sun Mar 24 11:31:45 2002
13.800000 Sun Mar 24 12:02:09 2002
13.800000 Sun Mar 24 12:31:46 2002
14.400000 Sun Mar 24 13:02:10 2002
14.400000 Sun Mar 24 13:31:46 2002
14.000000 Sun Mar 24 14:02:10 2002
15.600000 Sun Mar 24 14:31:45 2002
14.000000 Sun Mar 24 15:02:10 2002
13.800000 Sun Mar 24 15:31:46 2002
14.200000 Sun Mar 24 16:02:10 2002
13.800000 Sun Mar 24 16:31:46 2002
13.800000 Sun Mar 24 17:02:10 2002
13.800000 Sun Mar 24 17:31:46 2002
13.800000 Sun Mar 24 18:02:10 2002
13.800000 Sun Mar 24 18:31:46 2002
13.600000 Sun Mar 24 19:02:10 2002
14.000000 Sun Mar 24 19:31:46 2002
13.800000 Sun Mar 24 20:02:10 2002
13.800000 Sun Mar 24 20:31:46 2002
13.600000 Sun Mar 24 21:02:10 2002
13.200000 Sun Mar 24 21:31:46 2002
13.800000 Sun Mar 24 22:02:10 2002
13.600000 Sun Mar 24 22:31:46 2002
13.600000 Sun Mar 24 23:02:10 2002
13.800000 Sun Mar 24 23:31:45 2002
14.000000 Mon Mar 25 00:02:10 2002
13.400000 Mon Mar 25 00:31:45 2002
13.600000 Mon Mar 25 01:02:10 2002
13.600000 Mon Mar 25 01:31:46 2002
13.400000 Mon Mar 25 02:02:10 2002
13.200000 Mon Mar 25 02:31:45 2002
13.200000 Mon Mar 25 03:02:09 2002
14.000000 Mon Mar 25 03:31:46 2002
12.800000 Mon Mar 25 04:02:10 2002
12.400000 Mon Mar 25 04:31:46 2002
12.600000 Mon Mar 25 05:02:10 2002
12.800000 Mon Mar 25 05:31:46 2002
13.200000 Mon Mar 25 06:02:10 2002
12.200000 Mon Mar 25 06:31:46 2002
13.000000 Mon Mar 25 07:02:10 2002
13.000000 Mon Mar 25 07:31:46 2002
14.000000 Mon Mar 25 08:02:10 2002
12.800000 Mon Mar 25 08:31:46 2002
14.800000 Mon Mar 25 09:02:10 2002
14.800000 Mon Mar 25 09:31:46 2002
14.800000 Mon Mar 25 10:02:10 2002
15.400000 Mon Mar 25 10:31:46 2002
16.400000 Mon Mar 25 11:02:10 2002
16.000000 Mon Mar 25 11:31:46 2002
15.000000 Mon Mar 25 12:02:10 2002
15.000000 Mon Mar 25 12:31:45 2002
14.400000 Mon Mar 25 13:02:10 2002
14.400000 Mon Mar 25 13:31:45 2002
13.000000 Mon Mar 25 14:02:10 2002
14.200000 Mon Mar 25 14:31:46 2002
13.800000 Mon Mar 25 15:02:10 2002
14.000000 Mon Mar 25 15:31:45 2002
14.000000 Mon Mar 25 16:02:09 2002
14.600000 Mon Mar 25 16:31:46 2002
13.800000 Mon Mar 25 17:02:10 2002
14.000000 Mon Mar 25 17:31:46 2002
13.800000 Mon Mar 25 18:02:11 2002
14.200000 Mon Mar 25 18:31:46 2002
14.200000 Mon Mar 25 19:02:11 2002
13.800000 Mon Mar 25 19:31:46 2002
14.400000 Mon Mar 25 20:02:10 2002
15.600000 Mon Mar 25 20:31:46 2002
13.600000 Mon Mar 25 21:02:10 2002
14.200000 Mon Mar 25 21:31:46 2002
13.800000 Mon Mar 25 22:02:10 2002
14.000000 Mon Mar 25 22:31:46 2002
14.000000 Mon Mar 25 23:02:10 2002
13.600000 Mon Mar 25 23:31:45 2002
13.800000 Tue Mar 26 00:02:10 2002
14.400000 Tue Mar 26 00:31:46 2002
14.200000 Tue Mar 26 01:02:10 2002
13.800000 Tue Mar 26 01:31:45 2002
13.200000 Tue Mar 26 02:02:10 2002
13.600000 Tue Mar 26 02:31:46 2002
12.800000 Tue Mar 26 03:02:10 2002
13.400000 Tue Mar 26 03:31:46 2002
13.200000 Tue Mar 26 04:02:10 2002
12.800000 Tue Mar 26 04:31:46 2002
13.400000 Tue Mar 26 05:02:10 2002
13.200000 Tue Mar 26 05:31:45 2002
13.400000 Tue Mar 26 06:02:10 2002
13.200000 Tue Mar 26 06:31:46 2002
13.000000 Tue Mar 26 07:02:10 2002
13.600000 Tue Mar 26 07:31:46 2002
13.400000 Tue Mar 26 08:02:10 2002
13.800000 Tue Mar 26 08:31:45 2002
14.600000 Tue Mar 26 09:02:10 2002
14.800000 Tue Mar 26 09:31:46 2002
15.000000 Tue Mar 26 10:02:10 2002
15.400000 Tue Mar 26 10:31:46 2002
15.200000 Tue Mar 26 11:02:10 2002
15.200000 Tue Mar 26 11:31:46 2002
14.600000 Tue Mar 26 12:02:10 2002
14.600000 Tue Mar 26 12:31:46 2002
14.000000 Tue Mar 26 13:02:10 2002
14.000000 Tue Mar 26 13:31:46 2002
14.400000 Tue Mar 26 14:02:10 2002
14.000000 Tue Mar 26 14:31:46 2002
14.600000 Tue Mar 26 15:02:10 2002
14.400000 Tue Mar 26 15:31:45 2002
14.400000 Tue Mar 26 16:02:10 2002
14.000000 Tue Mar 26 16:31:45 2002
14.000000 Tue Mar 26 17:02:10 2002
14.200000 Tue Mar 26 17:31:46 2002
14.000000 Tue Mar 26 18:02:11 2002
13.800000 Tue Mar 26 18:31:46 2002
13.800000 Tue Mar 26 19:02:10 2002
14.200000 Tue Mar 26 19:31:46 2002
14.400000 Tue Mar 26 20:02:10 2002
14.400000 Tue Mar 26 20:31:46 2002
13.200000 Tue Mar 26 21:02:10 2002
14.000000 Tue Mar 26 21:31:46 2002
13.400000 Tue Mar 26 22:02:10 2002
15.600000 Tue Mar 26 22:31:46 2002
14.200000 Tue Mar 26 23:02:10 2002
13.600000 Tue Mar 26 23:31:46 2002
13.800000 Wed Mar 27 00:02:11 2002
13.400000 Wed Mar 27 00:31:46 2002
13.400000 Wed Mar 27 01:02:11 2002
13.600000 Wed Mar 27 01:31:46 2002
13.800000 Wed Mar 27 02:02:10 2002
13.600000 Wed Mar 27 02:31:46 2002
13.800000 Wed Mar 27 03:02:10 2002
14.000000 Wed Mar 27 03:31:46 2002
13.600000 Wed Mar 27 04:02:10 2002
13.400000 Wed Mar 27 04:31:46 2002
13.200000 Wed Mar 27 05:02:10 2002
13.600000 Wed Mar 27 05:31:46 2002
13.400000 Wed Mar 27 06:02:11 2002
13.600000 Wed Mar 27 06:31:46 2002
13.200000 Wed Mar 27 07:02:10 2002
13.200000 Wed Mar 27 07:31:45 2002
13.600000 Wed Mar 27 08:02:10 2002
13.400000 Wed Mar 27 08:31:45 2002
15.400000 Wed Mar 27 09:02:10 2002
15.200000 Wed Mar 27 09:31:46 2002
15.400000 Wed Mar 27 10:02:10 2002
15.400000 Wed Mar 27 10:31:46 2002
16.200001 Wed Mar 27 11:02:10 2002
16.400000 Wed Mar 27 11:31:46 2002
15.400000 Wed Mar 27 12:02:10 2002
15.800000 Wed Mar 27 12:31:46 2002
15.200000 Wed Mar 27 13:02:10 2002
15.200000 Wed Mar 27 13:31:46 2002
14.800000 Wed Mar 27 14:02:10 2002
14.800000 Wed Mar 27 14:31:46 2002
14.200000 Wed Mar 27 15:02:10 2002
14.200000 Wed Mar 27 15:31:46 2002
14.600000 Wed Mar 27 16:02:10 2002
14.800000 Wed Mar 27 16:31:47 2002
14.800000 Wed Mar 27 17:02:11 2002
15.600000 Wed Mar 27 17:31:46 2002
14.400000 Wed Mar 27 18:02:11 2002
14.800000 Wed Mar 27 18:31:46 2002
14.400000 Wed Mar 27 19:02:10 2002
14.000000 Wed Mar 27 19:31:46 2002
14.600000 Wed Mar 27 20:02:10 2002
14.800000 Wed Mar 27 20:31:46 2002
14.800000 Wed Mar 27 21:02:11 2002
14.600000 Wed Mar 27 21:31:46 2002
15.000000 Wed Mar 27 22:02:10 2002
14.600000 Wed Mar 27 22:31:46 2002
14.600000 Wed Mar 27 23:02:10 2002
15.000000 Wed Mar 27 23:31:45 2002
14.400000 Thu Mar 28 00:02:10 2002
15.000000 Thu Mar 28 00:31:45 2002
14.600000 Thu Mar 28 01:02:10 2002
14.400000 Thu Mar 28 01:31:45 2002
14.600000 Thu Mar 28 02:02:10 2002
13.800000 Thu Mar 28 02:31:46 2002
14.400000 Thu Mar 28 03:02:10 2002
14.000000 Thu Mar 28 03:31:46 2002
14.400000 Thu Mar 28 04:02:10 2002
13.800000 Thu Mar 28 04:31:46 2002
13.600000 Thu Mar 28 05:02:10 2002
13.800000 Thu Mar 28 05:31:46 2002
13.400000 Thu Mar 28 06:02:11 2002
13.800000 Thu Mar 28 06:31:46 2002
13.400000 Thu Mar 28 07:02:10 2002
13.400000 Thu Mar 28 07:31:46 2002
13.800000 Thu Mar 28 08:02:10 2002
13.600000 Thu Mar 28 08:31:45 2002
15.400000 Thu Mar 28 09:02:10 2002
15.400000 Thu Mar 28 09:31:46 2002
16.600000 Thu Mar 28 10:02:10 2002
16.200001 Thu Mar 28 10:31:46 2002
16.600000 Thu Mar 28 11:02:10 2002
17.600000 Thu Mar 28 11:31:46 2002
16.000000 Thu Mar 28 12:02:10 2002
16.600000 Thu Mar 28 12:31:46 2002
15.400000 Thu Mar 28 13:02:10 2002
15.200000 Thu Mar 28 13:31:45 2002
14.600000 Thu Mar 28 14:02:10 2002
15.200000 Thu Mar 28 14:31:46 2002
15.400000 Thu Mar 28 15:02:10 2002
15.400000 Thu Mar 28 15:31:46 2002
15.200000 Thu Mar 28 16:02:10 2002
15.200000 Thu Mar 28 16:31:45 2002
15.400000 Thu Mar 28 17:02:10 2002
15.400000 Thu Mar 28 17:31:46 2002
15.000000 Thu Mar 28 18:02:10 2002
15.200000 Thu Mar 28 18:31:45 2002
15.000000 Thu Mar 28 19:02:09 2002
15.200000 Thu Mar 28 19:31:45 2002
15.200000 Thu Mar 28 20:02:10 2002
15.400000 Thu Mar 28 20:31:46 2002
15.400000 Thu Mar 28 21:02:10 2002
14.800000 Thu Mar 28 21:31:46 2002
15.200000 Thu Mar 28 22:02:11 2002
15.400000 Thu Mar 28 22:31:46 2002
15.200000 Thu Mar 28 23:02:10 2002
15.400000 Thu Mar 28 23:31:46 2002
15.200000 Fri Mar 29 00:02:10 2002
15.200000 Fri Mar 29 00:31:45 2002
14.600000 Fri Mar 29 01:02:10 2002
15.000000 Fri Mar 29 01:31:46 2002
15.400000 Fri Mar 29 02:02:10 2002
14.600000 Fri Mar 29 02:31:46 2002
15.000000 Fri Mar 29 03:02:10 2002
14.600000 Fri Mar 29 03:31:45 2002
14.400000 Fri Mar 29 04:02:10 2002
14.400000 Fri Mar 29 04:31:46 2002
14.400000 Fri Mar 29 05:02:10 2002
14.400000 Fri Mar 29 05:31:46 2002
14.400000 Fri Mar 29 06:02:10 2002
13.800000 Fri Mar 29 06:31:46 2002
14.200000 Fri Mar 29 07:02:10 2002
14.000000 Fri Mar 29 07:31:45 2002
15.000000 Fri Mar 29 08:02:09 2002
14.400000 Fri Mar 29 08:31:45 2002
16.200001 Fri Mar 29 09:02:10 2002
16.600000 Fri Mar 29 09:31:46 2002
16.799999 Fri Mar 29 10:02:10 2002
17.000000 Fri Mar 29 10:31:46 2002
16.600000 Fri Mar 29 11:02:10 2002
17.200001 Fri Mar 29 11:31:46 2002
17.400000 Fri Mar 29 12:02:10 2002
17.200001 Fri Mar 29 12:31:46 2002
15.800000 Fri Mar 29 13:02:10 2002
15.400000 Fri Mar 29 13:31:46 2002
16.000000 Fri Mar 29 14:02:10 2002
15.400000 Fri Mar 29 14:31:46 2002
16.000000 Fri Mar 29 15:02:11 2002
16.200001 Fri Mar 29 15:31:46 2002
16.200001 Fri Mar 29 16:02:11 2002
16.000000 Fri Mar 29 16:31:46 2002
16.200001 Fri Mar 29 17:02:10 2002
16.400000 Fri Mar 29 17:31:47 2002
16.200001 Fri Mar 29 18:02:11 2002
16.400000 Fri Mar 29 18:31:46 2002
16.000000 Fri Mar 29 19:02:10 2002
15.800000 Fri Mar 29 19:31:46 2002
15.800000 Fri Mar 29 20:02:11 2002
15.800000 Fri Mar 29 20:31:46 2002
16.200001 Fri Mar 29 21:02:10 2002
16.000000 Fri Mar 29 21:31:46 2002
17.000000 Fri Mar 29 22:02:10 2002
16.000000 Fri Mar 29 22:31:45 2002
15.600000 Fri Mar 29 23:02:10 2002
15.400000 Fri Mar 29 23:31:46 2002
16.000000 Sat Mar 30 00:02:10 2002
16.400000 Sat Mar 30 00:31:45 2002
16.000000 Sat Mar 30 01:02:09 2002
16.000000 Sat Mar 30 01:31:46 2002
16.000000 Sat Mar 30 02:02:10 2002
16.000000 Sat Mar 30 02:31:45 2002
15.000000 Sat Mar 30 03:02:10 2002
15.400000 Sat Mar 30 03:31:46 2002
15.200000 Sat Mar 30 04:02:10 2002
15.400000 Sat Mar 30 04:31:46 2002
15.000000 Sat Mar 30 05:02:10 2002
15.200000 Sat Mar 30 05:31:46 2002
15.400000 Sat Mar 30 06:02:10 2002
15.000000 Sat Mar 30 06:31:46 2002
14.600000 Sat Mar 30 07:02:10 2002
14.800000 Sat Mar 30 07:31:45 2002
15.400000 Sat Mar 30 08:02:10 2002
15.400000 Sat Mar 30 08:31:46 2002
16.799999 Sat Mar 30 09:02:10 2002
16.400000 Sat Mar 30 09:31:46 2002
16.000000 Sat Mar 30 10:02:10 2002
16.400000 Sat Mar 30 10:31:45 2002
17.200001 Sat Mar 30 11:02:10 2002
16.600000 Sat Mar 30 11:31:46 2002
16.000000 Sat Mar 30 12:02:10 2002
16.000000 Sat Mar 30 12:31:46 2002
17.200001 Sat Mar 30 13:02:10 2002
16.400000 Sat Mar 30 13:31:45 2002
16.400000 Sat Mar 30 14:02:10 2002
16.799999 Sat Mar 30 14:31:46 2002
16.600000 Sat Mar 30 15:02:10 2002
16.200001 Sat Mar 30 15:31:46 2002
16.000000 Sat Mar 30 16:02:10 2002
16.000000 Sat Mar 30 16:31:46 2002
16.200001 Sat Mar 30 17:02:10 2002
16.400000 Sat Mar 30 17:31:46 2002
7.200000 Sat Mar 30 18:02:10 2002
16.000000 Sat Mar 30 18:31:46 2002
16.000000 Sat Mar 30 19:02:10 2002
17.200001 Sat Mar 30 19:31:47 2002
16.200001 Sat Mar 30 20:02:11 2002
