20.731707 Sat May 25 00:32:19 2002
20.487804 Sat May 25 01:01:03 2002
22.195122 Sat May 25 01:31:20 2002
21.219513 Sat May 25 02:01:18 2002
20.487804 Sat May 25 02:31:31 2002
20.731707 Sat May 25 03:01:03 2002
20.487804 Sat May 25 03:31:16 2002
23.658537 Sat May 25 04:01:04 2002
25.365854 Sat May 25 04:31:10 2002
27.073172 Sat May 25 05:01:12 2002
26.829268 Sat May 25 05:31:21 2002
27.317074 Sat May 25 06:01:06 2002
27.317074 Sat May 25 06:31:09 2002
27.804878 Sat May 25 07:01:08 2002
27.804878 Sat May 25 07:31:11 2002
27.804878 Sat May 25 08:01:08 2002
27.804878 Sat May 25 08:31:13 2002
28.048780 Sat May 25 09:01:04 2002
28.048780 Sat May 25 09:31:11 2002
28.292683 Sat May 25 10:01:07 2002
27.804878 Sat May 25 10:31:12 2002
28.536585 Sat May 25 11:01:04 2002
28.048780 Sat May 25 11:31:07 2002
28.292683 Sat May 25 12:01:36 2002
21.219513 Sat May 25 12:31:40 2002
20.731707 Sat May 25 13:01:06 2002
20.487804 Sat May 25 13:31:16 2002
20.243902 Sat May 25 14:01:03 2002
21.707317 Sat May 25 14:31:13 2002
20.975609 Sat May 25 15:01:06 2002
20.975609 Sat May 25 15:31:09 2002
21.219513 Sat May 25 16:01:05 2002
21.463415 Sat May 25 16:31:13 2002
20.731707 Sat May 25 17:01:12 2002
20.243902 Sat May 25 17:31:22 2002
20.731707 Sat May 25 18:01:19 2002
20.487804 Sat May 25 18:31:27 2002
20.487804 Sat May 25 19:01:03 2002
20.243902 Sat May 25 19:31:13 2002
20.487804 Sat May 25 20:01:04 2002
20.731707 Sat May 25 20:31:10 2002
20.000000 Sat May 25 21:01:04 2002
20.487804 Sat May 25 21:31:10 2002
20.975609 Sat May 25 22:01:16 2002
20.487804 Sat May 25 22:31:19 2002
20.731707 Sat May 25 23:01:04 2002
20.731707 Sat May 25 23:31:11 2002
20.731707 Sun May 26 00:01:03 2002
20.731707 Sun May 26 00:31:07 2002
20.243902 Sun May 26 01:01:07 2002
20.731707 Sun May 26 01:31:10 2002
20.243902 Sun May 26 02:01:10 2002
20.487804 Sun May 26 02:31:17 2002
20.000000 Sun May 26 03:01:17 2002
19.512196 Sun May 26 03:31:21 2002
20.000000 Sun May 26 04:01:05 2002
19.756098 Sun May 26 04:31:17 2002
19.512196 Sun May 26 05:01:03 2002
19.512196 Sun May 26 05:31:08 2002
19.512196 Sun May 26 06:01:06 2002
19.512196 Sun May 26 06:31:09 2002
19.512196 Sun May 26 07:01:11 2002
20.243902 Sun May 26 07:31:21 2002
20.000000 Sun May 26 08:01:11 2002
20.243902 Sun May 26 08:31:23 2002
20.243902 Sun May 26 09:01:03 2002
20.243902 Sun May 26 09:31:07 2002
20.000000 Sun May 26 10:01:06 2002
20.487804 Sun May 26 10:31:10 2002
20.731707 Sun May 26 11:01:13 2002
20.731707 Sun May 26 11:31:23 2002
20.487804 Sun May 26 12:01:08 2002
20.243902 Sun May 26 12:31:13 2002
20.487804 Sun May 26 13:01:19 2002
20.487804 Sun May 26 13:31:22 2002
20.731707 Sun May 26 14:01:03 2002
20.731707 Sun May 26 14:31:13 2002
20.975609 Sun May 26 15:01:06 2002
20.975609 Sun May 26 15:31:26 2002
20.975609 Sun May 26 16:01:06 2002
20.975609 Sun May 26 16:31:19 2002
20.731707 Sun May 26 17:01:03 2002
20.731707 Sun May 26 17:31:13 2002
20.487804 Sun May 26 18:01:05 2002
20.975609 Sun May 26 18:31:12 2002
20.731707 Sun May 26 19:01:03 2002
19.512196 Sun May 26 20:01:02 2002
19.512196 Sun May 26 20:31:08 2002
19.512196 Sun May 26 21:01:06 2002
19.756098 Sun May 26 21:31:13 2002
20.731707 Sun May 26 22:01:10 2002
21.463415 Sun May 26 22:31:16 2002
21.219513 Sun May 26 23:01:11 2002
21.707317 Sun May 26 23:31:15 2002
21.951220 Mon May 27 00:01:17 2002
22.195122 Mon May 27 00:31:20 2002
22.195122 Mon May 27 01:01:04 2002
22.439024 Mon May 27 01:31:10 2002
22.439024 Mon May 27 02:01:10 2002
22.195122 Mon May 27 02:31:13 2002
22.195122 Mon May 27 03:01:17 2002
21.951220 Mon May 27 03:31:20 2002
21.951220 Mon May 27 04:01:04 2002
21.463415 Mon May 27 04:31:14 2002
20.731707 Mon May 27 05:01:12 2002
20.243902 Mon May 27 05:31:22 2002
20.487804 Mon May 27 06:01:09 2002
19.756098 Mon May 27 06:31:14 2002
19.512196 Mon May 27 07:01:15 2002
19.268293 Mon May 27 07:31:19 2002
19.268293 Mon May 27 08:01:19 2002
19.268293 Mon May 27 08:31:24 2002
18.292683 Mon May 27 09:01:19 2002
18.780487 Mon May 27 09:31:26 2002
19.024391 Mon May 27 10:01:10 2002
20.487804 Mon May 27 10:31:16 2002
20.243902 Mon May 27 11:01:03 2002
20.731707 Mon May 27 11:31:12 2002
20.243902 Mon May 27 12:01:03 2002
20.975609 Mon May 27 12:31:17 2002
21.463415 Mon May 27 13:31:12 2002
20.731707 Mon May 27 14:01:08 2002
20.731707 Mon May 27 14:31:23 2002
20.731707 Mon May 27 15:01:03 2002
20.243902 Mon May 27 15:31:10 2002
20.731707 Mon May 27 16:01:03 2002
20.243902 Mon May 27 16:31:22 2002
20.731707 Mon May 27 17:01:06 2002
21.219513 Mon May 27 17:31:10 2002
21.707317 Mon May 27 18:01:07 2002
21.951220 Mon May 27 18:31:16 2002
21.951220 Mon May 27 19:01:07 2002
22.439024 Mon May 27 19:31:10 2002
22.195122 Mon May 27 20:01:03 2002
22.195122 Mon May 27 20:31:08 2002
22.195122 Mon May 27 21:01:08 2002
22.439024 Mon May 27 21:31:20 2002
22.195122 Mon May 27 22:01:06 2002
21.951220 Mon May 27 22:31:10 2002
22.195122 Mon May 27 23:01:02 2002
22.439024 Mon May 27 23:31:10 2002
22.439024 Tue May 28 00:01:04 2002
21.951220 Tue May 28 00:31:08 2002
21.951220 Tue May 28 01:01:07 2002
21.951220 Tue May 28 01:31:15 2002
21.951220 Tue May 28 02:01:12 2002
22.195122 Tue May 28 02:31:15 2002
22.439024 Tue May 28 03:01:02 2002
22.926828 Tue May 28 03:31:05 2002
23.414635 Tue May 28 04:01:07 2002
21.707317 Tue May 28 04:31:14 2002
21.463415 Tue May 28 05:01:16 2002
21.219513 Tue May 28 05:31:25 2002
20.731707 Tue May 28 06:01:03 2002
20.243902 Tue May 28 06:31:06 2002
20.243902 Tue May 28 07:01:05 2002
20.243902 Tue May 28 07:31:16 2002
20.487804 Tue May 28 08:01:03 2002
19.756098 Tue May 28 08:31:06 2002
20.000000 Tue May 28 09:01:05 2002
20.000000 Tue May 28 09:31:09 2002
20.000000 Tue May 28 10:01:07 2002
20.243902 Tue May 28 10:31:11 2002
20.243902 Tue May 28 11:01:20 2002
20.487804 Tue May 28 11:31:24 2002
20.731707 Tue May 28 12:01:23 2002
21.219513 Tue May 28 12:31:27 2002
20.731707 Tue May 28 13:01:21 2002
20.731707 Tue May 28 13:31:27 2002
20.975609 Tue May 28 14:01:07 2002
20.975609 Tue May 28 14:31:10 2002
20.731707 Tue May 28 15:01:17 2002
20.731707 Tue May 28 15:31:20 2002
20.975609 Tue May 28 16:01:05 2002
20.731707 Tue May 28 16:31:12 2002
20.731707 Tue May 28 17:01:05 2002
21.219513 Tue May 28 17:31:11 2002
21.219513 Tue May 28 18:01:09 2002
21.707317 Tue May 28 18:31:15 2002
21.707317 Tue May 28 19:01:09 2002
21.951220 Tue May 28 19:31:12 2002
22.439024 Tue May 28 18:01:05 2002
22.195122 Tue May 28 18:31:19 2002
22.195122 Tue May 28 19:01:04 2002
22.195122 Tue May 28 19:31:09 2002
22.195122 Tue May 28 20:01:04 2002
21.707317 Tue May 28 20:31:08 2002
21.707317 Tue May 28 21:01:22 2002
21.463415 Tue May 28 21:31:41 2002
22.439024 Tue May 28 22:01:05 2002
22.682926 Tue May 28 22:31:08 2002
23.414635 Tue May 28 23:01:04 2002
22.926828 Tue May 28 23:31:10 2002
22.195122 Wed May 29 00:01:17 2002
23.170732 Wed May 29 00:31:24 2002
22.926828 Wed May 29 01:01:03 2002
22.439024 Wed May 29 01:31:09 2002
22.439024 Wed May 29 02:01:03 2002
21.707317 Wed May 29 02:31:09 2002
21.463415 Wed May 29 03:01:13 2002
21.219513 Wed May 29 03:31:20 2002
20.731707 Wed May 29 04:01:10 2002
20.731707 Wed May 29 04:31:20 2002
20.243902 Wed May 29 05:01:11 2002
20.243902 Wed May 29 05:31:18 2002
20.243902 Wed May 29 06:01:10 2002
20.243902 Wed May 29 06:31:16 2002
20.487804 Wed May 29 07:01:03 2002
20.243902 Wed May 29 08:01:04 2002
20.487804 Wed May 29 08:31:09 2002
21.463415 Wed May 29 09:01:10 2002
21.463415 Wed May 29 09:31:21 2002
22.926828 Wed May 29 10:01:04 2002
22.926828 Wed May 29 10:31:10 2002
21.707317 Wed May 29 11:01:05 2002
21.951220 Wed May 29 11:31:08 2002
21.219513 Wed May 29 12:01:10 2002
20.975609 Wed May 29 12:31:23 2002
21.463415 Wed May 29 13:01:10 2002
21.219513 Wed May 29 13:31:13 2002
21.219513 Wed May 29 14:01:09 2002
21.219513 Wed May 29 14:31:16 2002
20.243902 Wed May 29 15:01:05 2002
21.219513 Wed May 29 15:31:09 2002
21.463415 Wed May 29 16:01:03 2002
21.219513 Wed May 29 16:31:09 2002
20.975609 Wed May 29 17:01:04 2002
21.463415 Wed May 29 17:31:07 2002
21.219513 Wed May 29 18:01:04 2002
21.463415 Wed May 29 18:31:14 2002
21.219513 Wed May 29 19:01:04 2002
21.463415 Wed May 29 19:31:08 2002
21.707317 Wed May 29 20:01:10 2002
22.195122 Wed May 29 20:31:22 2002
21.951220 Wed May 29 21:01:03 2002
21.707317 Wed May 29 21:31:06 2002
21.951220 Wed May 29 22:01:12 2002
21.951220 Wed May 29 22:31:15 2002
21.951220 Wed May 29 23:01:04 2002
21.951220 Wed May 29 23:31:07 2002
22.195122 Thu May 30 00:01:06 2002
22.195122 Thu May 30 00:31:46 2002
22.195122 Thu May 30 01:01:16 2002
22.195122 Thu May 30 01:31:23 2002
22.439024 Thu May 30 02:01:13 2002
21.707317 Thu May 30 02:31:20 2002
21.707317 Thu May 30 03:01:12 2002
21.219513 Thu May 30 03:31:19 2002
20.243902 Thu May 30 04:01:08 2002
20.243902 Thu May 30 04:31:10 2002
20.243902 Thu May 30 05:01:05 2002
20.000000 Thu May 30 05:31:08 2002
19.756098 Thu May 30 06:01:03 2002
19.512196 Thu May 30 06:31:09 2002
19.268293 Thu May 30 07:01:04 2002
19.512196 Thu May 30 07:31:11 2002
19.512196 Thu May 30 08:01:07 2002
19.756098 Thu May 30 08:31:10 2002
20.243902 Thu May 30 09:01:07 2002
20.243902 Thu May 30 09:31:10 2002
20.975609 Thu May 30 10:01:06 2002
20.975609 Thu May 30 10:31:13 2002
21.463415 Thu May 30 11:01:09 2002
21.463415 Thu May 30 11:31:19 2002
21.707317 Thu May 30 12:01:09 2002
21.707317 Thu May 30 12:31:12 2002
21.219513 Thu May 30 13:01:08 2002
21.463415 Thu May 30 13:31:12 2002
21.219513 Thu May 30 14:01:10 2002
21.463415 Thu May 30 14:31:20 2002
21.463415 Thu May 30 15:01:06 2002
21.707317 Thu May 30 15:31:09 2002
21.707317 Thu May 30 16:01:04 2002
21.707317 Thu May 30 16:31:08 2002
21.707317 Thu May 30 17:01:03 2002
21.707317 Thu May 30 17:31:10 2002
21.219513 Thu May 30 18:01:10 2002
21.707317 Thu May 30 18:31:22 2002
21.463415 Thu May 30 19:01:06 2002
21.219513 Thu May 30 19:31:14 2002
21.219513 Thu May 30 20:01:06 2002
21.219513 Thu May 30 20:31:09 2002
21.219513 Thu May 30 21:01:09 2002
22.195122 Thu May 30 21:31:14 2002
22.682926 Thu May 30 22:01:04 2002
22.926828 Thu May 30 22:31:09 2002
22.926828 Thu May 30 23:01:03 2002
22.682926 Thu May 30 23:31:06 2002
22.926828 Fri May 31 00:01:04 2002
22.682926 Fri May 31 00:31:07 2002
22.682926 Fri May 31 01:01:04 2002
23.170732 Fri May 31 01:31:24 2002
21.463415 Fri May 31 02:01:09 2002
21.219513 Fri May 31 02:31:12 2002
20.731707 Fri May 31 03:01:04 2002
20.243902 Fri May 31 03:31:07 2002
20.487804 Fri May 31 04:01:04 2002
20.000000 Fri May 31 04:31:09 2002
20.487804 Fri May 31 05:01:10 2002
20.000000 Fri May 31 05:31:13 2002
19.756098 Fri May 31 06:01:03 2002
19.756098 Fri May 31 06:31:15 2002
19.756098 Fri May 31 07:01:13 2002
19.512196 Fri May 31 07:31:18 2002
19.756098 Fri May 31 08:01:03 2002
20.000000 Fri May 31 08:31:24 2002
20.487804 Fri May 31 09:01:06 2002
20.243902 Fri May 31 09:31:09 2002
20.487804 Fri May 31 10:01:03 2002
20.975609 Fri May 31 10:31:18 2002
21.463415 Fri May 31 11:01:12 2002
21.707317 Fri May 31 11:31:15 2002
21.707317 Fri May 31 12:01:11 2002
21.463415 Fri May 31 12:31:14 2002
21.707317 Fri May 31 13:01:05 2002
21.707317 Fri May 31 13:31:08 2002
22.439024 Fri May 31 14:01:09 2002
21.219513 Fri May 31 14:31:18 2002
21.463415 Fri May 31 15:01:05 2002
21.219513 Fri May 31 15:31:09 2002
20.487804 Fri May 31 15:47:15 2002
20.487804 Fri May 31 16:01:04 2002
20.487804 Fri May 31 16:31:17 2002
20.975609 Fri May 31 17:01:04 2002
20.487804 Fri May 31 17:31:07 2002
20.487804 Fri May 31 18:01:06 2002
20.243902 Fri May 31 18:31:12 2002
20.487804 Fri May 31 19:01:04 2002
20.243902 Fri May 31 19:31:12 2002
20.731707 Fri May 31 20:01:08 2002
21.463415 Fri May 31 20:31:25 2002
21.463415 Fri May 31 21:01:07 2002
20.975609 Fri May 31 21:31:11 2002
21.463415 Fri May 31 22:01:06 2002
21.463415 Fri May 31 22:31:12 2002
21.463415 Fri May 31 23:01:04 2002
20.975609 Fri May 31 23:31:12 2002
20.975609 Sat Jun  1 00:01:04 2002
20.975609 Sat Jun  1 00:31:07 2002
20.975609 Sat Jun  1 01:01:16 2002
20.975609 Sat Jun  1 01:31:31 2002
20.731707 Sat Jun  1 02:01:06 2002
20.000000 Sat Jun  1 02:31:19 2002
19.512196 Sat Jun  1 03:01:05 2002
19.756098 Sat Jun  1 03:31:08 2002
19.024391 Sat Jun  1 04:01:35 2002
19.024391 Sat Jun  1 04:31:44 2002
19.268293 Sat Jun  1 05:01:09 2002
19.268293 Sat Jun  1 05:31:18 2002
18.780487 Sat Jun  1 06:01:06 2002
18.536585 Sat Jun  1 06:31:12 2002
19.268293 Sat Jun  1 07:01:08 2002
18.536585 Sat Jun  1 07:31:13 2002
18.536585 Sat Jun  1 08:01:13 2002
19.268293 Sat Jun  1 08:31:19 2002
19.512196 Sat Jun  1 09:01:04 2002
19.024391 Sat Jun  1 09:31:10 2002
19.024391 Sat Jun  1 10:01:03 2002
20.000000 Sat Jun  1 10:31:20 2002
20.243902 Sat Jun  1 11:01:12 2002
20.487804 Sat Jun  1 11:31:22 2002
20.243902 Sat Jun  1 12:01:06 2002
20.243902 Sat Jun  1 12:31:16 2002
20.731707 Sat Jun  1 13:01:23 2002
20.487804 Sat Jun  1 13:31:36 2002
20.731707 Sat Jun  1 14:01:05 2002
20.243902 Sat Jun  1 14:31:14 2002
19.268293 Sat Jun  1 15:01:07 2002
20.243902 Sat Jun  1 15:31:11 2002
19.756098 Sat Jun  1 16:01:05 2002
20.487804 Sat Jun  1 16:31:10 2002
18.780487 Sat Jun  1 17:01:11 2002
20.487804 Sat Jun  1 17:31:17 2002
20.487804 Sat Jun  1 18:01:05 2002
20.243902 Sat Jun  1 18:31:07 2002
20.243902 Sat Jun  1 19:01:02 2002
20.000000 Sat Jun  1 19:31:11 2002
20.000000 Sat Jun  1 20:01:03 2002
19.756098 Sat Jun  1 20:31:06 2002
20.000000 Sat Jun  1 21:01:15 2002
20.487804 Sat Jun  1 21:31:24 2002
20.975609 Sat Jun  1 22:01:10 2002
21.707317 Sat Jun  1 22:31:17 2002
21.951220 Sat Jun  1 23:01:03 2002
21.951220 Sat Jun  1 23:31:06 2002
22.195122 Sun Jun  2 00:01:08 2002
22.195122 Sun Jun  2 00:31:14 2002
21.707317 Sun Jun  2 01:01:02 2002
21.707317 Sun Jun  2 01:31:05 2002
21.707317 Sun Jun  2 02:01:06 2002
20.975609 Sun Jun  2 02:31:19 2002
20.975609 Sun Jun  2 03:01:03 2002
20.487804 Sun Jun  2 03:31:10 2002
20.000000 Sun Jun  2 04:01:03 2002
20.000000 Sun Jun  2 04:31:07 2002
20.000000 Sun Jun  2 05:01:03 2002
20.000000 Sun Jun  2 05:31:06 2002
19.024391 Sun Jun  2 06:01:14 2002
19.512196 Sun Jun  2 06:31:17 2002
19.268293 Sun Jun  2 07:01:11 2002
19.512196 Sun Jun  2 07:31:14 2002
19.024391 Sun Jun  2 08:01:07 2002
20.000000 Sun Jun  2 08:31:14 2002
20.243902 Sun Jun  2 09:01:06 2002
20.000000 Sun Jun  2 09:31:09 2002
20.487804 Sun Jun  2 10:01:06 2002
20.975609 Sun Jun  2 10:31:14 2002
21.219513 Sun Jun  2 11:01:03 2002
21.219513 Sun Jun  2 11:31:07 2002
21.219513 Sun Jun  2 12:01:09 2002
21.463415 Sun Jun  2 12:31:13 2002
21.707317 Sun Jun  2 13:01:04 2002
21.707317 Sun Jun  2 13:31:08 2002
21.707317 Sun Jun  2 14:01:03 2002
22.195122 Sun Jun  2 14:31:16 2002
22.439024 Sun Jun  2 15:01:20 2002
22.439024 Sun Jun  2 15:31:25 2002
22.439024 Sun Jun  2 16:01:06 2002
22.439024 Sun Jun  2 16:31:12 2002
22.926828 Sun Jun  2 17:01:07 2002
23.170732 Sun Jun  2 17:31:10 2002
23.658537 Sun Jun  2 18:01:03 2002
23.658537 Sun Jun  2 18:31:13 2002
23.414635 Sun Jun  2 19:01:05 2002
23.414635 Sun Jun  2 19:31:12 2002
23.658537 Sun Jun  2 20:01:10 2002
23.902439 Sun Jun  2 20:31:13 2002
23.414635 Sun Jun  2 21:01:14 2002
23.658537 Sun Jun  2 21:31:28 2002
23.902439 Sun Jun  2 22:01:06 2002
24.146341 Sun Jun  2 22:31:13 2002
24.146341 Sun Jun  2 23:01:15 2002
24.390244 Sun Jun  2 23:31:23 2002
24.390244 Mon Jun  3 00:01:05 2002
24.878048 Mon Jun  3 00:31:11 2002
24.390244 Mon Jun  3 01:01:08 2002
23.414635 Mon Jun  3 01:31:13 2002
22.682926 Mon Jun  3 02:01:05 2002
22.439024 Mon Jun  3 02:31:12 2002
22.195122 Mon Jun  3 03:01:06 2002
21.951220 Mon Jun  3 03:31:19 2002
21.951220 Mon Jun  3 04:01:05 2002
21.707317 Mon Jun  3 04:31:12 2002
20.975609 Mon Jun  3 05:01:05 2002
21.463415 Mon Jun  3 05:31:19 2002
20.975609 Mon Jun  3 06:01:05 2002
20.975609 Mon Jun  3 06:31:14 2002
21.219513 Mon Jun  3 07:01:11 2002
21.219513 Mon Jun  3 07:31:18 2002
20.975609 Mon Jun  3 08:01:03 2002
20.975609 Mon Jun  3 08:31:06 2002
21.707317 Mon Jun  3 09:01:15 2002
21.463415 Mon Jun  3 09:31:17 2002
21.463415 Mon Jun  3 10:01:04 2002
22.439024 Mon Jun  3 10:31:08 2002
22.682926 Mon Jun  3 11:01:04 2002
22.926828 Mon Jun  3 11:31:09 2002
22.926828 Mon Jun  3 12:01:15 2002
23.170732 Mon Jun  3 12:31:39 2002
22.926828 Mon Jun  3 13:01:06 2002
23.170732 Mon Jun  3 13:31:09 2002
23.414635 Mon Jun  3 14:01:04 2002
23.902439 Mon Jun  3 14:31:13 2002
24.390244 Mon Jun  3 15:01:04 2002
24.390244 Mon Jun  3 15:31:09 2002
24.390244 Mon Jun  3 16:01:06 2002
24.146341 Mon Jun  3 16:31:12 2002
23.902439 Mon Jun  3 17:01:05 2002
24.390244 Mon Jun  3 17:31:12 2002
24.146341 Mon Jun  3 18:01:23 2002
24.146341 Mon Jun  3 18:31:28 2002
23.902439 Mon Jun  3 19:01:28 2002
24.390244 Mon Jun  3 19:31:31 2002
24.634146 Mon Jun  3 20:01:04 2002
24.878048 Mon Jun  3 20:31:07 2002
24.634146 Mon Jun  3 21:01:04 2002
24.634146 Mon Jun  3 21:31:08 2002
24.390244 Mon Jun  3 22:01:06 2002
24.146341 Mon Jun  3 22:31:10 2002
24.146341 Mon Jun  3 23:01:06 2002
23.658537 Mon Jun  3 23:31:09 2002
22.926828 Tue Jun  4 00:01:06 2002
23.414635 Tue Jun  4 00:31:12 2002
24.146341 Tue Jun  4 01:01:09 2002
24.390244 Tue Jun  4 01:31:18 2002
23.902439 Tue Jun  4 02:01:06 2002
23.414635 Tue Jun  4 02:31:10 2002
23.414635 Tue Jun  4 03:01:04 2002
22.926828 Tue Jun  4 03:31:10 2002
22.682926 Tue Jun  4 04:01:04 2002
22.439024 Tue Jun  4 04:31:10 2002
22.439024 Tue Jun  4 05:01:12 2002
22.195122 Tue Jun  4 05:31:24 2002
22.439024 Tue Jun  4 06:01:03 2002
21.951220 Tue Jun  4 06:31:05 2002
22.195122 Tue Jun  4 07:01:05 2002
21.951220 Tue Jun  4 07:31:10 2002
22.195122 Tue Jun  4 08:01:10 2002
22.195122 Tue Jun  4 08:31:13 2002
22.926828 Tue Jun  4 09:01:16 2002
22.926828 Tue Jun  4 09:31:19 2002
22.926828 Tue Jun  4 10:01:03 2002
23.170732 Tue Jun  4 10:31:06 2002
23.170732 Tue Jun  4 11:01:14 2002
22.926828 Tue Jun  4 11:31:17 2002
22.926828 Tue Jun  4 12:01:03 2002
22.926828 Tue Jun  4 12:31:07 2002
23.170732 Tue Jun  4 13:01:18 2002
22.926828 Tue Jun  4 13:31:22 2002
22.926828 Tue Jun  4 14:01:06 2002
22.926828 Tue Jun  4 14:31:09 2002
23.414635 Tue Jun  4 15:01:07 2002
23.414635 Tue Jun  4 15:31:14 2002
24.146341 Tue Jun  4 16:01:12 2002
24.390244 Tue Jun  4 16:31:16 2002
24.634146 Tue Jun  4 17:01:21 2002
24.634146 Tue Jun  4 17:31:24 2002
24.634146 Tue Jun  4 18:01:08 2002
24.878048 Tue Jun  4 18:31:12 2002
24.878048 Tue Jun  4 19:01:02 2002
24.390244 Tue Jun  4 19:31:10 2002
24.878048 Tue Jun  4 20:01:04 2002
25.365854 Tue Jun  4 20:31:09 2002
25.609756 Tue Jun  4 21:01:06 2002
25.365854 Tue Jun  4 21:31:09 2002
25.609756 Tue Jun  4 22:01:06 2002
25.853659 Tue Jun  4 22:31:13 2002
25.365854 Tue Jun  4 23:01:08 2002
25.365854 Tue Jun  4 23:31:11 2002
25.365854 Wed Jun  5 00:01:09 2002
25.365854 Wed Jun  5 00:31:19 2002
24.878048 Wed Jun  5 01:01:10 2002
24.634146 Wed Jun  5 01:31:13 2002
24.634146 Wed Jun  5 02:01:03 2002
24.634146 Wed Jun  5 02:31:10 2002
23.902439 Wed Jun  5 03:01:05 2002
23.902439 Wed Jun  5 03:31:13 2002
23.902439 Wed Jun  5 04:01:03 2002
23.658537 Wed Jun  5 04:31:15 2002
23.414635 Wed Jun  5 05:01:04 2002
23.414635 Wed Jun  5 05:31:10 2002
23.170732 Wed Jun  5 06:01:03 2002
22.926828 Wed Jun  5 06:31:17 2002
22.926828 Wed Jun  5 07:01:05 2002
22.926828 Wed Jun  5 07:31:08 2002
23.170732 Wed Jun  5 08:01:04 2002
23.902439 Wed Jun  5 08:31:10 2002
23.902439 Wed Jun  5 09:01:04 2002
23.658537 Wed Jun  5 09:31:15 2002
23.902439 Wed Jun  5 10:01:03 2002
24.634146 Wed Jun  5 10:31:13 2002
25.121952 Wed Jun  5 11:01:09 2002
25.121952 Wed Jun  5 11:31:20 2002
25.121952 Wed Jun  5 12:01:05 2002
25.365854 Wed Jun  5 12:31:08 2002
24.878048 Wed Jun  5 13:01:08 2002
25.365854 Wed Jun  5 13:31:11 2002
25.853659 Wed Jun  5 14:01:11 2002
25.853659 Wed Jun  5 14:31:14 2002
25.853659 Wed Jun  5 15:01:05 2002
25.853659 Wed Jun  5 15:31:10 2002
25.853659 Wed Jun  5 16:01:04 2002
25.853659 Wed Jun  5 16:31:09 2002
26.097561 Wed Jun  5 17:01:05 2002
25.609756 Wed Jun  5 17:31:08 2002
25.609756 Wed Jun  5 18:01:04 2002
26.097561 Wed Jun  5 18:31:07 2002
26.341463 Wed Jun  5 19:01:05 2002
26.097561 Wed Jun  5 19:31:08 2002
26.097561 Wed Jun  5 20:01:03 2002
25.365854 Wed Jun  5 20:31:12 2002
24.634146 Wed Jun  5 21:01:15 2002
24.146341 Wed Jun  5 21:31:19 2002
24.390244 Wed Jun  5 22:01:06 2002
24.146341 Wed Jun  5 22:31:16 2002
23.658537 Wed Jun  5 23:01:04 2002
23.658537 Wed Jun  5 23:31:07 2002
24.146341 Thu Jun  6 00:01:22 2002
24.146341 Thu Jun  6 00:31:29 2002
24.878048 Thu Jun  6 01:01:05 2002
23.902439 Thu Jun  6 01:31:12 2002
23.902439 Thu Jun  6 02:01:03 2002
22.926828 Thu Jun  6 02:31:09 2002
22.926828 Thu Jun  6 03:01:13 2002
23.170732 Thu Jun  6 03:31:21 2002
22.926828 Thu Jun  6 04:01:04 2002
22.926828 Thu Jun  6 04:31:07 2002
22.926828 Thu Jun  6 05:01:04 2002
22.926828 Thu Jun  6 05:31:07 2002
22.195122 Thu Jun  6 06:01:06 2002
21.951220 Thu Jun  6 06:31:10 2002
22.195122 Thu Jun  6 07:01:07 2002
21.951220 Thu Jun  6 07:31:14 2002
21.951220 Thu Jun  6 08:01:06 2002
22.195122 Thu Jun  6 08:31:09 2002
22.439024 Thu Jun  6 09:01:04 2002
22.195122 Thu Jun  6 09:31:07 2002
21.951220 Thu Jun  6 10:01:06 2002
22.439024 Thu Jun  6 10:31:34 2002
22.682926 Thu Jun  6 11:01:07 2002
23.170732 Thu Jun  6 11:31:13 2002
22.926828 Thu Jun  6 12:01:03 2002
22.926828 Thu Jun  6 12:31:07 2002
22.926828 Thu Jun  6 13:01:10 2002
22.926828 Thu Jun  6 13:31:13 2002
22.439024 Thu Jun  6 14:01:04 2002
23.170732 Thu Jun  6 14:31:08 2002
23.170732 Thu Jun  6 15:01:09 2002
22.926828 Thu Jun  6 15:31:12 2002
22.926828 Thu Jun  6 16:01:05 2002
23.414635 Thu Jun  6 16:31:17 2002
22.926828 Thu Jun  6 17:01:03 2002
22.682926 Thu Jun  6 17:31:08 2002
22.926828 Thu Jun  6 18:01:06 2002
22.926828 Thu Jun  6 18:31:10 2002
23.170732 Thu Jun  6 19:01:09 2002
23.170732 Thu Jun  6 19:31:12 2002
22.682926 Thu Jun  6 20:01:03 2002
22.439024 Thu Jun  6 20:31:08 2002
22.682926 Thu Jun  6 21:01:08 2002
20.000000 Thu Jun  6 21:31:15 2002
20.731707 Thu Jun  6 22:01:07 2002
21.707317 Thu Jun  6 22:31:14 2002
21.707317 Thu Jun  6 23:01:15 2002
21.463415 Thu Jun  6 23:31:22 2002
21.951220 Fri Jun  7 00:01:07 2002
22.195122 Fri Jun  7 00:31:13 2002
21.951220 Fri Jun  7 01:01:06 2002
21.951220 Fri Jun  7 01:31:12 2002
21.463415 Fri Jun  7 02:01:10 2002
21.951220 Fri Jun  7 02:31:27 2002
21.463415 Fri Jun  7 03:01:07 2002
20.975609 Fri Jun  7 03:31:22 2002
21.463415 Fri Jun  7 04:01:06 2002
20.975609 Fri Jun  7 04:31:11 2002
20.975609 Fri Jun  7 05:01:04 2002
20.975609 Fri Jun  7 05:31:11 2002
20.975609 Fri Jun  7 06:01:04 2002
20.975609 Fri Jun  7 06:31:06 2002
20.975609 Fri Jun  7 07:01:09 2002
20.487804 Fri Jun  7 07:31:15 2002
20.487804 Fri Jun  7 08:01:06 2002
20.975609 Fri Jun  7 08:31:13 2002
21.463415 Fri Jun  7 09:01:05 2002
21.463415 Fri Jun  7 09:31:15 2002
21.707317 Fri Jun  7 10:01:03 2002
21.951220 Fri Jun  7 10:31:15 2002
20.975609 Fri Jun  7 11:01:08 2002
20.975609 Fri Jun  7 11:31:10 2002
20.975609 Fri Jun  7 12:01:03 2002
20.731707 Fri Jun  7 12:31:07 2002
20.731707 Fri Jun  7 13:01:13 2002
21.707317 Fri Jun  7 13:31:30 2002
22.195122 Fri Jun  7 14:01:06 2002
22.195122 Fri Jun  7 14:31:09 2002
22.195122 Fri Jun  7 15:01:04 2002
22.195122 Fri Jun  7 15:31:09 2002
22.195122 Fri Jun  7 16:01:03 2002
22.439024 Fri Jun  7 16:31:09 2002
22.682926 Fri Jun  7 17:01:03 2002
22.926828 Fri Jun  7 17:31:07 2002
22.926828 Fri Jun  7 18:01:11 2002
23.170732 Fri Jun  7 18:31:24 2002
23.170732 Fri Jun  7 19:01:03 2002
22.682926 Fri Jun  7 19:31:07 2002
22.926828 Fri Jun  7 20:01:06 2002
22.439024 Fri Jun  7 20:31:10 2002
22.439024 Fri Jun  7 21:01:04 2002
22.439024 Fri Jun  7 21:31:23 2002
21.951220 Fri Jun  7 22:01:04 2002
22.195122 Fri Jun  7 22:31:07 2002
21.951220 Fri Jun  7 23:01:03 2002
22.195122 Fri Jun  7 23:31:07 2002
22.195122 Sat Jun  8 00:01:03 2002
21.951220 Sat Jun  8 00:31:06 2002
22.195122 Sat Jun  8 01:01:19 2002
21.951220 Sat Jun  8 01:31:27 2002
21.707317 Sat Jun  8 02:01:03 2002
21.707317 Sat Jun  8 02:31:06 2002
20.975609 Sat Jun  8 03:01:06 2002
21.219513 Sat Jun  8 03:31:09 2002
20.487804 Sat Jun  8 04:01:09 2002
20.731707 Sat Jun  8 04:31:12 2002
20.487804 Sat Jun  8 05:01:03 2002
20.487804 Sat Jun  8 05:31:21 2002
20.487804 Sat Jun  8 06:01:22 2002
20.000000 Sat Jun  8 06:31:28 2002
20.487804 Sat Jun  8 07:01:05 2002
20.243902 Sat Jun  8 07:31:19 2002
20.243902 Sat Jun  8 08:01:28 2002
20.731707 Sat Jun  8 08:31:33 2002
20.975609 Sat Jun  8 09:01:09 2002
21.219513 Sat Jun  8 09:31:11 2002
20.975609 Sat Jun  8 10:01:03 2002
21.463415 Sat Jun  8 10:31:10 2002
21.463415 Sat Jun  8 11:01:03 2002
21.463415 Sat Jun  8 11:31:07 2002
21.463415 Sat Jun  8 12:01:03 2002
21.463415 Sat Jun  8 12:31:12 2002
22.439024 Sat Jun  8 13:01:06 2002
22.682926 Sat Jun  8 13:31:10 2002
22.682926 Sat Jun  8 14:01:08 2002
22.682926 Sat Jun  8 14:31:17 2002
22.926828 Sat Jun  8 15:01:16 2002
22.926828 Sat Jun  8 15:31:28 2002
23.658537 Sat Jun  8 16:01:06 2002
23.902439 Sat Jun  8 16:31:09 2002
22.439024 Sat Jun  8 17:01:04 2002
22.195122 Sat Jun  8 17:31:13 2002
22.195122 Sat Jun  8 18:01:06 2002
21.951220 Sat Jun  8 18:31:12 2002
22.195122 Sat Jun  8 19:01:04 2002
22.682926 Sat Jun  8 19:31:11 2002
23.414635 Sat Jun  8 20:01:04 2002
23.414635 Sat Jun  8 20:31:10 2002
23.414635 Sat Jun  8 21:01:06 2002
23.658537 Sat Jun  8 21:31:15 2002
23.902439 Sat Jun  8 22:01:08 2002
23.902439 Sat Jun  8 22:31:22 2002
24.146341 Sat Jun  8 23:01:11 2002
24.146341 Sat Jun  8 23:31:16 2002
23.902439 Sun Jun  9 00:01:03 2002
24.146341 Sun Jun  9 00:31:07 2002
24.146341 Sun Jun  9 01:01:13 2002
23.902439 Sun Jun  9 01:31:18 2002
23.170732 Sun Jun  9 02:01:11 2002
22.439024 Sun Jun  9 02:31:19 2002
22.439024 Sun Jun  9 03:01:04 2002
22.195122 Sun Jun  9 03:31:16 2002
21.951220 Sun Jun  9 04:01:06 2002
21.707317 Sun Jun  9 04:31:09 2002
21.463415 Sun Jun  9 05:01:04 2002
21.219513 Sun Jun  9 05:31:08 2002
21.463415 Sun Jun  9 06:01:20 2002
20.975609 Sun Jun  9 06:31:27 2002
21.219513 Sun Jun  9 07:01:06 2002
20.975609 Sun Jun  9 07:31:16 2002
20.975609 Sun Jun  9 08:01:03 2002
21.707317 Sun Jun  9 08:31:07 2002
22.195122 Sun Jun  9 09:01:08 2002
21.951220 Sun Jun  9 09:31:11 2002
22.682926 Sun Jun  9 10:01:05 2002
23.170732 Sun Jun  9 10:31:21 2002
22.926828 Sun Jun  9 11:01:04 2002
22.926828 Sun Jun  9 11:31:10 2002
23.170732 Sun Jun  9 12:01:03 2002
22.926828 Sun Jun  9 12:31:12 2002
22.926828 Sun Jun  9 13:01:06 2002
22.926828 Sun Jun  9 13:31:09 2002
22.926828 Sun Jun  9 14:01:05 2002
22.926828 Sun Jun  9 14:31:11 2002
22.926828 Sun Jun  9 15:01:09 2002
22.926828 Sun Jun  9 15:31:13 2002
23.414635 Sun Jun  9 16:01:09 2002
23.414635 Sun Jun  9 16:31:12 2002
24.146341 Sun Jun  9 17:01:05 2002
24.634146 Sun Jun  9 17:31:09 2002
25.365854 Sun Jun  9 18:01:05 2002
25.365854 Sun Jun  9 18:31:08 2002
24.878048 Sun Jun  9 19:01:03 2002
24.634146 Sun Jun  9 19:31:06 2002
24.390244 Sun Jun  9 20:01:07 2002
24.634146 Sun Jun  9 20:31:10 2002
25.121952 Sun Jun  9 21:01:04 2002
25.365854 Sun Jun  9 21:31:08 2002
25.853659 Sun Jun  9 22:01:09 2002
25.853659 Sun Jun  9 22:31:12 2002
25.609756 Sun Jun  9 23:01:04 2002
24.634146 Sun Jun  9 23:31:08 2002
24.634146 Mon Jun 10 00:01:10 2002
24.634146 Mon Jun 10 00:31:15 2002
24.634146 Mon Jun 10 01:01:09 2002
25.121952 Mon Jun 10 01:31:15 2002
23.414635 Mon Jun 10 02:01:07 2002
23.414635 Mon Jun 10 02:31:15 2002
22.926828 Mon Jun 10 03:01:11 2002
22.682926 Mon Jun 10 03:31:17 2002
22.439024 Mon Jun 10 04:01:05 2002
22.195122 Mon Jun 10 04:31:13 2002
21.951220 Mon Jun 10 05:01:20 2002
21.951220 Mon Jun 10 05:31:26 2002
21.951220 Mon Jun 10 06:01:19 2002
21.463415 Mon Jun 10 06:31:33 2002
21.463415 Mon Jun 10 07:01:06 2002
21.463415 Mon Jun 10 07:31:19 2002
20.975609 Mon Jun 10 08:01:06 2002
21.463415 Mon Jun 10 08:31:12 2002
21.707317 Mon Jun 10 09:01:12 2002
21.951220 Mon Jun 10 09:31:17 2002
22.682926 Mon Jun 10 10:01:04 2002
23.170732 Mon Jun 10 10:31:13 2002
22.926828 Mon Jun 10 11:01:04 2002
22.926828 Mon Jun 10 11:31:18 2002
22.926828 Mon Jun 10 12:01:06 2002
23.170732 Mon Jun 10 12:31:09 2002
22.926828 Mon Jun 10 13:01:03 2002
22.926828 Mon Jun 10 13:31:15 2002
23.170732 Mon Jun 10 14:01:07 2002
22.926828 Mon Jun 10 14:31:26 2002
22.926828 Mon Jun 10 15:01:05 2002
23.170732 Mon Jun 10 15:31:15 2002
22.926828 Mon Jun 10 16:01:06 2002
23.170732 Mon Jun 10 16:31:10 2002
23.414635 Mon Jun 10 17:01:03 2002
23.170732 Mon Jun 10 17:31:06 2002
22.926828 Mon Jun 10 18:01:03 2002
22.682926 Mon Jun 10 18:31:11 2002
22.926828 Mon Jun 10 19:01:11 2002
22.926828 Mon Jun 10 19:31:19 2002
23.170732 Mon Jun 10 20:01:19 2002
22.439024 Mon Jun 10 20:31:24 2002
22.439024 Mon Jun 10 21:01:03 2002
22.439024 Mon Jun 10 21:31:06 2002
21.951220 Mon Jun 10 22:01:10 2002
22.439024 Mon Jun 10 22:31:17 2002
22.439024 Mon Jun 10 23:01:03 2002
23.170732 Mon Jun 10 23:31:23 2002
23.658537 Tue Jun 11 00:01:05 2002
23.170732 Tue Jun 11 00:31:16 2002
23.414635 Tue Jun 11 01:01:03 2002
22.195122 Tue Jun 11 01:31:09 2002
22.195122 Tue Jun 11 02:01:03 2002
21.463415 Tue Jun 11 02:31:07 2002
21.219513 Tue Jun 11 03:01:04 2002
20.975609 Tue Jun 11 03:31:07 2002
20.731707 Tue Jun 11 04:01:03 2002
20.487804 Tue Jun 11 04:31:08 2002
20.487804 Tue Jun 11 05:01:06 2002
20.243902 Tue Jun 11 05:31:11 2002
20.243902 Tue Jun 11 06:01:03 2002
19.756098 Tue Jun 11 06:31:20 2002
19.512196 Tue Jun 11 07:01:11 2002
19.512196 Tue Jun 11 07:31:16 2002
20.000000 Tue Jun 11 08:01:04 2002
20.243902 Tue Jun 11 08:31:07 2002
20.731707 Tue Jun 11 09:01:04 2002
20.731707 Tue Jun 11 09:31:09 2002
20.487804 Tue Jun 11 10:01:15 2002
20.000000 Tue Jun 11 10:31:35 2002
20.000000 Tue Jun 11 11:01:04 2002
20.731707 Tue Jun 11 11:31:07 2002
20.243902 Tue Jun 11 12:01:07 2002
20.487804 Tue Jun 11 12:31:10 2002
20.000000 Tue Jun 11 13:01:22 2002
20.243902 Tue Jun 11 13:31:37 2002
20.000000 Tue Jun 11 14:01:06 2002
20.487804 Tue Jun 11 14:31:12 2002
20.487804 Tue Jun 11 15:01:04 2002
20.000000 Tue Jun 11 15:31:10 2002
20.487804 Tue Jun 11 16:01:07 2002
20.487804 Tue Jun 11 16:31:13 2002
20.487804 Tue Jun 11 17:01:05 2002
20.731707 Tue Jun 11 17:31:12 2002
20.731707 Tue Jun 11 18:01:03 2002
20.487804 Tue Jun 11 18:31:07 2002
20.487804 Tue Jun 11 19:01:07 2002
20.487804 Tue Jun 11 19:31:10 2002
20.000000 Tue Jun 11 20:01:14 2002
20.243902 Tue Jun 11 20:31:17 2002
20.000000 Tue Jun 11 21:01:03 2002
20.000000 Tue Jun 11 21:31:09 2002
20.487804 Tue Jun 11 22:01:09 2002
20.487804 Tue Jun 11 22:31:46 2002
20.975609 Tue Jun 11 23:01:12 2002
21.219513 Tue Jun 11 23:31:15 2002
21.463415 Wed Jun 12 00:01:29 2002
20.975609 Wed Jun 12 00:31:38 2002
20.731707 Wed Jun 12 01:01:05 2002
20.243902 Wed Jun 12 01:31:13 2002
20.243902 Wed Jun 12 02:01:03 2002
20.243902 Wed Jun 12 02:31:06 2002
19.512196 Wed Jun 12 03:01:04 2002
19.024391 Wed Jun 12 03:31:09 2002
19.024391 Wed Jun 12 04:01:06 2002
19.024391 Wed Jun 12 04:31:10 2002
19.024391 Wed Jun 12 05:01:11 2002
19.024391 Wed Jun 12 05:31:14 2002
19.024391 Wed Jun 12 06:01:07 2002
19.268293 Wed Jun 12 06:31:17 2002
19.024391 Wed Jun 12 07:01:10 2002
19.024391 Wed Jun 12 07:31:19 2002
18.780487 Wed Jun 12 08:01:03 2002
19.024391 Wed Jun 12 08:31:10 2002
19.024391 Wed Jun 12 09:01:04 2002
19.024391 Wed Jun 12 09:31:10 2002
19.024391 Wed Jun 12 10:01:05 2002
19.024391 Wed Jun 12 10:31:09 2002
19.268293 Wed Jun 12 11:01:06 2002
19.024391 Wed Jun 12 11:31:10 2002
19.756098 Wed Jun 12 12:01:05 2002
19.024391 Wed Jun 12 12:31:07 2002
19.756098 Wed Jun 12 13:01:03 2002
19.512196 Wed Jun 12 13:31:08 2002
20.000000 Wed Jun 12 14:01:08 2002
20.000000 Wed Jun 12 14:31:15 2002
20.000000 Wed Jun 12 15:01:19 2002
20.000000 Wed Jun 12 15:31:23 2002
20.731707 Wed Jun 12 16:01:08 2002
20.000000 Wed Jun 12 16:31:16 2002
20.487804 Wed Jun 12 17:01:06 2002
20.731707 Wed Jun 12 17:31:11 2002
20.731707 Wed Jun 12 18:01:28 2002
20.487804 Wed Jun 12 18:31:32 2002
20.487804 Wed Jun 12 19:01:06 2002
20.243902 Wed Jun 12 19:31:10 2002
20.487804 Wed Jun 12 20:01:04 2002
20.731707 Wed Jun 12 20:31:37 2002
20.975609 Wed Jun 12 21:01:05 2002
20.975609 Wed Jun 12 21:31:19 2002
21.463415 Wed Jun 12 22:01:05 2002
20.975609 Wed Jun 12 22:31:08 2002
20.487804 Wed Jun 12 23:01:05 2002
20.731707 Wed Jun 12 23:31:09 2002
20.975609 Thu Jun 13 00:01:07 2002
20.487804 Thu Jun 13 00:31:10 2002
20.487804 Thu Jun 13 01:01:03 2002
19.756098 Thu Jun 13 01:31:12 2002
19.756098 Thu Jun 13 02:01:03 2002
19.512196 Thu Jun 13 02:31:08 2002
19.268293 Thu Jun 13 03:01:05 2002
19.024391 Thu Jun 13 03:31:11 2002
19.024391 Thu Jun 13 04:01:03 2002
18.780487 Thu Jun 13 04:31:08 2002
18.536585 Thu Jun 13 05:01:05 2002
18.536585 Thu Jun 13 05:31:20 2002
18.048780 Thu Jun 13 06:01:12 2002
18.780487 Thu Jun 13 06:31:19 2002
18.536585 Thu Jun 13 07:01:05 2002
18.292683 Thu Jun 13 07:31:08 2002
18.536585 Thu Jun 13 08:01:21 2002
18.780487 Thu Jun 13 08:31:41 2002
18.780487 Thu Jun 13 09:01:12 2002
19.024391 Thu Jun 13 09:31:15 2002
19.024391 Thu Jun 13 10:01:05 2002
19.268293 Thu Jun 13 10:31:11 2002
19.268293 Thu Jun 13 11:01:13 2002
19.024391 Thu Jun 13 11:31:22 2002
19.268293 Thu Jun 13 12:01:04 2002
19.024391 Thu Jun 13 12:31:09 2002
19.024391 Thu Jun 13 13:01:03 2002
19.268293 Thu Jun 13 13:31:12 2002
19.268293 Thu Jun 13 14:01:07 2002
19.024391 Thu Jun 13 14:31:21 2002
19.268293 Thu Jun 13 15:01:03 2002
19.024391 Thu Jun 13 15:31:12 2002
19.024391 Thu Jun 13 16:01:03 2002
19.024391 Thu Jun 13 16:31:07 2002
19.024391 Thu Jun 13 17:01:11 2002
19.024391 Thu Jun 13 17:31:14 2002
19.756098 Thu Jun 13 18:01:08 2002
19.756098 Thu Jun 13 18:31:13 2002
20.243902 Thu Jun 13 19:01:04 2002
20.243902 Thu Jun 13 19:31:10 2002
20.731707 Thu Jun 13 20:01:04 2002
20.000000 Thu Jun 13 20:31:08 2002
20.243902 Thu Jun 13 21:01:07 2002
20.487804 Thu Jun 13 21:31:29 2002
20.243902 Thu Jun 13 22:01:03 2002
20.000000 Thu Jun 13 22:31:10 2002
19.756098 Thu Jun 13 23:01:04 2002
19.756098 Thu Jun 13 23:31:13 2002
19.512196 Fri Jun 14 00:01:04 2002
19.512196 Fri Jun 14 00:31:11 2002
19.268293 Fri Jun 14 01:01:05 2002
19.024391 Fri Jun 14 01:31:08 2002
19.024391 Fri Jun 14 02:31:04 2002
19.268293 Fri Jun 14 03:01:13 2002
19.024391 Fri Jun 14 03:31:17 2002
19.024391 Fri Jun 14 04:01:13 2002
19.024391 Fri Jun 14 04:31:16 2002
18.536585 Fri Jun 14 05:01:04 2002
19.024391 Fri Jun 14 05:31:10 2002
19.024391 Fri Jun 14 06:01:03 2002
18.536585 Fri Jun 14 06:31:21 2002
18.780487 Fri Jun 14 07:01:03 2002
18.780487 Fri Jun 14 07:31:07 2002
18.780487 Fri Jun 14 08:01:03 2002
19.024391 Fri Jun 14 08:31:06 2002
18.536585 Fri Jun 14 09:01:06 2002
18.536585 Fri Jun 14 09:31:09 2002
18.536585 Fri Jun 14 10:01:07 2002
18.536585 Fri Jun 14 10:31:10 2002
18.780487 Fri Jun 14 11:01:15 2002
19.268293 Fri Jun 14 11:31:32 2002
19.268293 Fri Jun 14 12:01:06 2002
19.268293 Fri Jun 14 12:31:10 2002
19.024391 Fri Jun 14 13:01:10 2002
19.268293 Fri Jun 14 13:31:15 2002
19.512196 Fri Jun 14 14:01:13 2002
19.512196 Fri Jun 14 14:31:23 2002
19.024391 Fri Jun 14 15:01:02 2002
19.024391 Fri Jun 14 15:31:05 2002
20.000000 Fri Jun 14 16:01:03 2002
20.000000 Fri Jun 14 16:31:06 2002
20.000000 Fri Jun 14 17:01:09 2002
20.243902 Fri Jun 14 17:31:13 2002
20.731707 Fri Jun 14 18:01:09 2002
20.975609 Fri Jun 14 18:31:20 2002
20.731707 Fri Jun 14 19:01:10 2002
20.975609 Fri Jun 14 19:31:14 2002
20.975609 Fri Jun 14 20:01:10 2002
21.463415 Fri Jun 14 20:31:15 2002
20.975609 Fri Jun 14 21:01:19 2002
21.219513 Fri Jun 14 21:31:22 2002
21.219513 Fri Jun 14 22:01:05 2002
21.463415 Fri Jun 14 22:31:08 2002
21.463415 Fri Jun 14 23:01:18 2002
21.463415 Fri Jun 14 23:31:21 2002
21.463415 Sat Jun 15 00:01:06 2002
21.463415 Sat Jun 15 00:31:22 2002
21.707317 Sat Jun 15 01:01:05 2002
21.219513 Sat Jun 15 01:31:14 2002
20.975609 Sat Jun 15 02:01:06 2002
20.000000 Sat Jun 15 02:31:12 2002
20.000000 Sat Jun 15 03:01:03 2002
20.243902 Sat Jun 15 03:31:06 2002
20.000000 Sat Jun 15 04:01:03 2002
20.243902 Sat Jun 15 04:31:14 2002
19.756098 Sat Jun 15 05:01:08 2002
19.756098 Sat Jun 15 05:31:20 2002
19.512196 Sat Jun 15 06:01:07 2002
19.756098 Sat Jun 15 06:31:10 2002
19.512196 Sat Jun 15 07:01:07 2002
19.024391 Sat Jun 15 07:31:17 2002
19.756098 Sat Jun 15 08:01:02 2002
20.000000 Sat Jun 15 08:31:08 2002
19.024391 Sat Jun 15 09:01:04 2002
20.000000 Sat Jun 15 09:31:07 2002
20.243902 Sat Jun 15 10:01:17 2002
20.243902 Sat Jun 15 10:31:20 2002
20.975609 Sat Jun 15 11:01:10 2002
21.219513 Sat Jun 15 11:31:13 2002
20.243902 Sat Jun 15 12:01:10 2002
20.000000 Sat Jun 15 12:31:20 2002
19.512196 Sat Jun 15 13:01:12 2002
20.487804 Sat Jun 15 13:31:16 2002
20.731707 Sat Jun 15 14:01:06 2002
20.975609 Sat Jun 15 14:31:13 2002
21.219513 Sat Jun 15 15:01:04 2002
21.219513 Sat Jun 15 15:31:31 2002
21.463415 Sat Jun 15 16:01:18 2002
21.463415 Sat Jun 15 16:31:31 2002
21.951220 Sat Jun 15 17:01:07 2002
21.463415 Sat Jun 15 17:31:27 2002
22.439024 Sat Jun 15 18:01:16 2002
22.682926 Sat Jun 15 18:31:25 2002
22.926828 Sat Jun 15 19:01:04 2002
22.682926 Sat Jun 15 19:31:13 2002
22.439024 Sat Jun 15 20:01:06 2002
22.682926 Sat Jun 15 20:31:15 2002
22.682926 Sat Jun 15 21:01:07 2002
22.439024 Sat Jun 15 21:31:14 2002
22.682926 Sat Jun 15 22:01:30 2002
22.439024 Sat Jun 15 22:31:35 2002
21.951220 Sat Jun 15 23:01:12 2002
21.951220 Sat Jun 15 23:31:16 2002
21.951220 Sun Jun 16 00:01:03 2002
22.195122 Sun Jun 16 00:31:09 2002
21.951220 Sun Jun 16 01:01:04 2002
21.951220 Sun Jun 16 01:31:07 2002
21.463415 Sun Jun 16 02:01:02 2002
21.463415 Sun Jun 16 02:31:15 2002
21.707317 Sun Jun 16 03:01:05 2002
21.463415 Sun Jun 16 03:31:07 2002
20.975609 Sun Jun 16 04:01:07 2002
21.219513 Sun Jun 16 04:31:10 2002
20.731707 Sun Jun 16 05:01:06 2002
20.731707 Sun Jun 16 05:31:13 2002
20.731707 Sun Jun 16 06:01:03 2002
20.731707 Sun Jun 16 06:31:15 2002
20.975609 Sun Jun 16 07:01:04 2002
20.975609 Sun Jun 16 07:31:13 2002
20.975609 Sun Jun 16 08:01:19 2002
21.219513 Sun Jun 16 08:31:38 2002
21.219513 Sun Jun 16 09:01:04 2002
21.707317 Sun Jun 16 09:31:12 2002
21.707317 Sun Jun 16 10:01:06 2002
21.707317 Sun Jun 16 10:31:10 2002
21.463415 Sun Jun 16 11:01:10 2002
21.463415 Sun Jun 16 11:31:16 2002
21.707317 Sun Jun 16 12:01:06 2002
21.707317 Sun Jun 16 12:31:11 2002
21.707317 Sun Jun 16 13:01:04 2002
21.707317 Sun Jun 16 13:31:18 2002
21.707317 Sun Jun 16 14:01:12 2002
21.707317 Sun Jun 16 14:31:16 2002
21.707317 Sun Jun 16 15:01:02 2002
21.707317 Sun Jun 16 15:31:11 2002
21.463415 Sun Jun 16 16:01:09 2002
21.951220 Sun Jun 16 16:31:12 2002
22.195122 Sun Jun 16 17:01:04 2002
21.951220 Sun Jun 16 17:31:20 2002
22.682926 Sun Jun 16 18:01:06 2002
22.926828 Sun Jun 16 18:31:14 2002
23.170732 Sun Jun 16 19:01:09 2002
21.951220 Sun Jun 16 19:31:16 2002
22.682926 Sun Jun 16 20:01:12 2002
22.682926 Sun Jun 16 20:31:21 2002
22.195122 Sun Jun 16 21:01:03 2002
22.439024 Sun Jun 16 21:31:20 2002
23.170732 Sun Jun 16 22:01:05 2002
22.682926 Sun Jun 16 22:31:08 2002
22.439024 Sun Jun 16 23:01:12 2002
22.926828 Sun Jun 16 23:31:23 2002
23.170732 Mon Jun 17 00:01:05 2002
23.170732 Mon Jun 17 00:31:09 2002
23.414635 Mon Jun 17 01:01:09 2002
22.682926 Mon Jun 17 01:31:13 2002
22.682926 Mon Jun 17 02:01:07 2002
21.951220 Mon Jun 17 02:31:12 2002
21.707317 Mon Jun 17 03:01:15 2002
21.463415 Mon Jun 17 03:31:32 2002
21.463415 Mon Jun 17 04:01:15 2002
21.219513 Mon Jun 17 04:31:18 2002
21.219513 Mon Jun 17 05:01:09 2002
20.975609 Mon Jun 17 05:31:16 2002
20.731707 Mon Jun 17 06:01:08 2002
20.975609 Mon Jun 17 06:31:18 2002
20.731707 Mon Jun 17 07:01:07 2002
20.975609 Mon Jun 17 07:31:14 2002
20.487804 Mon Jun 17 08:01:03 2002
21.707317 Mon Jun 17 08:31:16 2002
22.195122 Mon Jun 17 09:01:07 2002
22.439024 Mon Jun 17 09:31:12 2002
22.195122 Mon Jun 17 10:01:10 2002
22.439024 Mon Jun 17 10:31:16 2002
22.682926 Mon Jun 17 11:01:06 2002
22.926828 Mon Jun 17 11:31:13 2002
22.926828 Mon Jun 17 12:01:10 2002
22.926828 Mon Jun 17 12:31:14 2002
22.926828 Mon Jun 17 13:01:03 2002
23.170732 Mon Jun 17 13:31:20 2002
23.658537 Mon Jun 17 14:01:07 2002
23.658537 Mon Jun 17 14:31:12 2002
23.902439 Mon Jun 17 15:01:20 2002
23.902439 Mon Jun 17 15:31:23 2002
24.390244 Mon Jun 17 16:01:03 2002
24.878048 Mon Jun 17 16:31:07 2002
24.634146 Mon Jun 17 17:01:05 2002
24.878048 Mon Jun 17 17:31:10 2002
25.609756 Mon Jun 17 18:01:08 2002
25.365854 Mon Jun 17 18:31:18 2002
26.341463 Mon Jun 17 19:01:11 2002
26.829268 Mon Jun 17 19:31:16 2002
27.317074 Mon Jun 17 20:01:04 2002
27.317074 Mon Jun 17 20:31:12 2002
27.073172 Mon Jun 17 21:01:04 2002
26.829268 Mon Jun 17 21:31:12 2002
26.829268 Mon Jun 17 22:01:09 2002
26.829268 Mon Jun 17 22:31:14 2002
27.073172 Mon Jun 17 23:01:03 2002
27.073172 Mon Jun 17 23:31:06 2002
26.829268 Tue Jun 18 00:01:07 2002
26.585365 Tue Jun 18 00:31:10 2002
26.585365 Tue Jun 18 01:01:02 2002
25.853659 Tue Jun 18 01:31:12 2002
25.365854 Tue Jun 18 02:01:06 2002
25.365854 Tue Jun 18 02:31:10 2002
25.365854 Tue Jun 18 03:01:03 2002
25.365854 Tue Jun 18 03:31:21 2002
25.121952 Tue Jun 18 04:01:19 2002
25.365854 Tue Jun 18 04:31:22 2002
24.878048 Tue Jun 18 05:01:07 2002
25.121952 Tue Jun 18 05:31:10 2002
24.634146 Tue Jun 18 06:01:17 2002
24.878048 Tue Jun 18 06:31:20 2002
24.878048 Tue Jun 18 07:01:06 2002
24.878048 Tue Jun 18 07:31:10 2002
24.390244 Tue Jun 18 08:01:06 2002
24.878048 Tue Jun 18 08:31:16 2002
25.365854 Tue Jun 18 09:01:05 2002
25.609756 Tue Jun 18 09:31:09 2002
25.853659 Tue Jun 18 10:01:03 2002
25.853659 Tue Jun 18 10:31:06 2002
26.585365 Tue Jun 18 11:01:07 2002
27.073172 Tue Jun 18 11:31:24 2002
27.073172 Tue Jun 18 12:01:07 2002
27.073172 Tue Jun 18 12:31:12 2002
26.829268 Tue Jun 18 13:01:07 2002
26.829268 Tue Jun 18 13:31:10 2002
27.073172 Tue Jun 18 14:01:06 2002
26.829268 Tue Jun 18 14:31:22 2002
27.073172 Tue Jun 18 15:01:16 2002
27.317074 Tue Jun 18 15:31:19 2002
27.317074 Tue Jun 18 16:01:03 2002
27.804878 Tue Jun 18 16:31:12 2002
27.804878 Tue Jun 18 17:01:02 2002
27.804878 Tue Jun 18 17:31:05 2002
28.292683 Tue Jun 18 18:01:04 2002
26.585365 Tue Jun 18 18:31:08 2002
25.609756 Tue Jun 18 19:01:04 2002
23.902439 Tue Jun 18 19:31:09 2002
25.609756 Tue Jun 18 20:01:06 2002
25.121952 Tue Jun 18 20:31:11 2002
24.878048 Tue Jun 18 21:01:02 2002
24.878048 Tue Jun 18 21:31:10 2002
25.365854 Tue Jun 18 22:01:04 2002
25.853659 Tue Jun 18 22:31:14 2002
25.853659 Tue Jun 18 23:01:10 2002
25.609756 Tue Jun 18 23:31:15 2002
25.609756 Wed Jun 19 00:01:08 2002
25.853659 Wed Jun 19 00:31:12 2002
25.609756 Wed Jun 19 01:01:12 2002
25.365854 Wed Jun 19 01:31:18 2002
25.365854 Wed Jun 19 02:01:07 2002
25.365854 Wed Jun 19 02:31:10 2002
24.878048 Wed Jun 19 03:01:05 2002
24.878048 Wed Jun 19 03:31:08 2002
24.878048 Wed Jun 19 04:01:04 2002
24.878048 Wed Jun 19 04:31:11 2002
24.390244 Wed Jun 19 05:01:11 2002
24.390244 Wed Jun 19 05:31:19 2002
24.390244 Wed Jun 19 06:01:04 2002
24.146341 Wed Jun 19 06:31:07 2002
23.902439 Wed Jun 19 07:01:06 2002
23.902439 Wed Jun 19 07:31:11 2002
23.902439 Wed Jun 19 08:01:03 2002
23.902439 Wed Jun 19 08:31:15 2002
24.390244 Wed Jun 19 09:01:17 2002
24.634146 Wed Jun 19 09:31:26 2002
24.634146 Wed Jun 19 10:01:10 2002
24.634146 Wed Jun 19 10:31:16 2002
24.878048 Wed Jun 19 11:01:06 2002
24.878048 Wed Jun 19 11:31:08 2002
25.121952 Wed Jun 19 12:01:03 2002
24.878048 Wed Jun 19 12:31:08 2002
24.634146 Wed Jun 19 13:01:09 2002
24.634146 Wed Jun 19 13:31:17 2002
24.878048 Wed Jun 19 14:01:07 2002
25.121952 Wed Jun 19 14:31:17 2002
24.878048 Wed Jun 19 15:01:04 2002
26.097561 Wed Jun 19 15:31:38 2002
25.365854 Wed Jun 19 16:01:03 2002
25.609756 Wed Jun 19 16:31:09 2002
25.609756 Wed Jun 19 17:01:10 2002
25.365854 Wed Jun 19 17:31:13 2002
25.853659 Wed Jun 19 18:01:07 2002
25.853659 Wed Jun 19 18:31:15 2002
26.097561 Wed Jun 19 19:01:03 2002
26.341463 Wed Jun 19 19:31:11 2002
26.341463 Wed Jun 19 20:01:07 2002
26.585365 Wed Jun 19 20:31:13 2002
26.829268 Wed Jun 19 21:01:05 2002
26.829268 Wed Jun 19 21:31:10 2002
26.829268 Wed Jun 19 22:01:03 2002
26.829268 Wed Jun 19 22:31:09 2002
26.829268 Wed Jun 19 23:01:10 2002
26.829268 Wed Jun 19 23:31:15 2002
24.146341 Thu Jun 20 00:01:21 2002
25.365854 Thu Jun 20 00:31:32 2002
25.365854 Thu Jun 20 01:01:07 2002
25.121952 Thu Jun 20 01:31:10 2002
25.121952 Thu Jun 20 02:01:02 2002
24.634146 Thu Jun 20 02:31:17 2002
24.634146 Thu Jun 20 03:01:14 2002
24.634146 Thu Jun 20 03:31:17 2002
24.390244 Thu Jun 20 04:01:12 2002
24.634146 Thu Jun 20 04:31:23 2002
24.146341 Thu Jun 20 05:01:07 2002
23.902439 Thu Jun 20 05:31:10 2002
23.902439 Thu Jun 20 06:01:24 2002
23.414635 Thu Jun 20 06:31:32 2002
23.414635 Thu Jun 20 07:01:10 2002
22.926828 Thu Jun 20 07:31:32 2002
22.926828 Thu Jun 20 08:01:19 2002
23.414635 Thu Jun 20 08:31:25 2002
23.658537 Thu Jun 20 09:01:10 2002
23.902439 Thu Jun 20 09:31:25 2002
23.658537 Thu Jun 20 10:01:06 2002
23.414635 Thu Jun 20 10:31:16 2002
23.658537 Thu Jun 20 11:01:03 2002
23.902439 Thu Jun 20 11:31:06 2002
23.658537 Thu Jun 20 12:01:10 2002
24.146341 Thu Jun 20 12:31:16 2002
24.146341 Thu Jun 20 13:01:04 2002
23.170732 Thu Jun 20 13:31:14 2002
22.926828 Thu Jun 20 14:01:03 2002
23.170732 Thu Jun 20 14:31:11 2002
22.439024 Thu Jun 20 15:01:04 2002
22.439024 Thu Jun 20 15:31:12 2002
22.439024 Thu Jun 20 16:01:05 2002
22.439024 Thu Jun 20 16:31:08 2002
22.439024 Thu Jun 20 17:01:04 2002
22.195122 Thu Jun 20 17:31:11 2002
22.195122 Thu Jun 20 18:01:04 2002
22.439024 Thu Jun 20 18:31:12 2002
21.463415 Thu Jun 20 19:01:05 2002
21.463415 Thu Jun 20 19:31:11 2002
21.707317 Thu Jun 20 20:01:11 2002
22.195122 Thu Jun 20 20:31:20 2002
23.170732 Thu Jun 20 21:01:04 2002
21.463415 Thu Jun 20 21:31:10 2002
21.463415 Thu Jun 20 22:01:02 2002
21.463415 Thu Jun 20 22:31:17 2002
21.219513 Thu Jun 20 23:01:10 2002
20.975609 Thu Jun 20 23:31:29 2002
21.951220 Fri Jun 21 00:01:09 2002
21.951220 Fri Jun 21 00:31:15 2002
22.439024 Fri Jun 21 01:01:10 2002
22.195122 Fri Jun 21 01:31:14 2002
22.195122 Fri Jun 21 02:01:11 2002
22.195122 Fri Jun 21 02:31:22 2002
22.195122 Fri Jun 21 03:01:07 2002
21.951220 Fri Jun 21 03:31:10 2002
22.195122 Fri Jun 21 04:01:13 2002
22.195122 Fri Jun 21 04:31:16 2002
21.951220 Fri Jun 21 05:01:07 2002
21.707317 Fri Jun 21 05:31:13 2002
21.463415 Fri Jun 21 06:01:07 2002
21.463415 Fri Jun 21 06:31:23 2002
21.463415 Fri Jun 21 07:01:04 2002
21.463415 Fri Jun 21 07:31:07 2002
21.463415 Fri Jun 21 08:01:03 2002
21.463415 Fri Jun 21 08:31:07 2002
20.975609 Fri Jun 21 09:01:07 2002
21.219513 Fri Jun 21 09:31:13 2002
21.707317 Fri Jun 21 10:01:06 2002
21.707317 Fri Jun 21 10:31:09 2002
21.707317 Fri Jun 21 11:01:07 2002
21.951220 Fri Jun 21 11:31:12 2002
21.951220 Fri Jun 21 12:01:08 2002
21.951220 Fri Jun 21 12:31:16 2002
22.195122 Fri Jun 21 13:01:04 2002
22.439024 Fri Jun 21 13:31:09 2002
22.439024 Fri Jun 21 14:01:04 2002
21.951220 Fri Jun 21 14:31:07 2002
22.439024 Fri Jun 21 15:01:03 2002
22.682926 Fri Jun 21 15:31:09 2002
23.414635 Fri Jun 21 16:01:06 2002
22.926828 Fri Jun 21 16:31:11 2002
21.951220 Fri Jun 21 17:01:16 2002
22.439024 Fri Jun 21 17:31:22 2002
22.439024 Fri Jun 21 18:01:03 2002
21.951220 Fri Jun 21 18:31:09 2002
21.707317 Fri Jun 21 19:01:08 2002
21.951220 Fri Jun 21 19:31:18 2002
22.926828 Fri Jun 21 20:01:05 2002
22.926828 Fri Jun 21 20:31:19 2002
22.926828 Fri Jun 21 21:01:11 2002
22.926828 Fri Jun 21 21:31:21 2002
23.170732 Fri Jun 21 22:01:05 2002
22.926828 Fri Jun 21 22:31:13 2002
22.682926 Fri Jun 21 23:01:04 2002
22.926828 Fri Jun 21 23:31:10 2002
22.926828 Sat Jun 22 00:01:04 2002
22.926828 Sat Jun 22 00:31:12 2002
22.926828 Sat Jun 22 01:01:06 2002
22.682926 Sat Jun 22 01:31:10 2002
21.951220 Sat Jun 22 02:01:04 2002
21.707317 Sat Jun 22 02:31:09 2002
21.707317 Sat Jun 22 03:01:04 2002
20.975609 Sat Jun 22 03:31:09 2002
21.219513 Sat Jun 22 04:01:11 2002
20.975609 Sat Jun 22 04:31:19 2002
20.731707 Sat Jun 22 05:01:10 2002
20.487804 Sat Jun 22 05:31:14 2002
20.487804 Sat Jun 22 06:01:15 2002
20.243902 Sat Jun 22 06:31:28 2002
20.243902 Sat Jun 22 07:01:08 2002
20.243902 Sat Jun 22 07:31:14 2002
20.000000 Sat Jun 22 08:01:18 2002
20.975609 Sat Jun 22 08:31:22 2002
20.731707 Sat Jun 22 09:01:03 2002
21.219513 Sat Jun 22 09:31:07 2002
21.219513 Sat Jun 22 10:01:10 2002
21.463415 Sat Jun 22 10:31:19 2002
21.707317 Sat Jun 22 11:01:04 2002
22.195122 Sat Jun 22 11:31:10 2002
22.195122 Sat Jun 22 12:01:05 2002
21.951220 Sat Jun 22 12:31:11 2002
22.439024 Sat Jun 22 13:01:07 2002
22.439024 Sat Jun 22 13:31:14 2002
22.439024 Sat Jun 22 14:01:05 2002
22.439024 Sat Jun 22 14:31:15 2002
22.682926 Sat Jun 22 15:01:06 2002
22.439024 Sat Jun 22 15:31:17 2002
22.926828 Sat Jun 22 16:01:31 2002
22.682926 Sat Jun 22 16:31:37 2002
23.170732 Sat Jun 22 17:01:05 2002
22.682926 Sat Jun 22 17:31:11 2002
22.926828 Sat Jun 22 18:01:05 2002
22.195122 Sat Jun 22 18:31:13 2002
21.951220 Sat Jun 22 19:01:07 2002
21.951220 Sat Jun 22 19:31:10 2002
21.951220 Sat Jun 22 20:01:08 2002
21.951220 Sat Jun 22 20:31:11 2002
21.951220 Sat Jun 22 21:01:03 2002
21.463415 Sat Jun 22 21:31:11 2002
20.975609 Sat Jun 22 22:01:09 2002
21.707317 Sat Jun 22 22:31:16 2002
22.195122 Sat Jun 22 23:01:09 2002
21.707317 Sat Jun 22 23:31:17 2002
21.463415 Sun Jun 23 00:01:03 2002
21.219513 Sun Jun 23 00:31:07 2002
20.975609 Sun Jun 23 01:01:03 2002
20.731707 Sun Jun 23 01:31:23 2002
20.731707 Sun Jun 23 02:01:14 2002
20.487804 Sun Jun 23 02:31:17 2002
20.487804 Sun Jun 23 03:01:13 2002
20.243902 Sun Jun 23 03:31:17 2002
20.000000 Sun Jun 23 04:01:07 2002
20.243902 Sun Jun 23 04:31:10 2002
20.000000 Sun Jun 23 05:01:05 2002
20.243902 Sun Jun 23 05:31:07 2002
20.000000 Sun Jun 23 06:01:03 2002
20.243902 Sun Jun 23 06:31:07 2002
20.000000 Sun Jun 23 07:01:03 2002
20.243902 Sun Jun 23 07:31:10 2002
20.487804 Sun Jun 23 08:01:04 2002
20.487804 Sun Jun 23 08:31:16 2002
46.341465 Sun Jun 23 09:01:01 2002
21.219513 Sun Jun 23 09:31:07 2002
21.463415 Sun Jun 23 10:01:07 2002
21.219513 Sun Jun 23 10:31:13 2002
20.975609 Sun Jun 23 11:01:06 2002
21.463415 Sun Jun 23 11:31:09 2002
21.707317 Sun Jun 23 12:01:07 2002
21.463415 Sun Jun 23 12:31:10 2002
21.707317 Sun Jun 23 13:01:29 2002
21.951220 Sun Jun 23 13:31:35 2002
21.463415 Sun Jun 23 14:01:03 2002
21.707317 Sun Jun 23 14:31:06 2002
21.951220 Sun Jun 23 15:01:13 2002
21.951220 Sun Jun 23 15:31:22 2002
22.439024 Sun Jun 23 16:01:06 2002
22.682926 Sun Jun 23 16:31:13 2002
21.951220 Sun Jun 23 17:01:04 2002
22.682926 Sun Jun 23 17:31:12 2002
22.682926 Sun Jun 23 18:01:02 2002
21.951220 Sun Jun 23 18:31:05 2002
23.170732 Sun Jun 23 19:01:04 2002
21.463415 Sun Jun 23 19:31:09 2002
21.707317 Sun Jun 23 20:01:09 2002
21.707317 Sun Jun 23 20:31:13 2002
22.195122 Sun Jun 23 21:01:06 2002
22.195122 Sun Jun 23 21:31:09 2002
22.195122 Sun Jun 23 22:01:03 2002
22.195122 Sun Jun 23 22:31:07 2002
22.439024 Sun Jun 23 23:01:04 2002
22.439024 Sun Jun 23 23:31:12 2002
22.682926 Mon Jun 24 00:01:16 2002
22.439024 Mon Jun 24 00:31:31 2002
22.439024 Mon Jun 24 01:01:03 2002
21.463415 Mon Jun 24 01:31:12 2002
21.219513 Mon Jun 24 02:01:13 2002
20.975609 Mon Jun 24 02:31:19 2002
20.975609 Mon Jun 24 03:01:08 2002
20.487804 Mon Jun 24 03:31:13 2002
20.731707 Mon Jun 24 04:01:03 2002
20.731707 Mon Jun 24 04:31:06 2002
20.243902 Mon Jun 24 05:01:09 2002
20.243902 Mon Jun 24 05:31:12 2002
19.756098 Mon Jun 24 06:01:05 2002
19.756098 Mon Jun 24 06:31:25 2002
20.000000 Mon Jun 24 07:01:07 2002
20.000000 Mon Jun 24 07:31:10 2002
19.756098 Mon Jun 24 08:01:22 2002
20.000000 Mon Jun 24 08:31:27 2002
20.731707 Mon Jun 24 09:01:09 2002
20.000000 Mon Jun 24 09:31:19 2002
20.487804 Mon Jun 24 10:01:07 2002
20.975609 Mon Jun 24 10:31:10 2002
21.219513 Mon Jun 24 11:01:03 2002
21.463415 Mon Jun 24 11:31:08 2002
21.951220 Mon Jun 24 12:01:21 2002
22.195122 Mon Jun 24 12:31:30 2002
22.195122 Mon Jun 24 13:01:03 2002
22.195122 Mon Jun 24 13:31:07 2002
22.439024 Mon Jun 24 14:01:08 2002
22.682926 Mon Jun 24 14:31:13 2002
22.682926 Mon Jun 24 15:01:04 2002
23.170732 Mon Jun 24 15:31:07 2002
22.926828 Mon Jun 24 16:01:11 2002
23.170732 Mon Jun 24 16:31:20 2002
23.414635 Mon Jun 24 17:01:05 2002
23.414635 Mon Jun 24 17:31:20 2002
23.658537 Mon Jun 24 18:01:04 2002
23.902439 Mon Jun 24 18:31:07 2002
23.902439 Mon Jun 24 19:01:07 2002
24.146341 Mon Jun 24 19:31:10 2002
23.902439 Mon Jun 24 20:01:03 2002
24.146341 Mon Jun 24 20:31:10 2002
23.902439 Mon Jun 24 21:01:03 2002
25.121952 Mon Jun 24 21:31:09 2002
23.414635 Mon Jun 24 22:01:18 2002
22.926828 Mon Jun 24 22:31:24 2002
23.902439 Mon Jun 24 23:01:14 2002
24.146341 Mon Jun 24 23:31:25 2002
24.390244 Tue Jun 25 00:01:03 2002
24.390244 Tue Jun 25 00:31:10 2002
24.390244 Tue Jun 25 01:01:06 2002
23.658537 Tue Jun 25 01:31:11 2002
22.926828 Tue Jun 25 02:01:10 2002
23.170732 Tue Jun 25 02:31:13 2002
22.439024 Tue Jun 25 03:01:09 2002
22.195122 Tue Jun 25 03:31:11 2002
21.951220 Tue Jun 25 04:01:04 2002
21.951220 Tue Jun 25 04:31:10 2002
21.707317 Tue Jun 25 05:01:04 2002
21.463415 Tue Jun 25 05:31:08 2002
21.219513 Tue Jun 25 06:01:08 2002
20.975609 Tue Jun 25 06:31:14 2002
20.975609 Tue Jun 25 07:01:18 2002
20.731707 Tue Jun 25 07:31:21 2002
20.487804 Tue Jun 25 08:01:02 2002
20.975609 Tue Jun 25 08:31:05 2002
21.219513 Tue Jun 25 09:01:08 2002
20.975609 Tue Jun 25 09:31:10 2002
21.707317 Tue Jun 25 10:01:13 2002
21.951220 Tue Jun 25 10:31:16 2002
22.195122 Tue Jun 25 11:01:06 2002
21.951220 Tue Jun 25 11:31:13 2002
22.195122 Tue Jun 25 12:01:07 2002
21.951220 Tue Jun 25 12:31:10 2002
22.195122 Tue Jun 25 13:01:04 2002
21.951220 Tue Jun 25 13:31:17 2002
22.439024 Tue Jun 25 14:01:06 2002
22.195122 Tue Jun 25 14:31:11 2002
22.439024 Tue Jun 25 15:01:08 2002
22.682926 Tue Jun 25 15:31:16 2002
22.439024 Tue Jun 25 16:01:05 2002
22.195122 Tue Jun 25 16:31:12 2002
22.439024 Tue Jun 25 17:01:09 2002
22.439024 Tue Jun 25 17:31:15 2002
22.682926 Tue Jun 25 18:01:13 2002
22.682926 Tue Jun 25 18:31:26 2002
22.926828 Tue Jun 25 19:01:07 2002
23.170732 Tue Jun 25 19:31:14 2002
22.682926 Tue Jun 25 20:01:04 2002
22.682926 Tue Jun 25 20:31:21 2002
22.926828 Tue Jun 25 21:01:08 2002
22.682926 Tue Jun 25 21:31:17 2002
22.682926 Tue Jun 25 22:01:10 2002
22.439024 Tue Jun 25 22:31:17 2002
22.439024 Tue Jun 25 23:01:03 2002
21.951220 Tue Jun 25 23:31:15 2002
22.195122 Wed Jun 26 00:01:06 2002
21.707317 Wed Jun 26 00:31:10 2002
21.707317 Wed Jun 26 01:01:10 2002
23.170732 Wed Jun 26 01:31:16 2002
21.707317 Wed Jun 26 02:01:22 2002
20.975609 Wed Jun 26 02:31:29 2002
21.219513 Wed Jun 26 03:01:11 2002
21.219513 Wed Jun 26 03:31:17 2002
21.219513 Wed Jun 26 04:01:06 2002
20.975609 Wed Jun 26 04:31:09 2002
20.731707 Wed Jun 26 05:01:04 2002
20.975609 Wed Jun 26 05:31:11 2002
20.487804 Wed Jun 26 06:01:05 2002
20.487804 Wed Jun 26 06:31:10 2002
20.487804 Wed Jun 26 07:01:06 2002
21.951220 Wed Jun 26 07:31:15 2002
21.951220 Wed Jun 26 08:01:03 2002
20.975609 Wed Jun 26 08:31:09 2002
21.219513 Wed Jun 26 09:01:17 2002
21.219513 Wed Jun 26 09:31:30 2002
21.463415 Wed Jun 26 10:01:13 2002
21.707317 Wed Jun 26 10:31:16 2002
21.707317 Wed Jun 26 11:01:03 2002
21.951220 Wed Jun 26 11:31:06 2002
21.951220 Wed Jun 26 12:01:04 2002
21.951220 Wed Jun 26 12:31:08 2002
22.439024 Wed Jun 26 13:01:06 2002
21.951220 Wed Jun 26 13:31:11 2002
22.195122 Wed Jun 26 14:01:08 2002
22.439024 Wed Jun 26 14:31:13 2002
22.926828 Wed Jun 26 15:01:07 2002
22.926828 Wed Jun 26 15:31:36 2002
23.414635 Wed Jun 26 16:01:03 2002
23.658537 Wed Jun 26 16:31:09 2002
23.414635 Wed Jun 26 17:01:08 2002
23.658537 Wed Jun 26 17:31:16 2002
23.658537 Wed Jun 26 18:01:06 2002
23.902439 Wed Jun 26 18:31:10 2002
23.658537 Wed Jun 26 19:01:06 2002
23.902439 Wed Jun 26 19:31:13 2002
23.658537 Wed Jun 26 20:01:05 2002
23.902439 Wed Jun 26 20:31:12 2002
23.414635 Wed Jun 26 21:01:08 2002
23.414635 Wed Jun 26 21:31:51 2002
23.414635 Wed Jun 26 22:01:03 2002
23.414635 Wed Jun 26 22:31:05 2002
22.926828 Wed Jun 26 23:01:03 2002
22.926828 Wed Jun 26 23:31:09 2002
23.170732 Thu Jun 27 00:01:03 2002
22.926828 Thu Jun 27 00:31:10 2002
23.170732 Thu Jun 27 01:01:03 2002
22.439024 Thu Jun 27 01:31:07 2002
22.682926 Thu Jun 27 02:01:09 2002
22.439024 Thu Jun 27 02:31:16 2002
22.439024 Thu Jun 27 03:01:03 2002
21.951220 Thu Jun 27 03:31:09 2002
22.439024 Thu Jun 27 04:01:04 2002
22.195122 Thu Jun 27 04:31:07 2002
21.951220 Thu Jun 27 05:01:06 2002
21.951220 Thu Jun 27 05:31:13 2002
21.951220 Thu Jun 27 06:01:02 2002
21.463415 Thu Jun 27 06:31:10 2002
21.707317 Thu Jun 27 07:01:11 2002
21.463415 Thu Jun 27 07:31:15 2002
21.951220 Thu Jun 27 08:01:05 2002
22.439024 Thu Jun 27 08:31:09 2002
21.951220 Thu Jun 27 09:01:09 2002
22.682926 Thu Jun 27 09:31:14 2002
22.682926 Thu Jun 27 10:01:04 2002
22.682926 Thu Jun 27 10:31:30 2002
23.170732 Thu Jun 27 11:01:03 2002
22.926828 Thu Jun 27 11:31:09 2002
22.926828 Thu Jun 27 12:01:09 2002
23.170732 Thu Jun 27 12:31:19 2002
23.170732 Thu Jun 27 13:01:06 2002
23.414635 Thu Jun 27 13:31:10 2002
22.926828 Thu Jun 27 14:01:12 2002
23.658537 Thu Jun 27 14:31:21 2002
23.658537 Thu Jun 27 15:01:05 2002
23.414635 Thu Jun 27 15:31:12 2002
23.902439 Thu Jun 27 16:01:03 2002
23.414635 Thu Jun 27 16:31:06 2002
23.658537 Thu Jun 27 17:01:05 2002
23.658537 Thu Jun 27 17:31:10 2002
23.414635 Thu Jun 27 18:01:10 2002
23.658537 Thu Jun 27 18:31:17 2002
23.414635 Thu Jun 27 19:01:03 2002
23.414635 Thu Jun 27 19:31:07 2002
23.658537 Thu Jun 27 20:01:04 2002
23.414635 Thu Jun 27 20:31:07 2002
22.926828 Thu Jun 27 21:01:02 2002
23.414635 Thu Jun 27 21:31:09 2002
22.926828 Thu Jun 27 22:01:08 2002
22.926828 Thu Jun 27 22:31:20 2002
22.926828 Thu Jun 27 23:01:09 2002
22.926828 Thu Jun 27 23:31:14 2002
22.926828 Fri Jun 28 00:01:08 2002
22.926828 Fri Jun 28 00:31:18 2002
23.170732 Fri Jun 28 01:01:03 2002
22.926828 Fri Jun 28 01:31:18 2002
21.951220 Fri Jun 28 02:01:05 2002
21.463415 Fri Jun 28 02:31:11 2002
21.463415 Fri Jun 28 03:01:04 2002
20.975609 Fri Jun 28 03:31:09 2002
20.731707 Fri Jun 28 04:01:05 2002
20.487804 Fri Jun 28 04:31:08 2002
20.243902 Fri Jun 28 05:01:06 2002
20.243902 Fri Jun 28 05:31:20 2002
20.243902 Fri Jun 28 06:01:03 2002
20.000000 Fri Jun 28 06:31:06 2002
20.000000 Fri Jun 28 07:01:03 2002
20.243902 Fri Jun 28 07:31:06 2002
20.000000 Fri Jun 28 08:01:05 2002
20.487804 Fri Jun 28 08:31:12 2002
20.731707 Fri Jun 28 09:01:03 2002
20.731707 Fri Jun 28 09:31:10 2002
21.219513 Fri Jun 28 10:01:12 2002
21.951220 Fri Jun 28 10:31:20 2002
21.707317 Fri Jun 28 11:01:12 2002
21.219513 Fri Jun 28 11:31:17 2002
20.975609 Fri Jun 28 12:01:03 2002
21.463415 Fri Jun 28 12:31:09 2002
21.219513 Fri Jun 28 13:01:09 2002
21.219513 Fri Jun 28 13:31:14 2002
21.219513 Fri Jun 28 14:01:03 2002
21.463415 Fri Jun 28 14:31:11 2002
20.731707 Fri Jun 28 15:01:07 2002
20.487804 Fri Jun 28 15:31:15 2002
20.731707 Fri Jun 28 16:01:28 2002
20.731707 Fri Jun 28 16:31:31 2002
20.731707 Fri Jun 28 17:01:08 2002
20.487804 Fri Jun 28 17:31:11 2002
20.487804 Fri Jun 28 18:01:08 2002
20.731707 Fri Jun 28 18:31:11 2002
20.487804 Fri Jun 28 19:01:03 2002
20.487804 Fri Jun 28 19:31:07 2002
20.487804 Fri Jun 28 20:01:07 2002
20.487804 Fri Jun 28 20:31:24 2002
20.000000 Fri Jun 28 21:01:04 2002
20.731707 Fri Jun 28 21:31:19 2002
20.487804 Fri Jun 28 22:01:06 2002
20.487804 Fri Jun 28 22:31:16 2002
20.487804 Fri Jun 28 23:01:06 2002
20.000000 Fri Jun 28 23:31:09 2002
20.487804 Sat Jun 29 00:01:03 2002
20.975609 Sat Jun 29 00:31:13 2002
20.975609 Sat Jun 29 01:01:06 2002
20.487804 Sat Jun 29 01:31:10 2002
20.487804 Sat Jun 29 02:01:07 2002
20.243902 Sat Jun 29 02:31:12 2002
20.243902 Sat Jun 29 03:01:09 2002
20.000000 Sat Jun 29 03:31:15 2002
19.756098 Sat Jun 29 04:01:09 2002
19.268293 Sat Jun 29 04:31:30 2002
19.024391 Sat Jun 29 05:01:06 2002
19.024391 Sat Jun 29 05:31:26 2002
19.024391 Sat Jun 29 06:01:15 2002
18.536585 Sat Jun 29 06:31:20 2002
18.536585 Sat Jun 29 07:01:09 2002
18.536585 Sat Jun 29 07:31:19 2002
18.780487 Sat Jun 29 08:01:20 2002
19.268293 Sat Jun 29 08:31:23 2002
19.024391 Sat Jun 29 09:01:16 2002
19.024391 Sat Jun 29 09:31:23 2002
19.268293 Sat Jun 29 10:01:03 2002
19.024391 Sat Jun 29 10:31:20 2002
19.024391 Sat Jun 29 11:01:15 2002
19.268293 Sat Jun 29 11:31:20 2002
19.512196 Sat Jun 29 12:01:06 2002
20.000000 Sat Jun 29 12:31:10 2002
19.756098 Sat Jun 29 13:01:12 2002
20.487804 Sat Jun 29 13:31:21 2002
20.000000 Sat Jun 29 14:01:14 2002
20.000000 Sat Jun 29 14:31:17 2002
20.487804 Sat Jun 29 15:01:05 2002
20.975609 Sat Jun 29 15:31:12 2002
20.975609 Sat Jun 29 16:01:07 2002
20.731707 Sat Jun 29 16:31:23 2002
20.487804 Sat Jun 29 17:01:06 2002
20.731707 Sat Jun 29 17:31:11 2002
20.731707 Sat Jun 29 18:01:03 2002
20.487804 Sat Jun 29 18:31:11 2002
20.487804 Sat Jun 29 19:01:09 2002
20.975609 Sat Jun 29 19:31:17 2002
20.731707 Sat Jun 29 20:01:15 2002
20.731707 Sat Jun 29 20:31:37 2002
20.975609 Sat Jun 29 21:01:04 2002
20.487804 Sat Jun 29 21:31:11 2002
20.487804 Sat Jun 29 22:01:03 2002
20.975609 Sat Jun 29 22:31:09 2002
20.731707 Sat Jun 29 23:01:04 2002
20.975609 Sat Jun 29 23:31:23 2002
20.975609 Sun Jun 30 00:01:08 2002
20.975609 Sun Jun 30 00:31:28 2002
21.219513 Sun Jun 30 01:01:06 2002
21.219513 Sun Jun 30 01:31:15 2002
20.975609 Sun Jun 30 02:01:05 2002
20.731707 Sun Jun 30 02:31:11 2002
20.000000 Sun Jun 30 03:01:07 2002
20.000000 Sun Jun 30 03:31:16 2002
19.756098 Sun Jun 30 04:01:02 2002
19.024391 Sun Jun 30 04:31:10 2002
19.024391 Sun Jun 30 05:01:05 2002
18.780487 Sun Jun 30 05:31:09 2002
19.024391 Sun Jun 30 06:01:18 2002
18.536585 Sun Jun 30 06:31:23 2002
18.536585 Sun Jun 30 07:01:06 2002
18.780487 Sun Jun 30 07:31:09 2002
18.536585 Sun Jun 30 08:01:13 2002
18.780487 Sun Jun 30 08:31:22 2002
19.024391 Sun Jun 30 09:01:10 2002
19.024391 Sun Jun 30 09:31:13 2002
19.512196 Sun Jun 30 10:01:05 2002
19.512196 Sun Jun 30 10:31:11 2002
19.512196 Sun Jun 30 11:01:03 2002
19.024391 Sun Jun 30 11:31:29 2002
20.243902 Sun Jun 30 12:01:04 2002
20.243902 Sun Jun 30 12:31:07 2002
20.000000 Sun Jun 30 13:01:05 2002
20.000000 Sun Jun 30 13:31:07 2002
20.243902 Sun Jun 30 14:01:04 2002
20.243902 Sun Jun 30 14:31:11 2002
20.243902 Sun Jun 30 15:01:03 2002
20.487804 Sun Jun 30 15:31:12 2002
20.000000 Sun Jun 30 16:01:03 2002
19.756098 Sun Jun 30 16:31:09 2002
19.024391 Sun Jun 30 17:01:05 2002
18.536585 Sun Jun 30 17:31:11 2002
19.268293 Sun Jun 30 18:01:08 2002
19.024391 Sun Jun 30 18:31:17 2002
19.024391 Sun Jun 30 19:01:03 2002
19.512196 Sun Jun 30 19:31:06 2002
19.756098 Sun Jun 30 20:01:05 2002
20.243902 Sun Jun 30 20:31:23 2002
19.756098 Sun Jun 30 21:01:04 2002
19.756098 Sun Jun 30 21:31:08 2002
20.243902 Sun Jun 30 22:01:03 2002
20.487804 Sun Jun 30 22:31:15 2002
20.243902 Sun Jun 30 23:01:06 2002
20.000000 Sun Jun 30 23:31:09 2002
20.000000 Mon Jul  1 00:01:04 2002
20.731707 Mon Jul  1 00:31:12 2002
20.975609 Mon Jul  1 01:01:03 2002
20.975609 Mon Jul  1 01:31:12 2002
20.975609 Mon Jul  1 02:01:04 2002
20.243902 Mon Jul  1 02:31:12 2002
19.756098 Mon Jul  1 03:01:11 2002
19.024391 Mon Jul  1 03:31:17 2002
19.024391 Mon Jul  1 04:01:05 2002
18.780487 Mon Jul  1 04:31:13 2002
18.780487 Mon Jul  1 05:01:16 2002
18.536585 Mon Jul  1 05:31:20 2002
18.780487 Mon Jul  1 06:01:03 2002
18.536585 Mon Jul  1 06:31:10 2002
18.292683 Mon Jul  1 07:01:07 2002
18.536585 Mon Jul  1 07:31:15 2002
18.292683 Mon Jul  1 08:01:07 2002
18.536585 Mon Jul  1 08:31:12 2002
18.048780 Mon Jul  1 09:01:06 2002
18.292683 Mon Jul  1 09:31:10 2002
18.292683 Mon Jul  1 10:01:04 2002
18.780487 Mon Jul  1 10:31:14 2002
18.536585 Mon Jul  1 11:01:13 2002
18.536585 Mon Jul  1 11:31:22 2002
19.268293 Mon Jul  1 12:01:04 2002
19.024391 Mon Jul  1 12:31:16 2002
19.512196 Mon Jul  1 13:01:05 2002
19.024391 Mon Jul  1 13:31:10 2002
18.780487 Mon Jul  1 14:01:11 2002
19.268293 Mon Jul  1 14:31:14 2002
18.292683 Mon Jul  1 15:01:19 2002
18.048780 Mon Jul  1 15:31:28 2002
18.536585 Mon Jul  1 16:01:07 2002
18.048780 Mon Jul  1 16:31:19 2002
19.024391 Mon Jul  1 17:01:07 2002
19.024391 Mon Jul  1 17:31:13 2002
19.268293 Mon Jul  1 18:01:07 2002
19.024391 Mon Jul  1 18:31:10 2002
19.756098 Mon Jul  1 19:01:20 2002
19.024391 Mon Jul  1 19:31:26 2002
19.268293 Mon Jul  1 20:01:10 2002
19.756098 Mon Jul  1 20:31:16 2002
19.268293 Mon Jul  1 21:01:06 2002
19.268293 Mon Jul  1 21:31:12 2002
18.536585 Mon Jul  1 22:01:04 2002
18.536585 Mon Jul  1 22:31:10 2002
18.292683 Mon Jul  1 23:01:04 2002
18.536585 Mon Jul  1 23:31:11 2002
19.024391 Tue Jul  2 00:01:08 2002
19.024391 Tue Jul  2 00:31:26 2002
19.512196 Tue Jul  2 01:01:09 2002
19.512196 Tue Jul  2 01:31:14 2002
19.512196 Tue Jul  2 02:01:03 2002
18.780487 Tue Jul  2 02:31:10 2002
18.048780 Tue Jul  2 03:01:06 2002
18.048780 Tue Jul  2 03:31:13 2002
17.804878 Tue Jul  2 04:01:08 2002
18.048780 Tue Jul  2 04:31:18 2002
17.317074 Tue Jul  2 05:01:17 2002
17.317074 Tue Jul  2 05:31:21 2002
17.317074 Tue Jul  2 06:01:11 2002
17.073172 Tue Jul  2 06:31:17 2002
16.829268 Tue Jul  2 07:01:05 2002
17.073172 Tue Jul  2 07:31:24 2002
16.585365 Tue Jul  2 08:01:11 2002
17.073172 Tue Jul  2 08:31:24 2002
17.073172 Tue Jul  2 09:01:02 2002
17.560976 Tue Jul  2 09:31:08 2002
17.560976 Tue Jul  2 10:01:07 2002
18.048780 Tue Jul  2 10:31:20 2002
18.048780 Tue Jul  2 11:01:07 2002
18.048780 Tue Jul  2 11:31:22 2002
18.048780 Tue Jul  2 12:01:04 2002
19.024391 Tue Jul  2 12:31:17 2002
18.780487 Tue Jul  2 13:01:08 2002
19.024391 Tue Jul  2 13:31:16 2002
18.536585 Tue Jul  2 14:01:03 2002
19.024391 Tue Jul  2 14:31:06 2002
18.536585 Tue Jul  2 15:01:07 2002
18.780487 Tue Jul  2 15:31:12 2002
19.024391 Tue Jul  2 16:01:06 2002
19.512196 Tue Jul  2 16:31:12 2002
20.243902 Tue Jul  2 17:01:04 2002
20.000000 Tue Jul  2 17:31:26 2002
20.000000 Tue Jul  2 18:01:03 2002
19.756098 Tue Jul  2 18:31:10 2002
20.000000 Tue Jul  2 19:01:06 2002
20.000000 Tue Jul  2 19:31:09 2002
20.000000 Tue Jul  2 20:01:13 2002
20.243902 Tue Jul  2 20:31:16 2002
20.487804 Tue Jul  2 21:01:07 2002
20.243902 Tue Jul  2 21:31:20 2002
20.487804 Tue Jul  2 22:01:20 2002
20.731707 Tue Jul  2 22:31:25 2002
20.731707 Tue Jul  2 23:01:03 2002
20.243902 Tue Jul  2 23:31:08 2002
20.243902 Wed Jul  3 00:01:04 2002
20.000000 Wed Jul  3 00:31:07 2002
20.000000 Wed Jul  3 01:01:03 2002
19.512196 Wed Jul  3 01:31:16 2002
19.024391 Wed Jul  3 02:01:12 2002
19.024391 Wed Jul  3 02:31:15 2002
19.024391 Wed Jul  3 03:01:18 2002
18.780487 Wed Jul  3 03:31:25 2002
18.536585 Wed Jul  3 04:01:04 2002
18.536585 Wed Jul  3 04:31:27 2002
18.536585 Wed Jul  3 05:01:05 2002
18.048780 Wed Jul  3 05:31:22 2002
18.292683 Wed Jul  3 06:01:09 2002
17.804878 Wed Jul  3 06:31:25 2002
17.804878 Wed Jul  3 07:01:07 2002
17.317074 Wed Jul  3 07:31:09 2002
17.073172 Wed Jul  3 08:01:09 2002
17.560976 Wed Jul  3 08:31:15 2002
17.560976 Wed Jul  3 09:01:06 2002
17.560976 Wed Jul  3 09:31:09 2002
18.292683 Wed Jul  3 10:01:13 2002
18.048780 Wed Jul  3 10:31:18 2002
18.048780 Wed Jul  3 11:01:03 2002
18.292683 Wed Jul  3 11:31:06 2002
18.048780 Wed Jul  3 12:01:03 2002
18.292683 Wed Jul  3 12:31:23 2002
18.292683 Wed Jul  3 13:01:06 2002
18.292683 Wed Jul  3 13:31:11 2002
18.048780 Wed Jul  3 14:01:03 2002
18.536585 Wed Jul  3 14:31:10 2002
18.780487 Wed Jul  3 15:01:18 2002
18.780487 Wed Jul  3 15:31:23 2002
18.536585 Wed Jul  3 16:01:07 2002
19.268293 Wed Jul  3 16:31:11 2002
18.536585 Wed Jul  3 17:01:06 2002
19.268293 Wed Jul  3 17:31:12 2002
19.024391 Wed Jul  3 19:01:12 2002
19.512196 Wed Jul  3 19:31:18 2002
19.512196 Wed Jul  3 20:01:12 2002
19.024391 Wed Jul  3 20:31:21 2002
19.756098 Wed Jul  3 21:01:09 2002
20.000000 Wed Jul  3 21:31:19 2002
19.756098 Wed Jul  3 22:01:03 2002
19.024391 Wed Jul  3 22:31:08 2002
18.780487 Wed Jul  3 23:01:23 2002
18.048780 Wed Jul  3 23:31:32 2002
18.292683 Thu Jul  4 00:01:03 2002
18.048780 Thu Jul  4 00:31:07 2002
18.292683 Thu Jul  4 01:01:03 2002
18.292683 Thu Jul  4 01:31:15 2002
17.560976 Thu Jul  4 02:01:10 2002
17.560976 Thu Jul  4 02:31:13 2002
17.560976 Thu Jul  4 03:01:03 2002
17.560976 Thu Jul  4 03:31:15 2002
17.073172 Thu Jul  4 04:01:06 2002
17.317074 Thu Jul  4 04:31:16 2002
17.317074 Thu Jul  4 05:01:07 2002
17.073172 Thu Jul  4 05:31:12 2002
17.317074 Thu Jul  4 06:01:04 2002
17.317074 Thu Jul  4 06:31:09 2002
17.073172 Thu Jul  4 07:01:07 2002
16.829268 Thu Jul  4 07:31:10 2002
17.804878 Thu Jul  4 08:01:05 2002
17.317074 Thu Jul  4 08:31:28 2002
17.073172 Thu Jul  4 09:01:08 2002
17.317074 Thu Jul  4 09:31:18 2002
17.560976 Thu Jul  4 10:01:09 2002
17.073172 Thu Jul  4 10:31:19 2002
18.048780 Thu Jul  4 11:01:07 2002
18.292683 Thu Jul  4 11:31:12 2002
18.048780 Thu Jul  4 12:01:10 2002
18.048780 Thu Jul  4 12:31:16 2002
18.048780 Thu Jul  4 13:01:08 2002
18.292683 Thu Jul  4 13:31:26 2002
18.048780 Thu Jul  4 14:01:09 2002
19.024391 Thu Jul  4 14:31:15 2002
19.268293 Thu Jul  4 15:01:11 2002
19.512196 Thu Jul  4 15:31:18 2002
20.243902 Thu Jul  4 16:01:08 2002
20.243902 Thu Jul  4 16:31:12 2002
20.243902 Thu Jul  4 17:11:04 2002
20.243902 Thu Jul  4 17:41:09 2002
20.731707 Thu Jul  4 18:21:04 2002
20.731707 Thu Jul  4 18:51:07 2002
20.975609 Thu Jul  4 19:21:33 2002
20.487804 Thu Jul  4 19:51:36 2002
20.000000 Thu Jul  4 20:21:06 2002
20.000000 Thu Jul  4 20:51:10 2002
20.000000 Thu Jul  4 21:21:08 2002
20.975609 Thu Jul  4 21:51:14 2002
20.975609 Thu Jul  4 22:21:03 2002
20.487804 Thu Jul  4 22:51:10 2002
20.731707 Thu Jul  4 23:21:07 2002
20.731707 Thu Jul  4 23:51:14 2002
20.731707 Fri Jul  5 00:21:09 2002
20.975609 Fri Jul  5 00:51:13 2002
20.731707 Fri Jul  5 01:21:03 2002
19.756098 Fri Jul  5 01:51:07 2002
19.512196 Fri Jul  5 02:21:03 2002
19.024391 Fri Jul  5 02:51:06 2002
19.268293 Fri Jul  5 03:21:13 2002
19.024391 Fri Jul  5 03:51:18 2002
19.268293 Fri Jul  5 04:21:05 2002
19.024391 Fri Jul  5 04:51:09 2002
18.780487 Fri Jul  5 05:21:06 2002
18.536585 Fri Jul  5 05:51:13 2002
18.536585 Fri Jul  5 06:21:05 2002
18.780487 Fri Jul  5 06:51:17 2002
18.536585 Fri Jul  5 07:21:18 2002
18.536585 Fri Jul  5 07:51:22 2002
18.536585 Fri Jul  5 08:21:08 2002
18.780487 Fri Jul  5 08:51:11 2002
19.024391 Fri Jul  5 09:21:08 2002
19.024391 Fri Jul  5 09:51:11 2002
19.512196 Fri Jul  5 10:21:09 2002
20.243902 Fri Jul  5 10:51:16 2002
19.756098 Fri Jul  5 11:21:27 2002
20.487804 Fri Jul  5 11:51:31 2002
20.487804 Fri Jul  5 12:21:12 2002
20.000000 Fri Jul  5 12:51:15 2002
20.243902 Fri Jul  5 13:21:03 2002
20.487804 Fri Jul  5 13:51:42 2002
20.487804 Fri Jul  5 14:21:10 2002
20.731707 Fri Jul  5 14:51:16 2002
20.731707 Fri Jul  5 15:21:03 2002
20.731707 Fri Jul  5 15:51:06 2002
21.219513 Fri Jul  5 16:21:08 2002
20.975609 Fri Jul  5 16:51:11 2002
21.219513 Fri Jul  5 17:21:06 2002
20.975609 Fri Jul  5 17:51:09 2002
21.463415 Fri Jul  5 18:21:05 2002
21.219513 Fri Jul  5 18:51:08 2002
21.219513 Fri Jul  5 19:21:12 2002
20.975609 Fri Jul  5 19:51:26 2002
21.219513 Fri Jul  5 20:21:11 2002
21.219513 Fri Jul  5 20:51:17 2002
20.975609 Fri Jul  5 21:21:06 2002
21.707317 Fri Jul  5 21:51:15 2002
21.707317 Fri Jul  5 22:21:03 2002
21.707317 Fri Jul  5 22:51:06 2002
