
20.250000 Sun Feb 27 16:30:10 2005
20.250000 Sun Feb 27 16:45:14 2005
20.250000 Sun Feb 27 17:00:16 2005
20.750000 Sun Feb 27 17:15:24 2005
20.750000 Sun Feb 27 17:30:04 2005
20.750000 Sun Feb 27 17:45:06 2005
20.750000 Sun Feb 27 18:00:10 2005
20.750000 Sun Feb 27 18:15:15 2005
20.750000 Sun Feb 27 18:30:04 2005
20.750000 Sun Feb 27 18:45:16 2005
21.000000 Sun Feb 27 19:00:20 2005
21.000000 Sun Feb 27 19:15:27 2005
21.000000 Sun Feb 27 19:30:07 2005
21.000000 Sun Feb 27 19:45:16 2005
21.000000 Sun Feb 27 20:00:17 2005
21.000000 Sun Feb 27 20:15:19 2005
21.250000 Sun Feb 27 20:30:04 2005
21.250000 Sun Feb 27 20:45:06 2005
21.250000 Sun Feb 27 21:00:12 2005
21.250000 Sun Feb 27 21:15:16 2005
21.500000 Sun Feb 27 21:30:08 2005
21.500000 Sun Feb 27 21:45:13 2005
21.500000 Sun Feb 27 22:00:14 2005
21.250000 Sun Feb 27 22:15:17 2005
21.500000 Sun Feb 27 22:30:14 2005
21.500000 Sun Feb 27 22:45:16 2005
21.500000 Sun Feb 27 23:00:17 2005
21.500000 Sun Feb 27 23:15:22 2005
21.500000 Sun Feb 27 23:30:04 2005
21.500000 Sun Feb 27 23:45:06 2005
21.250000 Mon Feb 28 00:00:17 2005
21.000000 Mon Feb 28 00:15:33 2005
21.000000 Mon Feb 28 00:30:08 2005
21.000000 Mon Feb 28 00:45:21 2005
20.750000 Mon Feb 28 01:00:24 2005
20.750000 Mon Feb 28 01:15:26 2005
20.750000 Mon Feb 28 01:30:13 2005
20.750000 Mon Feb 28 01:45:14 2005
20.750000 Mon Feb 28 02:00:19 2005
20.750000 Mon Feb 28 02:15:23 2005
20.750000 Mon Feb 28 02:30:10 2005
20.750000 Mon Feb 28 02:45:11 2005
20.500000 Mon Feb 28 03:00:16 2005
20.750000 Mon Feb 28 03:15:19 2005
20.750000 Mon Feb 28 03:30:08 2005
20.750000 Mon Feb 28 03:45:10 2005
20.750000 Mon Feb 28 04:00:11 2005
20.500000 Mon Feb 28 04:15:14 2005
20.500000 Mon Feb 28 04:30:04 2005
20.500000 Mon Feb 28 04:45:05 2005
20.500000 Mon Feb 28 05:00:07 2005
20.500000 Mon Feb 28 05:15:08 2005
20.500000 Mon Feb 28 05:30:07 2005
20.500000 Mon Feb 28 05:45:08 2005
20.500000 Mon Feb 28 06:00:10 2005
20.500000 Mon Feb 28 06:15:11 2005
20.750000 Mon Feb 28 06:30:08 2005
20.750000 Mon Feb 28 06:45:12 2005
20.750000 Mon Feb 28 07:00:14 2005
21.000000 Mon Feb 28 07:15:22 2005
21.000000 Mon Feb 28 07:30:06 2005
21.000000 Mon Feb 28 07:45:07 2005
21.000000 Mon Feb 28 08:00:09 2005
21.000000 Mon Feb 28 08:15:10 2005
21.250000 Mon Feb 28 08:30:05 2005
21.250000 Mon Feb 28 08:45:07 2005
21.250000 Mon Feb 28 09:00:11 2005
21.250000 Mon Feb 28 09:15:13 2005
21.250000 Mon Feb 28 09:30:11 2005
21.250000 Mon Feb 28 09:45:13 2005
21.000000 Mon Feb 28 10:00:24 2005
21.000000 Mon Feb 28 10:15:30 2005
21.250000 Mon Feb 28 10:30:11 2005
21.250000 Mon Feb 28 10:45:13 2005
21.250000 Mon Feb 28 11:00:34 2005
21.250000 Mon Feb 28 11:15:36 2005
21.000000 Mon Feb 28 11:30:05 2005
21.250000 Mon Feb 28 11:45:12 2005
21.250000 Mon Feb 28 12:00:13 2005
21.000000 Mon Feb 28 12:15:18 2005
20.750000 Mon Feb 28 12:30:20 2005
20.500000 Mon Feb 28 12:45:25 2005
20.500000 Mon Feb 28 13:00:26 2005
20.750000 Mon Feb 28 13:15:29 2005
20.750000 Mon Feb 28 13:30:07 2005
20.750000 Mon Feb 28 13:45:09 2005
20.750000 Mon Feb 28 14:00:13 2005
20.750000 Mon Feb 28 14:15:15 2005
20.500000 Mon Feb 28 14:30:10 2005
20.500000 Mon Feb 28 14:45:11 2005
20.750000 Mon Feb 28 15:00:17 2005
20.750000 Mon Feb 28 15:15:19 2005
20.750000 Mon Feb 28 15:30:22 2005
20.750000 Mon Feb 28 15:45:23 2005
20.750000 Mon Feb 28 16:00:25 2005
20.750000 Mon Feb 28 16:15:26 2005
20.750000 Mon Feb 28 16:30:04 2005
20.750000 Mon Feb 28 16:45:05 2005
20.750000 Mon Feb 28 17:00:07 2005
20.750000 Mon Feb 28 17:15:14 2005
20.750000 Mon Feb 28 17:30:04 2005
20.750000 Mon Feb 28 17:45:05 2005
20.750000 Mon Feb 28 18:00:17 2005
20.750000 Mon Feb 28 18:15:19 2005
20.750000 Mon Feb 28 18:30:06 2005
20.750000 Mon Feb 28 18:45:15 2005
20.750000 Mon Feb 28 19:00:32 2005
20.750000 Mon Feb 28 19:15:41 2005
22.250000 Mon Feb 28 19:30:07 2005
20.750000 Mon Feb 28 19:45:10 2005
20.750000 Mon Feb 28 20:00:12 2005
20.750000 Mon Feb 28 20:15:19 2005
20.750000 Mon Feb 28 20:30:10 2005
20.750000 Mon Feb 28 20:45:12 2005
20.750000 Mon Feb 28 21:00:13 2005
20.500000 Mon Feb 28 21:15:18 2005
20.500000 Mon Feb 28 21:30:06 2005
20.750000 Mon Feb 28 21:45:10 2005
20.750000 Mon Feb 28 22:00:12 2005
20.500000 Mon Feb 28 22:15:15 2005
20.500000 Mon Feb 28 22:30:05 2005
20.500000 Mon Feb 28 22:45:12 2005
20.500000 Mon Feb 28 23:00:17 2005
20.500000 Mon Feb 28 23:15:21 2005
20.500000 Mon Feb 28 23:30:10 2005
20.250000 Mon Feb 28 23:45:20 2005
20.250000 Tue Mar  1 00:00:37 2005
20.250000 Tue Mar  1 00:15:47 2005
20.250000 Tue Mar  1 00:30:06 2005
20.250000 Tue Mar  1 00:45:07 2005
20.250000 Tue Mar  1 01:00:09 2005
20.250000 Tue Mar  1 01:15:10 2005
20.250000 Tue Mar  1 01:30:04 2005
20.250000 Tue Mar  1 01:45:05 2005
20.250000 Tue Mar  1 02:00:10 2005
20.250000 Tue Mar  1 02:15:11 2005
20.000000 Tue Mar  1 02:30:20 2005
20.250000 Tue Mar  1 02:45:24 2005
20.000000 Tue Mar  1 03:00:27 2005
20.000000 Tue Mar  1 03:15:32 2005
20.000000 Tue Mar  1 03:30:04 2005
20.000000 Tue Mar  1 03:45:05 2005
20.000000 Tue Mar  1 04:00:11 2005
20.000000 Tue Mar  1 04:15:13 2005
20.000000 Tue Mar  1 04:30:04 2005
20.000000 Tue Mar  1 04:45:05 2005
20.000000 Tue Mar  1 05:00:07 2005
20.000000 Tue Mar  1 05:15:08 2005
20.000000 Tue Mar  1 05:30:04 2005
19.750000 Tue Mar  1 05:45:12 2005
19.750000 Tue Mar  1 06:00:14 2005
19.750000 Tue Mar  1 06:15:22 2005
20.000000 Tue Mar  1 06:30:08 2005
20.000000 Tue Mar  1 06:45:15 2005
20.000000 Tue Mar  1 07:00:17 2005
20.000000 Tue Mar  1 07:15:24 2005
19.750000 Tue Mar  1 07:30:06 2005
20.000000 Tue Mar  1 07:45:09 2005
20.000000 Tue Mar  1 08:00:23 2005
19.750000 Tue Mar  1 08:15:33 2005
20.000000 Tue Mar  1 08:30:04 2005
19.750000 Tue Mar  1 08:45:07 2005
20.000000 Tue Mar  1 09:00:10 2005
20.000000 Tue Mar  1 09:15:18 2005
20.000000 Tue Mar  1 09:30:07 2005
20.000000 Tue Mar  1 09:45:09 2005
20.000000 Tue Mar  1 10:00:10 2005
20.000000 Tue Mar  1 10:15:12 2005
20.000000 Tue Mar  1 10:30:05 2005
20.000000 Tue Mar  1 10:45:07 2005
20.000000 Tue Mar  1 11:00:11 2005
20.000000 Tue Mar  1 11:15:13 2005
20.000000 Tue Mar  1 11:30:05 2005
20.000000 Tue Mar  1 11:45:07 2005
20.000000 Tue Mar  1 12:00:08 2005
20.250000 Tue Mar  1 12:15:16 2005
20.500000 Tue Mar  1 12:30:04 2005
20.500000 Tue Mar  1 12:45:09 2005
20.500000 Tue Mar  1 13:00:10 2005
20.750000 Tue Mar  1 13:15:16 2005
20.750000 Tue Mar  1 13:30:10 2005
20.750000 Tue Mar  1 13:45:12 2005
21.000000 Tue Mar  1 14:00:14 2005
21.000000 Tue Mar  1 14:15:16 2005
21.250000 Tue Mar  1 14:30:08 2005
21.000000 Tue Mar  1 14:45:12 2005
21.000000 Tue Mar  1 15:00:13 2005
21.250000 Tue Mar  1 15:15:18 2005
21.000000 Tue Mar  1 15:30:05 2005
21.000000 Tue Mar  1 15:45:14 2005
21.000000 Tue Mar  1 16:00:16 2005
21.000000 Tue Mar  1 16:15:21 2005
21.000000 Tue Mar  1 16:30:04 2005
21.000000 Tue Mar  1 16:45:05 2005
21.000000 Tue Mar  1 17:00:07 2005
20.750000 Tue Mar  1 17:15:11 2005
21.000000 Tue Mar  1 17:30:11 2005
21.000000 Tue Mar  1 17:45:17 2005
21.000000 Tue Mar  1 18:00:18 2005
21.250000 Tue Mar  1 18:15:23 2005
21.250000 Tue Mar  1 18:30:11 2005
21.250000 Tue Mar  1 18:45:13 2005
21.250000 Tue Mar  1 19:00:20 2005
21.250000 Tue Mar  1 19:15:21 2005
20.750000 Tue Mar  1 19:30:14 2005
20.750000 Tue Mar  1 19:45:47 2005
20.750000 Tue Mar  1 20:00:52 2005
20.750000 Tue Mar  1 20:15:53 2005
20.750000 Tue Mar  1 20:30:08 2005
20.750000 Tue Mar  1 20:45:09 2005
20.750000 Tue Mar  1 21:00:11 2005
20.750000 Tue Mar  1 21:15:17 2005
20.500000 Tue Mar  1 21:30:04 2005
20.500000 Tue Mar  1 21:45:05 2005
20.500000 Tue Mar  1 22:00:07 2005
20.500000 Tue Mar  1 22:15:11 2005
20.500000 Tue Mar  1 22:30:04 2005
20.500000 Tue Mar  1 22:45:09 2005
20.500000 Tue Mar  1 23:00:13 2005
20.500000 Tue Mar  1 23:15:21 2005
20.500000 Tue Mar  1 23:30:04 2005
20.500000 Tue Mar  1 23:45:06 2005
20.500000 Wed Mar  2 00:00:07 2005
20.250000 Wed Mar  2 00:15:23 2005
20.500000 Wed Mar  2 00:30:04 2005
20.250000 Wed Mar  2 00:45:09 2005
20.250000 Wed Mar  2 01:00:19 2005
20.250000 Wed Mar  2 01:15:21 2005
20.250000 Wed Mar  2 01:30:04 2005
20.000000 Wed Mar  2 01:45:07 2005
20.250000 Wed Mar  2 02:00:11 2005
20.250000 Wed Mar  2 02:15:13 2005
20.000000 Wed Mar  2 02:30:05 2005
20.000000 Wed Mar  2 02:45:07 2005
20.000000 Wed Mar  2 03:00:08 2005
20.000000 Wed Mar  2 03:15:10 2005
20.250000 Wed Mar  2 03:30:04 2005
20.250000 Wed Mar  2 03:45:06 2005
20.000000 Wed Mar  2 04:00:12 2005
20.000000 Wed Mar  2 04:15:13 2005
20.000000 Wed Mar  2 04:30:04 2005
20.000000 Wed Mar  2 04:45:06 2005
20.000000 Wed Mar  2 05:00:08 2005
20.000000 Wed Mar  2 05:15:16 2005
20.000000 Wed Mar  2 05:30:04 2005
20.000000 Wed Mar  2 05:45:08 2005
20.000000 Wed Mar  2 06:00:10 2005
20.000000 Wed Mar  2 06:15:11 2005
20.000000 Wed Mar  2 06:30:09 2005
20.000000 Wed Mar  2 06:45:10 2005
20.000000 Wed Mar  2 07:00:12 2005
20.000000 Wed Mar  2 07:15:13 2005
20.000000 Wed Mar  2 07:30:11 2005
20.000000 Wed Mar  2 07:45:13 2005
20.000000 Wed Mar  2 08:00:14 2005
20.000000 Wed Mar  2 08:15:16 2005
19.750000 Wed Mar  2 08:30:09 2005
19.750000 Wed Mar  2 08:45:11 2005
20.000000 Wed Mar  2 09:00:17 2005
20.000000 Wed Mar  2 09:15:21 2005
20.000000 Wed Mar  2 09:30:12 2005
20.000000 Wed Mar  2 09:45:20 2005
20.000000 Wed Mar  2 10:00:21 2005
20.000000 Wed Mar  2 10:15:23 2005
20.000000 Wed Mar  2 10:30:06 2005
20.000000 Wed Mar  2 10:45:07 2005
20.000000 Wed Mar  2 11:00:09 2005
20.000000 Wed Mar  2 11:15:10 2005
20.000000 Wed Mar  2 11:30:04 2005
20.000000 Wed Mar  2 11:45:05 2005
20.000000 Wed Mar  2 12:00:13 2005
20.250000 Wed Mar  2 12:15:16 2005
20.000000 Wed Mar  2 12:30:04 2005
20.250000 Wed Mar  2 12:45:09 2005
20.000000 Wed Mar  2 13:00:15 2005
20.250000 Wed Mar  2 13:15:18 2005
20.250000 Wed Mar  2 13:30:06 2005
20.250000 Wed Mar  2 13:45:07 2005
20.250000 Wed Mar  2 14:00:09 2005
20.500000 Wed Mar  2 14:15:13 2005
20.500000 Wed Mar  2 14:30:04 2005
20.750000 Wed Mar  2 14:45:08 2005
21.000000 Wed Mar  2 15:00:13 2005
21.000000 Wed Mar  2 15:15:20 2005
21.000000 Wed Mar  2 15:30:04 2005
21.000000 Wed Mar  2 15:45:05 2005
21.250000 Wed Mar  2 16:00:08 2005
21.250000 Wed Mar  2 16:15:13 2005
21.000000 Wed Mar  2 16:30:04 2005
21.250000 Wed Mar  2 16:45:07 2005
21.250000 Wed Mar  2 17:00:08 2005
21.000000 Wed Mar  2 17:15:13 2005
21.000000 Wed Mar  2 17:30:08 2005
21.250000 Wed Mar  2 17:45:11 2005
21.250000 Wed Mar  2 18:00:18 2005
21.250000 Wed Mar  2 18:15:20 2005
21.000000 Wed Mar  2 18:30:04 2005
21.250000 Wed Mar  2 18:45:10 2005
21.000000 Wed Mar  2 19:00:16 2005
21.000000 Wed Mar  2 19:15:17 2005
21.250000 Wed Mar  2 19:30:04 2005
21.250000 Wed Mar  2 19:45:05 2005
21.250000 Wed Mar  2 20:00:07 2005
21.000000 Wed Mar  2 20:15:10 2005
21.000000 Wed Mar  2 20:30:04 2005
21.000000 Wed Mar  2 20:45:08 2005
21.000000 Wed Mar  2 21:00:10 2005
21.000000 Wed Mar  2 21:15:26 2005
21.500000 Wed Mar  2 21:30:07 2005
21.500000 Wed Mar  2 21:45:08 2005
21.500000 Wed Mar  2 22:00:10 2005
21.250000 Wed Mar  2 22:15:17 2005
21.250000 Wed Mar  2 22:30:22 2005
21.250000 Wed Mar  2 22:45:24 2005
21.250000 Wed Mar  2 23:00:26 2005
21.250000 Wed Mar  2 23:15:30 2005
21.250000 Wed Mar  2 23:30:06 2005
21.250000 Wed Mar  2 23:45:07 2005
21.000000 Thu Mar  3 00:00:15 2005
21.000000 Thu Mar  3 00:15:16 2005
21.000000 Thu Mar  3 00:30:04 2005
20.750000 Thu Mar  3 00:45:10 2005
20.750000 Thu Mar  3 01:00:12 2005
20.750000 Thu Mar  3 01:15:13 2005
20.750000 Thu Mar  3 01:30:17 2005
20.750000 Thu Mar  3 01:45:18 2005
20.750000 Thu Mar  3 02:00:20 2005
20.750000 Thu Mar  3 02:15:21 2005
20.500000 Thu Mar  3 02:30:04 2005
20.500000 Thu Mar  3 02:45:06 2005
20.500000 Thu Mar  3 03:00:12 2005
20.500000 Thu Mar  3 03:15:13 2005
20.500000 Thu Mar  3 03:30:13 2005
20.250000 Thu Mar  3 03:45:23 2005
20.250000 Thu Mar  3 04:00:37 2005
20.250000 Thu Mar  3 04:15:39 2005
20.250000 Thu Mar  3 04:30:07 2005
20.250000 Thu Mar  3 04:45:12 2005
20.250000 Thu Mar  3 05:00:13 2005
20.250000 Thu Mar  3 05:15:15 2005
20.250000 Thu Mar  3 05:30:09 2005
20.250000 Thu Mar  3 05:45:11 2005
20.250000 Thu Mar  3 06:00:12 2005
20.250000 Thu Mar  3 06:15:14 2005
20.250000 Thu Mar  3 06:30:09 2005
20.250000 Thu Mar  3 06:45:10 2005
20.250000 Thu Mar  3 07:00:19 2005
20.250000 Thu Mar  3 07:15:21 2005
20.250000 Thu Mar  3 07:30:06 2005
20.250000 Thu Mar  3 07:45:08 2005
20.250000 Thu Mar  3 08:00:09 2005
20.250000 Thu Mar  3 08:15:11 2005
20.250000 Thu Mar  3 08:30:12 2005
20.250000 Thu Mar  3 08:45:13 2005
20.250000 Thu Mar  3 09:00:15 2005
20.250000 Thu Mar  3 09:15:16 2005
20.500000 Thu Mar  3 09:30:12 2005
20.250000 Thu Mar  3 09:45:19 2005
20.250000 Thu Mar  3 10:00:23 2005
20.500000 Thu Mar  3 10:15:26 2005
20.250000 Thu Mar  3 10:30:07 2005
20.250000 Thu Mar  3 10:45:08 2005
20.250000 Thu Mar  3 11:00:13 2005
20.250000 Thu Mar  3 11:15:30 2005
20.250000 Thu Mar  3 11:30:04 2005
20.250000 Thu Mar  3 11:45:10 2005
20.250000 Thu Mar  3 12:00:14 2005
20.250000 Thu Mar  3 12:15:16 2005
20.250000 Thu Mar  3 12:30:22 2005
20.250000 Thu Mar  3 12:45:23 2005
20.250000 Thu Mar  3 13:00:28 2005
20.250000 Thu Mar  3 13:15:29 2005
20.250000 Thu Mar  3 13:30:04 2005
20.500000 Thu Mar  3 13:45:09 2005
20.500000 Thu Mar  3 14:00:10 2005
20.500000 Thu Mar  3 14:15:19 2005
20.250000 Thu Mar  3 14:30:07 2005
20.500000 Thu Mar  3 14:45:12 2005
20.500000 Thu Mar  3 15:00:14 2005
20.500000 Thu Mar  3 15:15:16 2005
20.500000 Thu Mar  3 15:30:04 2005
20.500000 Thu Mar  3 15:45:18 2005
20.500000 Thu Mar  3 16:00:19 2005
20.750000 Thu Mar  3 16:15:22 2005
20.750000 Thu Mar  3 16:30:04 2005
20.750000 Thu Mar  3 16:45:08 2005
20.750000 Thu Mar  3 17:00:10 2005
20.750000 Thu Mar  3 17:15:11 2005
20.750000 Thu Mar  3 17:30:04 2005
20.750000 Thu Mar  3 17:45:06 2005
20.750000 Thu Mar  3 18:00:07 2005
20.750000 Thu Mar  3 18:15:09 2005
20.750000 Thu Mar  3 18:30:04 2005
20.750000 Thu Mar  3 18:45:08 2005
20.750000 Thu Mar  3 19:00:10 2005
20.750000 Thu Mar  3 19:15:14 2005
20.750000 Thu Mar  3 19:30:07 2005
20.750000 Thu Mar  3 19:45:12 2005
20.750000 Thu Mar  3 20:00:13 2005
20.750000 Thu Mar  3 20:15:15 2005
21.000000 Thu Mar  3 20:30:07 2005
21.000000 Thu Mar  3 20:45:11 2005
21.000000 Thu Mar  3 21:00:12 2005
21.000000 Thu Mar  3 21:15:14 2005
21.000000 Thu Mar  3 21:30:05 2005
21.000000 Thu Mar  3 21:45:10 2005
21.000000 Thu Mar  3 22:00:15 2005
21.000000 Thu Mar  3 22:15:24 2005
21.250000 Thu Mar  3 22:30:09 2005
21.250000 Thu Mar  3 22:45:11 2005
21.250000 Thu Mar  3 23:00:15 2005
21.500000 Thu Mar  3 23:15:18 2005
21.250000 Thu Mar  3 23:30:09 2005
21.250000 Thu Mar  3 23:45:10 2005
21.250000 Fri Mar  4 00:00:12 2005
20.750000 Fri Mar  4 00:15:16 2005
20.750000 Fri Mar  4 00:30:04 2005
20.750000 Fri Mar  4 00:45:29 2005
20.750000 Fri Mar  4 01:00:30 2005
20.750000 Fri Mar  4 01:15:32 2005
20.500000 Fri Mar  4 01:30:05 2005
20.500000 Fri Mar  4 01:45:07 2005
20.500000 Fri Mar  4 02:00:08 2005
20.250000 Fri Mar  4 02:15:13 2005
20.250000 Fri Mar  4 02:30:04 2005
20.250000 Fri Mar  4 02:45:16 2005
20.250000 Fri Mar  4 03:00:18 2005
20.250000 Fri Mar  4 03:15:31 2005
20.250000 Fri Mar  4 03:30:04 2005
20.250000 Fri Mar  4 03:45:05 2005
20.250000 Fri Mar  4 04:00:07 2005
20.250000 Fri Mar  4 04:15:09 2005
20.000000 Fri Mar  4 04:30:17 2005
20.000000 Fri Mar  4 04:45:21 2005
20.000000 Fri Mar  4 05:00:26 2005
20.000000 Fri Mar  4 05:15:27 2005
20.000000 Fri Mar  4 05:30:18 2005
20.000000 Fri Mar  4 05:45:20 2005
19.750000 Fri Mar  4 06:00:41 2005
20.000000 Fri Mar  4 06:15:51 2005
19.750000 Fri Mar  4 06:30:18 2005
20.000000 Fri Mar  4 06:45:21 2005
20.000000 Fri Mar  4 07:00:22 2005
20.000000 Fri Mar  4 07:15:28 2005
20.000000 Fri Mar  4 07:30:07 2005
19.750000 Fri Mar  4 07:45:10 2005
19.750000 Fri Mar  4 08:00:11 2005
19.750000 Fri Mar  4 08:15:13 2005
19.750000 Fri Mar  4 08:30:13 2005
19.750000 Fri Mar  4 08:45:14 2005
19.750000 Fri Mar  4 09:00:16 2005
19.750000 Fri Mar  4 09:15:17 2005
19.750000 Fri Mar  4 09:30:11 2005
20.000000 Fri Mar  4 09:45:23 2005
19.750000 Fri Mar  4 10:00:36 2005
20.000000 Fri Mar  4 10:15:43 2005
20.000000 Fri Mar  4 10:30:06 2005
20.000000 Fri Mar  4 10:45:10 2005
20.000000 Fri Mar  4 11:00:15 2005
20.250000 Fri Mar  4 11:15:19 2005
20.000000 Fri Mar  4 11:30:07 2005
20.000000 Fri Mar  4 11:45:09 2005
20.000000 Fri Mar  4 12:00:10 2005
20.250000 Fri Mar  4 12:15:22 2005
20.250000 Fri Mar  4 12:30:13 2005
20.250000 Fri Mar  4 12:45:17 2005
20.250000 Fri Mar  4 13:00:22 2005
20.250000 Fri Mar  4 13:15:26 2005
20.500000 Fri Mar  4 13:30:06 2005
20.250000 Fri Mar  4 13:45:11 2005
20.250000 Fri Mar  4 14:00:13 2005
20.250000 Fri Mar  4 14:15:17 2005
20.250000 Fri Mar  4 14:30:08 2005
20.250000 Fri Mar  4 14:45:10 2005
20.250000 Fri Mar  4 15:00:11 2005
20.500000 Fri Mar  4 15:15:20 2005
20.500000 Fri Mar  4 15:30:04 2005
20.250000 Fri Mar  4 15:45:07 2005
20.250000 Fri Mar  4 16:00:12 2005
20.750000 Fri Mar  4 16:15:21 2005
21.000000 Fri Mar  4 16:30:06 2005
21.000000 Fri Mar  4 16:45:10 2005
21.000000 Fri Mar  4 17:00:12 2005
21.000000 Fri Mar  4 17:15:14 2005
21.000000 Fri Mar  4 17:30:04 2005
21.000000 Fri Mar  4 17:45:05 2005
21.000000 Fri Mar  4 18:00:07 2005
20.750000 Fri Mar  4 18:15:13 2005
20.750000 Fri Mar  4 18:30:04 2005
20.750000 Fri Mar  4 18:45:05 2005
20.500000 Fri Mar  4 19:00:10 2005
24.250000 Fri Mar  4 19:15:16 2005
20.500000 Fri Mar  4 19:30:04 2005
20.500000 Fri Mar  4 19:45:05 2005
20.500000 Fri Mar  4 20:00:07 2005
20.500000 Fri Mar  4 20:15:14 2005
20.500000 Fri Mar  4 20:30:13 2005
20.250000 Fri Mar  4 20:45:19 2005
20.250000 Fri Mar  4 21:00:20 2005
20.250000 Fri Mar  4 21:15:25 2005
20.250000 Fri Mar  4 21:30:05 2005
20.250000 Fri Mar  4 21:45:17 2005
20.500000 Fri Mar  4 22:00:20 2005
20.250000 Fri Mar  4 22:15:23 2005
20.250000 Fri Mar  4 22:30:05 2005
20.250000 Fri Mar  4 22:45:10 2005
20.250000 Fri Mar  4 23:00:17 2005
20.250000 Fri Mar  4 23:15:19 2005
20.000000 Fri Mar  4 23:30:04 2005
20.250000 Fri Mar  4 23:45:08 2005
20.250000 Sat Mar  5 00:00:10 2005
20.250000 Sat Mar  5 00:15:20 2005
20.000000 Sat Mar  5 00:30:09 2005
20.250000 Sat Mar  5 00:45:12 2005
20.250000 Sat Mar  5 01:00:27 2005
20.250000 Sat Mar  5 01:15:34 2005
20.250000 Sat Mar  5 01:30:06 2005
20.250000 Sat Mar  5 01:45:17 2005
20.000000 Sat Mar  5 02:00:22 2005
20.000000 Sat Mar  5 02:15:24 2005
20.250000 Sat Mar  5 02:30:10 2005
20.000000 Sat Mar  5 02:45:18 2005
20.000000 Sat Mar  5 03:00:19 2005
20.750000 Sat Mar  5 03:15:25 2005
20.250000 Sat Mar  5 03:30:07 2005
20.250000 Sat Mar  5 03:45:09 2005
20.250000 Sat Mar  5 04:00:10 2005
20.250000 Sat Mar  5 04:15:12 2005
20.000000 Sat Mar  5 04:30:05 2005
20.000000 Sat Mar  5 04:45:07 2005
20.000000 Sat Mar  5 05:00:08 2005
20.000000 Sat Mar  5 05:15:10 2005
20.000000 Sat Mar  5 05:30:06 2005
20.000000 Sat Mar  5 05:45:16 2005
20.000000 Sat Mar  5 06:00:17 2005
20.000000 Sat Mar  5 06:15:26 2005
20.000000 Sat Mar  5 06:30:08 2005
20.000000 Sat Mar  5 06:45:09 2005
20.000000 Sat Mar  5 07:00:13 2005
20.000000 Sat Mar  5 07:15:19 2005
20.000000 Sat Mar  5 07:30:07 2005
20.000000 Sat Mar  5 07:45:08 2005
20.000000 Sat Mar  5 08:00:10 2005
20.000000 Sat Mar  5 08:15:11 2005
20.000000 Sat Mar  5 08:30:04 2005
20.000000 Sat Mar  5 08:45:05 2005
20.000000 Sat Mar  5 09:00:07 2005
20.000000 Sat Mar  5 09:15:09 2005
20.000000 Sat Mar  5 09:30:09 2005
20.000000 Sat Mar  5 09:45:20 2005
20.000000 Sat Mar  5 10:00:21 2005
20.000000 Sat Mar  5 10:15:23 2005
20.000000 Sat Mar  5 10:30:14 2005
20.250000 Sat Mar  5 10:45:17 2005
20.250000 Sat Mar  5 11:00:19 2005
20.250000 Sat Mar  5 11:15:20 2005
20.250000 Sat Mar  5 11:30:06 2005
20.250000 Sat Mar  5 11:45:08 2005
20.250000 Sat Mar  5 12:00:12 2005
20.250000 Sat Mar  5 12:15:23 2005
20.250000 Sat Mar  5 12:30:10 2005
20.250000 Sat Mar  5 12:45:14 2005
20.500000 Sat Mar  5 13:00:39 2005
20.250000 Sat Mar  5 13:15:42 2005
20.500000 Sat Mar  5 13:30:07 2005
20.500000 Sat Mar  5 13:45:09 2005
20.500000 Sat Mar  5 14:00:13 2005
20.500000 Sat Mar  5 14:15:28 2005
20.500000 Sat Mar  5 14:30:07 2005
20.500000 Sat Mar  5 14:45:09 2005
21.000000 Sat Mar  5 15:00:16 2005
21.000000 Sat Mar  5 15:15:23 2005
21.250000 Sat Mar  5 15:30:04 2005
21.250000 Sat Mar  5 15:45:06 2005
21.250000 Sat Mar  5 16:00:14 2005
21.500000 Sat Mar  5 16:15:17 2005
21.250000 Sat Mar  5 16:30:10 2005
21.250000 Sat Mar  5 16:45:18 2005
21.250000 Sat Mar  5 17:00:19 2005
21.500000 Sat Mar  5 17:15:29 2005
21.250000 Sat Mar  5 17:30:04 2005
21.250000 Sat Mar  5 17:45:06 2005
21.250000 Sat Mar  5 18:00:07 2005
21.250000 Sat Mar  5 18:15:09 2005
21.250000 Sat Mar  5 18:30:04 2005
21.250000 Sat Mar  5 18:45:05 2005
21.000000 Sat Mar  5 19:00:10 2005
21.000000 Sat Mar  5 19:15:11 2005
20.750000 Sat Mar  5 19:30:07 2005
20.750000 Sat Mar  5 19:45:11 2005
20.750000 Sat Mar  5 20:00:13 2005
20.750000 Sat Mar  5 20:15:14 2005
21.250000 Sat Mar  5 20:30:05 2005
20.750000 Sat Mar  5 20:45:07 2005
20.500000 Sat Mar  5 21:00:12 2005
20.500000 Sat Mar  5 21:15:13 2005
21.000000 Sat Mar  5 21:30:05 2005
21.000000 Sat Mar  5 21:45:07 2005
21.000000 Sat Mar  5 22:00:16 2005
20.750000 Sat Mar  5 22:15:19 2005
21.000000 Sat Mar  5 22:30:11 2005
21.000000 Sat Mar  5 22:45:13 2005
20.750000 Sat Mar  5 23:00:21 2005
21.000000 Sat Mar  5 23:15:27 2005
20.750000 Sat Mar  5 23:30:04 2005
20.750000 Sat Mar  5 23:45:06 2005
20.750000 Sun Mar  6 00:00:07 2005
20.750000 Sun Mar  6 00:15:09 2005
20.750000 Sun Mar  6 00:30:17 2005
20.750000 Sun Mar  6 00:45:18 2005
20.750000 Sun Mar  6 01:00:20 2005
20.750000 Sun Mar  6 01:15:22 2005
22.250000 Sun Mar  6 01:30:05 2005
20.500000 Sun Mar  6 01:45:08 2005
20.500000 Sun Mar  6 02:00:10 2005
20.250000 Sun Mar  6 02:15:18 2005
20.250000 Sun Mar  6 02:30:06 2005
20.250000 Sun Mar  6 02:45:13 2005
20.250000 Sun Mar  6 03:00:17 2005
20.250000 Sun Mar  6 03:15:19 2005
20.000000 Sun Mar  6 03:30:04 2005
20.000000 Sun Mar  6 03:45:09 2005
20.000000 Sun Mar  6 04:00:13 2005
20.000000 Sun Mar  6 04:15:15 2005
20.000000 Sun Mar  6 04:30:05 2005
20.000000 Sun Mar  6 04:45:07 2005
20.000000 Sun Mar  6 05:00:08 2005
19.750000 Sun Mar  6 05:15:18 2005
19.750000 Sun Mar  6 05:30:06 2005
19.750000 Sun Mar  6 05:45:07 2005
19.750000 Sun Mar  6 06:00:09 2005
20.000000 Sun Mar  6 06:15:16 2005
20.000000 Sun Mar  6 06:30:05 2005
19.750000 Sun Mar  6 06:45:11 2005
20.000000 Sun Mar  6 07:00:20 2005
20.000000 Sun Mar  6 07:15:24 2005
20.000000 Sun Mar  6 07:30:11 2005
19.750000 Sun Mar  6 07:45:14 2005
19.750000 Sun Mar  6 08:00:15 2005
19.750000 Sun Mar  6 08:15:23 2005
19.750000 Sun Mar  6 08:30:08 2005
20.000000 Sun Mar  6 08:45:11 2005
20.000000 Sun Mar  6 09:00:13 2005
20.000000 Sun Mar  6 09:15:14 2005
19.750000 Sun Mar  6 09:30:04 2005
20.000000 Sun Mar  6 09:45:10 2005
20.000000 Sun Mar  6 10:00:17 2005
20.000000 Sun Mar  6 10:15:19 2005
20.000000 Sun Mar  6 10:30:07 2005
20.000000 Sun Mar  6 10:45:08 2005
20.000000 Sun Mar  6 11:00:10 2005
20.000000 Sun Mar  6 11:15:12 2005
20.000000 Sun Mar  6 11:30:12 2005
20.000000 Sun Mar  6 11:45:13 2005
20.000000 Sun Mar  6 12:00:15 2005
20.000000 Sun Mar  6 12:15:21 2005
20.250000 Sun Mar  6 12:30:07 2005
20.250000 Sun Mar  6 12:45:11 2005
20.250000 Sun Mar  6 13:00:13 2005
20.250000 Sun Mar  6 13:15:17 2005
20.250000 Sun Mar  6 13:30:07 2005
20.250000 Sun Mar  6 13:45:09 2005
20.250000 Sun Mar  6 14:00:10 2005
20.250000 Sun Mar  6 14:15:19 2005
20.250000 Sun Mar  6 14:30:04 2005
20.250000 Sun Mar  6 14:45:11 2005
20.250000 Sun Mar  6 15:00:20 2005
20.250000 Sun Mar  6 15:15:21 2005
20.250000 Sun Mar  6 15:30:17 2005
20.500000 Sun Mar  6 15:45:20 2005
20.500000 Sun Mar  6 16:00:25 2005
20.750000 Sun Mar  6 16:15:29 2005
