18.888889 Sat Mar 30 20:21:04 2002
17.600000 Sat Mar 30 20:31:47 2002
16.888889 Sat Mar 30 21:01:20 2002
16.400000 Sat Mar 30 21:02:11 2002
16.444445 Sat Mar 30 21:31:37 2002
16.222221 Sat Mar 30 22:01:07 2002
16.444445 Sat Mar 30 22:31:12 2002
16.222221 Sat Mar 30 23:01:04 2002
16.000000 Sat Mar 30 23:31:08 2002
16.444445 Sun Mar 31 00:01:07 2002
16.000000 Sun Mar 31 00:31:13 2002
16.222221 Sun Mar 31 01:01:08 2002
16.222221 Sun Mar 31 01:31:16 2002
16.222221 Sun Mar 31 03:01:04 2002
15.777778 Sun Mar 31 03:31:12 2002
15.777778 Sun Mar 31 04:01:13 2002
16.000000 Sun Mar 31 04:31:34 2002
15.555555 Sun Mar 31 05:01:04 2002
15.555555 Sun Mar 31 05:31:21 2002
15.555555 Sun Mar 31 06:01:03 2002
15.777778 Sun Mar 31 06:31:15 2002
15.555555 Sun Mar 31 07:01:05 2002
15.333333 Sun Mar 31 07:31:21 2002
15.555555 Sun Mar 31 08:01:09 2002
15.333333 Sun Mar 31 08:31:13 2002
15.777778 Sun Mar 31 09:01:09 2002
16.888889 Sun Mar 31 09:31:20 2002
17.111111 Sun Mar 31 10:01:04 2002
17.777779 Sun Mar 31 10:31:09 2002
18.000000 Sun Mar 31 11:01:03 2002
18.444445 Sun Mar 31 11:31:07 2002
18.444445 Sun Mar 31 12:01:10 2002
18.222221 Sun Mar 31 12:31:23 2002
18.444445 Sun Mar 31 13:01:04 2002
18.000000 Sun Mar 31 13:31:09 2002
17.555555 Sun Mar 31 14:01:05 2002
17.333334 Sun Mar 31 14:31:09 2002
17.555555 Sun Mar 31 15:01:03 2002
17.555555 Sun Mar 31 15:31:33 2002
17.333334 Sun Mar 31 16:01:03 2002
17.555555 Sun Mar 31 16:31:06 2002
17.777779 Sun Mar 31 17:01:12 2002
17.111111 Sun Mar 31 17:31:18 2002
17.555555 Sun Mar 31 18:01:05 2002
17.555555 Sun Mar 31 18:31:17 2002
17.111111 Sun Mar 31 19:01:06 2002
17.111111 Sun Mar 31 19:31:09 2002
17.111111 Sun Mar 31 20:01:04 2002
16.888889 Sun Mar 31 20:31:09 2002
16.888889 Sun Mar 31 21:01:03 2002
17.333334 Sun Mar 31 21:31:08 2002
16.888889 Sun Mar 31 22:01:12 2002
17.333334 Sun Mar 31 22:31:17 2002
17.111111 Sun Mar 31 23:01:04 2002
16.444445 Sun Mar 31 23:31:11 2002
16.888889 Mon Apr  1 00:01:25 2002
16.888889 Mon Apr  1 00:31:41 2002
17.111111 Mon Apr  1 01:01:05 2002
16.444445 Mon Apr  1 01:31:18 2002
16.888889 Mon Apr  1 02:01:09 2002
16.888889 Mon Apr  1 02:31:12 2002
16.444445 Mon Apr  1 03:01:04 2002
16.444445 Mon Apr  1 03:31:13 2002
16.444445 Mon Apr  1 04:01:05 2002
16.222221 Mon Apr  1 04:31:09 2002
16.222221 Mon Apr  1 05:01:20 2002
16.222221 Mon Apr  1 05:31:23 2002
16.222221 Mon Apr  1 06:01:12 2002
16.000000 Mon Apr  1 06:31:32 2002
16.222221 Mon Apr  1 07:01:03 2002
16.222221 Mon Apr  1 07:31:17 2002
16.222221 Mon Apr  1 08:01:11 2002
15.777778 Mon Apr  1 08:31:26 2002
16.444445 Mon Apr  1 09:01:22 2002
17.111111 Mon Apr  1 09:31:28 2002
17.555555 Mon Apr  1 10:01:04 2002
18.222221 Mon Apr  1 10:31:15 2002
18.888889 Mon Apr  1 11:01:06 2002
18.666666 Mon Apr  1 11:31:12 2002
19.111111 Mon Apr  1 12:01:17 2002
18.888889 Mon Apr  1 12:31:22 2002
18.888889 Mon Apr  1 13:01:14 2002
18.222221 Mon Apr  1 13:31:20 2002
18.222221 Mon Apr  1 14:01:06 2002
18.000000 Mon Apr  1 14:31:09 2002
17.777779 Mon Apr  1 15:01:09 2002
18.222221 Mon Apr  1 15:31:17 2002
17.777779 Mon Apr  1 16:01:11 2002
18.000000 Mon Apr  1 16:31:14 2002
17.777779 Mon Apr  1 17:01:03 2002
18.000000 Mon Apr  1 17:31:07 2002
18.000000 Mon Apr  1 18:01:04 2002
17.777779 Mon Apr  1 18:31:11 2002
17.777779 Mon Apr  1 19:01:10 2002
17.777779 Mon Apr  1 19:31:16 2002
17.777779 Mon Apr  1 20:01:11 2002
17.555555 Mon Apr  1 20:31:18 2002
17.777779 Mon Apr  1 21:01:03 2002
17.555555 Mon Apr  1 21:31:23 2002
17.555555 Mon Apr  1 22:01:04 2002
17.777779 Mon Apr  1 22:31:07 2002
17.777779 Mon Apr  1 23:01:04 2002
17.333334 Mon Apr  1 23:31:08 2002
17.555555 Tue Apr  2 00:01:09 2002
17.555555 Tue Apr  2 00:31:24 2002
17.333334 Tue Apr  2 01:01:07 2002
17.333334 Tue Apr  2 01:31:16 2002
17.111111 Tue Apr  2 02:01:08 2002
16.888889 Tue Apr  2 02:31:12 2002
17.111111 Tue Apr  2 03:01:06 2002
16.888889 Tue Apr  2 03:31:12 2002
16.444445 Tue Apr  2 04:01:06 2002
16.888889 Tue Apr  2 04:31:17 2002
16.666666 Tue Apr  2 05:01:18 2002
16.444445 Tue Apr  2 05:31:25 2002
16.222221 Tue Apr  2 06:01:16 2002
16.222221 Tue Apr  2 06:31:26 2002
16.222221 Tue Apr  2 07:01:09 2002
16.222221 Tue Apr  2 07:31:19 2002
16.222221 Tue Apr  2 08:01:05 2002
16.000000 Tue Apr  2 08:31:09 2002
16.666666 Tue Apr  2 09:01:04 2002
18.000000 Tue Apr  2 09:31:09 2002
18.888889 Tue Apr  2 10:01:09 2002
19.333334 Tue Apr  2 10:31:15 2002
19.777779 Tue Apr  2 11:01:09 2002
20.222221 Tue Apr  2 11:31:20 2002
20.000000 Tue Apr  2 12:01:08 2002
20.000000 Tue Apr  2 12:31:20 2002
19.555555 Tue Apr  2 13:01:14 2002
19.111111 Tue Apr  2 13:31:19 2002
18.666666 Tue Apr  2 14:01:05 2002
19.111111 Tue Apr  2 14:31:09 2002
18.888889 Tue Apr  2 15:01:03 2002
18.666666 Tue Apr  2 15:31:29 2002
19.111111 Tue Apr  2 16:01:04 2002
19.333334 Tue Apr  2 16:31:08 2002
18.888889 Tue Apr  2 17:01:05 2002
19.111111 Tue Apr  2 17:31:08 2002
18.666666 Tue Apr  2 18:01:03 2002
18.888889 Tue Apr  2 18:31:08 2002
18.888889 Tue Apr  2 19:01:06 2002
18.888889 Tue Apr  2 19:31:12 2002
18.666666 Tue Apr  2 20:01:05 2002
18.888889 Tue Apr  2 20:31:31 2002
18.444445 Tue Apr  2 21:01:05 2002
18.888889 Tue Apr  2 21:31:12 2002
18.888889 Tue Apr  2 22:01:06 2002
18.444445 Tue Apr  2 22:31:10 2002
18.444445 Tue Apr  2 23:01:12 2002
18.222221 Tue Apr  2 23:31:24 2002
18.444445 Wed Apr  3 00:01:06 2002
18.444445 Wed Apr  3 00:31:19 2002
18.000000 Wed Apr  3 01:01:18 2002
17.777779 Wed Apr  3 01:31:23 2002
18.222221 Wed Apr  3 02:01:20 2002
18.000000 Wed Apr  3 02:31:28 2002
18.000000 Wed Apr  3 03:01:13 2002
17.777779 Wed Apr  3 03:31:27 2002
17.777779 Wed Apr  3 04:01:06 2002
17.555555 Wed Apr  3 04:31:09 2002
17.555555 Wed Apr  3 05:01:06 2002
17.333334 Wed Apr  3 05:31:14 2002
17.777779 Wed Apr  3 06:01:03 2002
17.333334 Wed Apr  3 06:31:20 2002
17.333334 Wed Apr  3 07:01:03 2002
17.333334 Wed Apr  3 07:31:09 2002
17.333334 Wed Apr  3 08:01:03 2002
16.888889 Wed Apr  3 08:31:09 2002
17.111111 Wed Apr  3 09:01:12 2002
18.222221 Wed Apr  3 09:31:16 2002
19.333334 Wed Apr  3 10:01:05 2002
19.777779 Wed Apr  3 10:31:11 2002
20.222221 Wed Apr  3 11:01:03 2002
20.666666 Wed Apr  3 11:31:09 2002
20.666666 Wed Apr  3 12:01:03 2002
20.666666 Wed Apr  3 12:31:13 2002
19.555555 Wed Apr  3 13:01:09 2002
19.111111 Wed Apr  3 13:31:17 2002
19.555555 Wed Apr  3 14:01:04 2002
19.333334 Wed Apr  3 14:31:07 2002
19.111111 Wed Apr  3 15:01:04 2002
19.333334 Wed Apr  3 15:31:13 2002
19.333334 Wed Apr  3 16:01:09 2002
19.111111 Wed Apr  3 16:31:21 2002
19.333334 Wed Apr  3 17:01:05 2002
19.333334 Wed Apr  3 17:31:08 2002
19.777779 Wed Apr  3 18:01:03 2002
19.111111 Wed Apr  3 18:31:09 2002
19.555555 Wed Apr  3 19:01:12 2002
19.111111 Wed Apr  3 19:31:16 2002
19.111111 Wed Apr  3 20:01:03 2002
19.333334 Wed Apr  3 20:31:24 2002
19.111111 Wed Apr  3 21:01:04 2002
18.666666 Wed Apr  3 21:31:08 2002
18.888889 Wed Apr  3 22:01:07 2002
18.888889 Wed Apr  3 22:31:14 2002
18.888889 Wed Apr  3 23:01:03 2002
18.888889 Thu Apr  4 00:01:04 2002
18.444445 Thu Apr  4 00:31:08 2002
18.444445 Thu Apr  4 01:01:05 2002
18.888889 Thu Apr  4 01:31:09 2002
18.444445 Thu Apr  4 02:01:04 2002
18.222221 Thu Apr  4 02:31:16 2002
18.000000 Thu Apr  4 03:01:03 2002
17.777779 Thu Apr  4 03:31:12 2002
17.555555 Thu Apr  4 04:01:05 2002
17.555555 Thu Apr  4 04:31:09 2002
17.555555 Thu Apr  4 05:01:07 2002
17.333334 Thu Apr  4 05:31:17 2002
17.333334 Thu Apr  4 06:01:05 2002
17.111111 Thu Apr  4 06:31:19 2002
16.888889 Thu Apr  4 07:01:07 2002
17.111111 Thu Apr  4 07:31:11 2002
17.111111 Thu Apr  4 08:01:07 2002
16.888889 Thu Apr  4 08:31:10 2002
17.333334 Thu Apr  4 09:01:05 2002
18.444445 Thu Apr  4 09:31:10 2002
19.555555 Thu Apr  4 10:01:07 2002
20.000000 Thu Apr  4 10:31:19 2002
20.000000 Thu Apr  4 11:01:04 2002
20.444445 Thu Apr  4 11:31:09 2002
20.222221 Thu Apr  4 12:01:13 2002
20.666666 Thu Apr  4 12:31:16 2002
19.777779 Thu Apr  4 13:01:08 2002
18.888889 Thu Apr  4 13:31:14 2002
19.111111 Thu Apr  4 14:01:11 2002
19.111111 Thu Apr  4 14:31:25 2002
18.888889 Thu Apr  4 15:01:04 2002
18.888889 Thu Apr  4 15:31:07 2002
18.444445 Thu Apr  4 16:01:05 2002
18.666666 Thu Apr  4 16:31:15 2002
18.888889 Thu Apr  4 17:01:07 2002
18.444445 Thu Apr  4 17:31:12 2002
18.666666 Thu Apr  4 18:01:10 2002
18.666666 Thu Apr  4 18:31:24 2002
18.666666 Thu Apr  4 19:01:05 2002
18.666666 Thu Apr  4 19:31:14 2002
18.444445 Thu Apr  4 20:01:10 2002
18.444445 Thu Apr  4 20:31:15 2002
17.777779 Thu Apr  4 21:01:17 2002
18.222221 Thu Apr  4 21:31:23 2002
17.777779 Thu Apr  4 22:01:13 2002
17.777779 Thu Apr  4 22:31:27 2002
17.777779 Thu Apr  4 23:01:07 2002
17.333334 Thu Apr  4 23:31:14 2002
17.777779 Fri Apr  5 00:01:09 2002
17.777779 Fri Apr  5 00:31:14 2002
17.333334 Fri Apr  5 01:01:04 2002
17.333334 Fri Apr  5 01:31:14 2002
17.333334 Fri Apr  5 02:01:27 2002
17.111111 Fri Apr  5 02:31:38 2002
16.888889 Fri Apr  5 03:01:15 2002
17.111111 Fri Apr  5 03:31:20 2002
16.666666 Fri Apr  5 04:01:06 2002
16.888889 Fri Apr  5 04:31:13 2002
17.111111 Fri Apr  5 05:01:07 2002
16.666666 Fri Apr  5 05:31:14 2002
16.444445 Fri Apr  5 06:01:03 2002
15.777778 Fri Apr  5 06:31:07 2002
15.777778 Fri Apr  5 07:01:11 2002
16.000000 Fri Apr  5 07:31:25 2002
15.555555 Fri Apr  5 08:01:11 2002
15.555555 Fri Apr  5 08:31:14 2002
15.777778 Fri Apr  5 09:01:06 2002
17.333334 Fri Apr  5 09:31:13 2002
18.666666 Fri Apr  5 10:01:06 2002
18.888889 Fri Apr  5 10:31:12 2002
19.333334 Fri Apr  5 11:01:05 2002
19.555555 Fri Apr  5 11:31:09 2002
19.111111 Fri Apr  5 12:01:06 2002
18.666666 Fri Apr  5 12:31:12 2002
18.888889 Fri Apr  5 13:01:04 2002
18.000000 Fri Apr  5 13:31:09 2002
17.777779 Fri Apr  5 14:01:03 2002
17.333334 Fri Apr  5 14:31:17 2002
17.333334 Fri Apr  5 15:01:12 2002
17.333334 Fri Apr  5 15:31:25 2002
17.333334 Fri Apr  5 16:01:08 2002
17.333334 Fri Apr  5 16:31:12 2002
17.111111 Fri Apr  5 17:01:13 2002
17.333334 Fri Apr  5 17:31:18 2002
17.333334 Fri Apr  5 18:01:08 2002
16.888889 Fri Apr  5 18:31:11 2002
16.666666 Fri Apr  5 19:01:05 2002
16.888889 Fri Apr  5 19:31:14 2002
16.666666 Fri Apr  5 20:01:05 2002
16.666666 Fri Apr  5 20:31:15 2002
16.888889 Fri Apr  5 21:01:29 2002
16.444445 Fri Apr  5 21:31:34 2002
16.444445 Fri Apr  5 22:01:06 2002
16.222221 Fri Apr  5 22:31:12 2002
16.444445 Fri Apr  5 23:01:12 2002
16.444445 Fri Apr  5 23:31:16 2002
16.222221 Sat Apr  6 00:01:03 2002
16.000000 Sat Apr  6 00:31:12 2002
15.555555 Sat Apr  6 01:01:09 2002
16.000000 Sat Apr  6 01:31:25 2002
16.000000 Sat Apr  6 02:01:12 2002
15.555555 Sat Apr  6 02:31:19 2002
15.111111 Sat Apr  6 03:01:05 2002
15.333333 Sat Apr  6 03:31:28 2002
14.888889 Sat Apr  6 04:01:22 2002
15.111111 Sat Apr  6 04:31:33 2002
14.222222 Sat Apr  6 05:01:12 2002
15.111111 Sat Apr  6 05:31:22 2002
14.444445 Sat Apr  6 06:01:23 2002
14.444445 Sat Apr  6 06:31:36 2002
14.000000 Sat Apr  6 07:01:05 2002
14.222222 Sat Apr  6 07:31:16 2002
13.777778 Sat Apr  6 08:01:04 2002
14.000000 Sat Apr  6 08:31:10 2002
14.222222 Sat Apr  6 09:01:07 2002
16.000000 Sat Apr  6 09:31:12 2002
17.333334 Sat Apr  6 10:01:08 2002
17.555555 Sat Apr  6 10:31:11 2002
18.222221 Sat Apr  6 11:01:08 2002
18.222221 Sat Apr  6 11:31:15 2002
18.222221 Sat Apr  6 12:01:19 2002
17.777779 Sat Apr  6 12:31:26 2002
16.888889 Sat Apr  6 13:01:05 2002
16.222221 Sat Apr  6 13:31:13 2002
16.444445 Sat Apr  6 14:01:07 2002
16.000000 Sat Apr  6 14:31:11 2002
16.222221 Sat Apr  6 15:01:08 2002
16.222221 Sat Apr  6 15:31:11 2002
16.000000 Sat Apr  6 16:01:08 2002
16.222221 Sat Apr  6 16:31:16 2002
16.222221 Sat Apr  6 17:01:04 2002
16.000000 Sat Apr  6 17:31:07 2002
16.222221 Sat Apr  6 18:01:05 2002
16.222221 Sat Apr  6 18:31:08 2002
16.000000 Sat Apr  6 19:01:19 2002
16.222221 Sat Apr  6 19:31:24 2002
15.777778 Sat Apr  6 20:01:07 2002
15.777778 Sat Apr  6 20:31:11 2002
17.333334 Sat Apr  6 21:01:06 2002
17.777779 Sat Apr  6 21:31:14 2002
18.000000 Sat Apr  6 22:01:09 2002
17.333334 Sat Apr  6 22:31:17 2002
16.888889 Sat Apr  6 23:01:26 2002
16.666666 Sat Apr  6 23:31:37 2002
16.000000 Sun Apr  7 00:01:04 2002
16.222221 Sun Apr  7 00:31:10 2002
16.222221 Sun Apr  7 01:01:05 2002
16.222221 Sun Apr  7 01:31:08 2002
16.222221 Sun Apr  7 02:01:25 2002
16.222221 Sun Apr  7 02:31:28 2002
15.777778 Sun Apr  7 03:01:13 2002
15.777778 Sun Apr  7 03:31:16 2002
15.555555 Sun Apr  7 04:01:04 2002
15.555555 Sun Apr  7 04:31:10 2002
15.333333 Sun Apr  7 05:01:05 2002
15.333333 Sun Apr  7 05:31:15 2002
15.111111 Sun Apr  7 06:01:08 2002
15.111111 Sun Apr  7 06:31:15 2002
15.111111 Sun Apr  7 07:01:03 2002
15.111111 Sun Apr  7 07:31:19 2002
15.111111 Sun Apr  7 08:01:05 2002
14.888889 Sun Apr  7 08:31:08 2002
15.111111 Sun Apr  7 09:01:09 2002
16.444445 Sun Apr  7 09:31:21 2002
17.777779 Sun Apr  7 10:01:07 2002
18.000000 Sun Apr  7 10:31:11 2002
18.444445 Sun Apr  7 11:01:14 2002
18.666666 Sun Apr  7 11:31:19 2002
19.555555 Sun Apr  7 12:01:06 2002
19.333334 Sun Apr  7 12:31:09 2002
18.666666 Sun Apr  7 13:01:18 2002
18.222221 Sun Apr  7 13:31:29 2002
18.222221 Sun Apr  7 14:01:11 2002
17.555555 Sun Apr  7 14:31:30 2002
17.555555 Sun Apr  7 15:01:08 2002
17.777779 Sun Apr  7 15:31:14 2002
17.777779 Sun Apr  7 16:01:17 2002
17.777779 Sun Apr  7 16:31:20 2002
17.555555 Sun Apr  7 17:01:06 2002
17.555555 Sun Apr  7 17:31:09 2002
17.777779 Sun Apr  7 18:01:06 2002
17.333334 Sun Apr  7 18:31:13 2002
17.555555 Sun Apr  7 19:01:18 2002
17.555555 Sun Apr  7 19:31:21 2002
17.333334 Sun Apr  7 20:01:08 2002
17.555555 Sun Apr  7 20:31:15 2002
17.333334 Sun Apr  7 21:01:05 2002
17.333334 Sun Apr  7 21:31:11 2002
17.111111 Sun Apr  7 22:01:08 2002
17.333334 Sun Apr  7 22:31:14 2002
17.111111 Sun Apr  7 23:01:20 2002
17.333334 Sun Apr  7 23:31:28 2002
17.333334 Mon Apr  8 00:01:04 2002
17.333334 Mon Apr  8 00:31:12 2002
17.111111 Mon Apr  8 01:01:03 2002
16.888889 Mon Apr  8 01:31:12 2002
16.666666 Mon Apr  8 02:01:04 2002
16.888889 Mon Apr  8 02:31:20 2002
16.888889 Mon Apr  8 03:01:04 2002
16.666666 Mon Apr  8 03:31:14 2002
16.888889 Mon Apr  8 04:01:03 2002
16.222221 Mon Apr  8 04:31:07 2002
16.444445 Mon Apr  8 05:01:12 2002
16.444445 Mon Apr  8 05:31:18 2002
16.222221 Mon Apr  8 06:01:03 2002
16.222221 Mon Apr  8 06:31:06 2002
16.000000 Mon Apr  8 07:01:04 2002
16.000000 Mon Apr  8 07:31:06 2002
15.777778 Mon Apr  8 08:01:04 2002
15.333333 Mon Apr  8 08:31:07 2002
16.000000 Mon Apr  8 09:01:15 2002
17.111111 Mon Apr  8 09:31:32 2002
18.222221 Mon Apr  8 10:01:06 2002
19.111111 Mon Apr  8 10:31:11 2002
19.555555 Mon Apr  8 11:01:24 2002
19.555555 Mon Apr  8 11:31:28 2002
19.333334 Mon Apr  8 12:01:06 2002
19.111111 Mon Apr  8 12:31:09 2002
18.444445 Mon Apr  8 13:01:12 2002
18.444445 Mon Apr  8 13:31:35 2002
19.777779 Mon Apr  8 14:01:26 2002
17.777779 Mon Apr  8 14:31:30 2002
17.777779 Mon Apr  8 15:01:21 2002
17.777779 Mon Apr  8 15:31:24 2002
17.777779 Mon Apr  8 16:01:07 2002
17.555555 Mon Apr  8 16:31:15 2002
17.777779 Mon Apr  8 17:01:33 2002
17.777779 Mon Apr  8 17:31:36 2002
17.777779 Mon Apr  8 18:01:12 2002
18.222221 Mon Apr  8 18:31:18 2002
17.777779 Mon Apr  8 19:01:06 2002
17.555555 Mon Apr  8 19:31:16 2002
17.555555 Mon Apr  8 20:01:12 2002
17.555555 Mon Apr  8 20:31:20 2002
17.555555 Mon Apr  8 21:01:07 2002
17.777779 Mon Apr  8 21:31:09 2002
17.777779 Mon Apr  8 22:01:17 2002
18.000000 Mon Apr  8 22:31:23 2002
17.777779 Mon Apr  8 23:01:19 2002
17.777779 Mon Apr  8 23:31:26 2002
17.777779 Tue Apr  9 00:01:04 2002
17.555555 Tue Apr  9 00:31:14 2002
17.555555 Tue Apr  9 01:01:07 2002
17.111111 Tue Apr  9 01:31:13 2002
18.000000 Tue Apr  9 02:01:07 2002
17.333334 Tue Apr  9 02:31:19 2002
16.888889 Tue Apr  9 03:01:04 2002
17.333334 Tue Apr  9 03:31:07 2002
16.888889 Tue Apr  9 04:01:03 2002
16.666666 Tue Apr  9 04:31:22 2002
16.666666 Tue Apr  9 05:01:12 2002
16.666666 Tue Apr  9 05:31:21 2002
16.444445 Tue Apr  9 06:01:22 2002
16.222221 Tue Apr  9 06:31:29 2002
16.222221 Tue Apr  9 07:01:04 2002
16.222221 Tue Apr  9 07:31:07 2002
15.777778 Tue Apr  9 08:01:13 2002
16.000000 Tue Apr  9 08:31:26 2002
16.666666 Tue Apr  9 09:01:13 2002
16.666666 Tue Apr  9 09:31:29 2002
16.888889 Tue Apr  9 10:01:03 2002
17.111111 Tue Apr  9 10:31:17 2002
17.111111 Tue Apr  9 11:01:09 2002
17.333334 Tue Apr  9 11:31:13 2002
17.555555 Tue Apr  9 12:01:07 2002
17.777779 Tue Apr  9 12:31:13 2002
17.777779 Tue Apr  9 13:01:13 2002
17.333334 Tue Apr  9 13:31:17 2002
17.777779 Tue Apr  9 14:01:32 2002
17.333334 Tue Apr  9 14:31:47 2002
17.555555 Tue Apr  9 15:01:07 2002
18.000000 Tue Apr  9 15:31:13 2002
17.333334 Tue Apr  9 16:01:03 2002
17.555555 Tue Apr  9 16:31:07 2002
17.333334 Tue Apr  9 17:01:03 2002
17.111111 Tue Apr  9 17:31:37 2002
17.333334 Tue Apr  9 18:01:03 2002
17.111111 Tue Apr  9 18:31:12 2002
17.111111 Tue Apr  9 19:01:05 2002
17.111111 Tue Apr  9 19:31:12 2002
17.111111 Tue Apr  9 20:01:06 2002
17.111111 Tue Apr  9 20:31:11 2002
17.333334 Tue Apr  9 21:01:11 2002
16.888889 Tue Apr  9 21:31:23 2002
16.888889 Tue Apr  9 22:01:06 2002
16.888889 Tue Apr  9 22:31:13 2002
16.444445 Tue Apr  9 23:01:11 2002
16.888889 Tue Apr  9 23:31:31 2002
16.222221 Wed Apr 10 00:01:06 2002
16.444445 Wed Apr 10 00:31:35 2002
16.222221 Wed Apr 10 01:01:05 2002
16.444445 Wed Apr 10 01:31:15 2002
16.444445 Wed Apr 10 02:01:03 2002
16.222221 Wed Apr 10 02:31:06 2002
16.222221 Wed Apr 10 03:01:05 2002
16.444445 Wed Apr 10 03:31:12 2002
16.000000 Wed Apr 10 04:01:03 2002
16.222221 Wed Apr 10 04:31:06 2002
16.000000 Wed Apr 10 05:01:17 2002
15.777778 Wed Apr 10 05:31:29 2002
15.333333 Wed Apr 10 06:01:07 2002
15.777778 Wed Apr 10 06:31:10 2002
15.777778 Wed Apr 10 07:01:05 2002
15.555555 Wed Apr 10 07:31:09 2002
15.555555 Wed Apr 10 08:01:23 2002
15.333333 Wed Apr 10 08:31:31 2002
15.333333 Wed Apr 10 09:01:04 2002
16.000000 Wed Apr 10 09:31:08 2002
16.888889 Wed Apr 10 10:01:24 2002
17.777779 Wed Apr 10 10:31:34 2002
17.777779 Wed Apr 10 11:01:04 2002
18.000000 Wed Apr 10 11:31:09 2002
18.000000 Wed Apr 10 12:01:13 2002
18.888889 Wed Apr 10 12:31:29 2002
18.444445 Wed Apr 10 13:01:03 2002
18.222221 Wed Apr 10 13:31:28 2002
17.777779 Wed Apr 10 14:01:03 2002
18.000000 Wed Apr 10 14:31:09 2002
17.555555 Wed Apr 10 15:01:03 2002
17.777779 Wed Apr 10 15:31:06 2002
18.000000 Wed Apr 10 16:01:11 2002
17.777779 Wed Apr 10 16:31:22 2002
18.444445 Wed Apr 10 17:01:08 2002
17.777779 Wed Apr 10 17:31:19 2002
18.000000 Wed Apr 10 18:01:09 2002
17.777779 Wed Apr 10 18:31:12 2002
18.000000 Wed Apr 10 19:01:11 2002
18.222221 Wed Apr 10 19:31:18 2002
18.000000 Wed Apr 10 20:01:09 2002
17.777779 Wed Apr 10 20:31:13 2002
17.777779 Wed Apr 10 21:01:10 2002
17.777779 Wed Apr 10 21:31:27 2002
18.000000 Wed Apr 10 22:01:11 2002
18.444445 Wed Apr 10 22:31:24 2002
18.000000 Wed Apr 10 23:01:14 2002
18.000000 Wed Apr 10 23:31:20 2002
17.777779 Thu Apr 11 00:01:05 2002
17.777779 Thu Apr 11 00:31:09 2002
17.777779 Thu Apr 11 01:01:07 2002
16.888889 Thu Apr 11 01:31:12 2002
16.888889 Thu Apr 11 02:01:03 2002
16.444445 Thu Apr 11 02:31:08 2002
16.222221 Thu Apr 11 03:01:04 2002
16.222221 Thu Apr 11 03:31:20 2002
16.222221 Thu Apr 11 04:01:08 2002
16.000000 Thu Apr 11 04:31:20 2002
16.222221 Thu Apr 11 05:01:15 2002
16.000000 Thu Apr 11 05:31:19 2002
15.777778 Thu Apr 11 06:01:16 2002
16.222221 Thu Apr 11 06:31:31 2002
16.000000 Thu Apr 11 07:01:14 2002
15.333333 Thu Apr 11 07:31:17 2002
15.333333 Thu Apr 11 08:01:07 2002
15.555555 Thu Apr 11 08:31:13 2002
15.777778 Thu Apr 11 09:01:05 2002
16.444445 Thu Apr 11 09:31:14 2002
17.555555 Thu Apr 11 10:01:05 2002
18.222221 Thu Apr 11 10:31:15 2002
18.666666 Thu Apr 11 11:01:10 2002
18.666666 Thu Apr 11 11:31:15 2002
18.222221 Thu Apr 11 12:01:12 2002
18.000000 Thu Apr 11 12:31:20 2002
17.777779 Thu Apr 11 13:01:03 2002
17.777779 Thu Apr 11 13:31:12 2002
17.333334 Thu Apr 11 14:01:09 2002
17.333334 Thu Apr 11 14:31:16 2002
17.777779 Thu Apr 11 15:01:03 2002
17.333334 Thu Apr 11 15:31:19 2002
17.333334 Thu Apr 11 16:01:13 2002
17.333334 Thu Apr 11 16:31:19 2002
17.111111 Thu Apr 11 17:01:24 2002
16.888889 Thu Apr 11 17:31:28 2002
17.111111 Thu Apr 11 18:01:09 2002
17.111111 Thu Apr 11 18:31:13 2002
18.000000 Thu Apr 11 19:01:07 2002
16.888889 Thu Apr 11 19:31:12 2002
16.888889 Thu Apr 11 20:01:07 2002
17.333334 Thu Apr 11 20:31:15 2002
16.888889 Thu Apr 11 21:01:33 2002
16.888889 Thu Apr 11 21:31:40 2002
17.111111 Thu Apr 11 22:01:15 2002
17.111111 Thu Apr 11 22:31:30 2002
17.111111 Thu Apr 11 23:01:03 2002
16.888889 Thu Apr 11 23:31:19 2002
16.888889 Fri Apr 12 00:01:19 2002
16.666666 Fri Apr 12 00:31:46 2002
16.666666 Fri Apr 12 01:01:06 2002
16.222221 Fri Apr 12 01:31:09 2002
16.444445 Fri Apr 12 02:01:05 2002
16.222221 Fri Apr 12 02:31:12 2002
16.222221 Fri Apr 12 03:01:11 2002
16.000000 Fri Apr 12 03:31:16 2002
16.222221 Fri Apr 12 04:01:07 2002
16.000000 Fri Apr 12 04:31:12 2002
16.000000 Fri Apr 12 05:01:05 2002
16.000000 Fri Apr 12 05:31:11 2002
15.777778 Fri Apr 12 06:01:11 2002
15.777778 Fri Apr 12 06:31:13 2002
15.555555 Fri Apr 12 07:01:03 2002
15.333333 Fri Apr 12 07:31:09 2002
15.555555 Fri Apr 12 08:01:14 2002
15.777778 Fri Apr 12 08:31:20 2002
16.000000 Fri Apr 12 09:01:05 2002
16.666666 Fri Apr 12 09:31:16 2002
17.555555 Fri Apr 12 10:01:11 2002
18.000000 Fri Apr 12 10:31:31 2002
18.888889 Fri Apr 12 11:01:07 2002
18.444445 Fri Apr 12 11:31:16 2002
18.444445 Fri Apr 12 12:01:03 2002
18.666666 Fri Apr 12 12:31:19 2002
18.000000 Fri Apr 12 13:01:04 2002
17.777779 Fri Apr 12 13:31:17 2002
18.000000 Fri Apr 12 14:01:06 2002
17.777779 Fri Apr 12 14:31:08 2002
17.555555 Fri Apr 12 15:01:08 2002
17.333334 Fri Apr 12 15:31:14 2002
17.111111 Fri Apr 12 16:01:04 2002
17.111111 Fri Apr 12 16:31:18 2002
17.111111 Fri Apr 12 17:01:16 2002
16.888889 Fri Apr 12 17:31:23 2002
17.111111 Fri Apr 12 18:01:05 2002
16.888889 Fri Apr 12 18:31:13 2002
16.888889 Fri Apr 12 19:01:05 2002
17.111111 Fri Apr 12 19:31:11 2002
17.111111 Fri Apr 12 20:01:06 2002
16.666666 Fri Apr 12 20:31:14 2002
17.111111 Fri Apr 12 21:01:07 2002
16.666666 Fri Apr 12 21:31:10 2002
16.888889 Fri Apr 12 22:01:12 2002
16.444445 Fri Apr 12 22:31:23 2002
16.222221 Fri Apr 12 23:01:08 2002
16.444445 Fri Apr 12 23:31:14 2002
16.444445 Sat Apr 13 00:01:07 2002
16.444445 Sat Apr 13 00:31:13 2002
16.222221 Sat Apr 13 01:01:05 2002
16.222221 Sat Apr 13 01:31:07 2002
16.000000 Sat Apr 13 02:01:25 2002
16.222221 Sat Apr 13 02:31:28 2002
16.000000 Sat Apr 13 03:01:03 2002
16.000000 Sat Apr 13 03:31:06 2002
16.000000 Sat Apr 13 04:01:06 2002
15.777778 Sat Apr 13 04:31:12 2002
16.222221 Sat Apr 13 05:01:12 2002
15.777778 Sat Apr 13 05:31:15 2002
15.777778 Sat Apr 13 06:01:03 2002
15.555555 Sat Apr 13 06:31:05 2002
15.777778 Sat Apr 13 07:01:06 2002
15.777778 Sat Apr 13 07:31:15 2002
15.333333 Sat Apr 13 08:01:19 2002
15.555555 Sat Apr 13 08:31:27 2002
15.111111 Sat Apr 13 09:01:04 2002
15.333333 Sat Apr 13 09:31:07 2002
15.333333 Sat Apr 13 10:01:07 2002
15.555555 Sat Apr 13 10:31:27 2002
15.555555 Sat Apr 13 11:01:03 2002
15.555555 Sat Apr 13 11:31:13 2002
16.000000 Sat Apr 13 12:01:13 2002
15.777778 Sat Apr 13 12:31:18 2002
15.555555 Sat Apr 13 13:01:12 2002
15.777778 Sat Apr 13 13:31:19 2002
15.777778 Sat Apr 13 14:01:05 2002
16.000000 Sat Apr 13 14:31:10 2002
15.777778 Sat Apr 13 15:01:06 2002
15.777778 Sat Apr 13 15:31:09 2002
16.222221 Sat Apr 13 16:01:05 2002
16.000000 Sat Apr 13 16:31:14 2002
16.000000 Sat Apr 13 17:01:03 2002
15.777778 Sat Apr 13 17:31:07 2002
16.000000 Sat Apr 13 18:01:03 2002
15.777778 Sat Apr 13 18:31:06 2002
15.555555 Sat Apr 13 19:01:03 2002
16.222221 Sat Apr 13 19:31:07 2002
15.555555 Sat Apr 13 20:01:08 2002
15.777778 Sat Apr 13 20:31:22 2002
15.555555 Sat Apr 13 21:01:11 2002
15.777778 Sat Apr 13 21:31:15 2002
15.555555 Sat Apr 13 22:01:05 2002
15.555555 Sat Apr 13 22:31:08 2002
15.333333 Sat Apr 13 23:01:04 2002
15.333333 Sat Apr 13 23:31:06 2002
14.888889 Sun Apr 14 00:01:10 2002
15.111111 Sun Apr 14 00:31:13 2002
15.111111 Sun Apr 14 01:01:04 2002
15.333333 Sun Apr 14 01:31:06 2002
15.333333 Sun Apr 14 02:01:11 2002
15.111111 Sun Apr 14 02:31:14 2002
14.888889 Sun Apr 14 03:01:03 2002
14.888889 Sun Apr 14 03:31:06 2002
15.111111 Sun Apr 14 04:01:29 2002
14.666667 Sun Apr 14 04:31:37 2002
15.333333 Sun Apr 14 05:01:06 2002
14.888889 Sun Apr 14 05:31:25 2002
15.111111 Sun Apr 14 06:01:05 2002
14.888889 Sun Apr 14 06:31:08 2002
14.222222 Sun Apr 14 07:01:05 2002
14.666667 Sun Apr 14 07:31:08 2002
14.666667 Sun Apr 14 08:01:06 2002
14.666667 Sun Apr 14 08:31:30 2002
15.333333 Sun Apr 14 09:01:03 2002
15.555555 Sun Apr 14 09:31:20 2002
16.222221 Sun Apr 14 10:01:07 2002
16.666666 Sun Apr 14 10:31:14 2002
17.111111 Sun Apr 14 11:01:12 2002
17.111111 Sun Apr 14 11:31:21 2002
16.666666 Sun Apr 14 12:01:11 2002
16.888889 Sun Apr 14 12:31:19 2002
16.888889 Sun Apr 14 13:01:11 2002
16.444445 Sun Apr 14 13:31:21 2002
16.222221 Sun Apr 14 14:01:12 2002
16.222221 Sun Apr 14 14:31:23 2002
16.222221 Sun Apr 14 15:01:12 2002
16.000000 Sun Apr 14 15:31:25 2002
16.444445 Sun Apr 14 16:01:06 2002
16.666666 Sun Apr 14 16:31:18 2002
16.666666 Sun Apr 14 17:01:04 2002
16.444445 Sun Apr 14 17:31:10 2002
16.666666 Sun Apr 14 18:01:11 2002
16.222221 Sun Apr 14 18:31:17 2002
16.444445 Sun Apr 14 19:01:03 2002
16.222221 Sun Apr 14 19:31:13 2002
16.000000 Sun Apr 14 20:01:08 2002
17.111111 Sun Apr 14 20:31:12 2002
15.777778 Sun Apr 14 21:01:17 2002
16.000000 Sun Apr 14 21:31:27 2002
16.000000 Sun Apr 14 22:01:03 2002
16.222221 Sun Apr 14 22:31:10 2002
15.777778 Sun Apr 14 23:01:08 2002
16.222221 Sun Apr 14 23:31:20 2002
16.000000 Mon Apr 15 00:01:04 2002
16.888889 Mon Apr 15 01:01:10 2002
17.111111 Mon Apr 15 01:31:20 2002
16.888889 Mon Apr 15 02:01:14 2002
16.444445 Mon Apr 15 02:31:22 2002
16.222221 Mon Apr 15 03:01:20 2002
16.000000 Mon Apr 15 03:31:25 2002
16.000000 Mon Apr 15 04:01:04 2002
15.777778 Mon Apr 15 04:31:07 2002
15.555555 Mon Apr 15 05:01:04 2002
15.333333 Mon Apr 15 05:31:09 2002
15.111111 Mon Apr 15 06:01:06 2002
14.888889 Mon Apr 15 06:31:10 2002
15.111111 Mon Apr 15 07:01:05 2002
15.111111 Mon Apr 15 07:31:08 2002
15.111111 Mon Apr 15 08:01:12 2002
15.111111 Mon Apr 15 08:31:31 2002
15.111111 Mon Apr 15 09:01:06 2002
15.111111 Mon Apr 15 09:31:16 2002
15.111111 Mon Apr 15 10:01:21 2002
14.666667 Mon Apr 15 10:31:24 2002
14.888889 Mon Apr 15 11:01:11 2002
15.111111 Mon Apr 15 11:31:14 2002
14.888889 Mon Apr 15 12:01:08 2002
14.666667 Mon Apr 15 12:31:12 2002
14.666667 Mon Apr 15 13:01:15 2002
15.111111 Mon Apr 15 13:31:19 2002
14.666667 Mon Apr 15 14:01:09 2002
15.333333 Mon Apr 15 14:31:22 2002
14.888889 Mon Apr 15 15:01:05 2002
14.666667 Mon Apr 15 15:31:19 2002
15.111111 Mon Apr 15 16:01:03 2002
14.888889 Mon Apr 15 16:31:09 2002
15.111111 Mon Apr 15 17:01:03 2002
15.111111 Mon Apr 15 17:31:15 2002
15.111111 Mon Apr 15 18:01:14 2002
15.111111 Mon Apr 15 18:31:20 2002
14.666667 Mon Apr 15 19:01:03 2002
15.111111 Mon Apr 15 19:31:17 2002
15.111111 Mon Apr 15 20:01:19 2002
14.888889 Mon Apr 15 20:31:22 2002
14.888889 Mon Apr 15 21:01:05 2002
14.888889 Mon Apr 15 21:31:10 2002
14.888889 Mon Apr 15 22:01:10 2002
14.666667 Mon Apr 15 22:31:17 2002
14.666667 Mon Apr 15 23:01:07 2002
15.111111 Mon Apr 15 23:31:10 2002
15.111111 Tue Apr 16 00:01:06 2002
14.888889 Tue Apr 16 00:31:12 2002
14.666667 Tue Apr 16 01:01:06 2002
15.111111 Tue Apr 16 01:31:12 2002
15.111111 Tue Apr 16 02:01:12 2002
14.888889 Tue Apr 16 02:31:20 2002
15.111111 Tue Apr 16 03:01:26 2002
14.666667 Tue Apr 16 03:31:30 2002
14.888889 Tue Apr 16 04:01:10 2002
14.888889 Tue Apr 16 04:31:16 2002
14.666667 Tue Apr 16 05:01:06 2002
14.444445 Tue Apr 16 05:31:15 2002
14.666667 Tue Apr 16 06:01:24 2002
14.666667 Tue Apr 16 06:31:30 2002
14.444445 Tue Apr 16 07:01:04 2002
15.333333 Tue Apr 16 07:31:07 2002
14.666667 Tue Apr 16 08:01:03 2002
14.666667 Tue Apr 16 08:31:07 2002
14.222222 Tue Apr 16 09:01:03 2002
14.666667 Tue Apr 16 09:31:23 2002
14.444445 Tue Apr 16 10:01:16 2002
14.666667 Tue Apr 16 10:31:22 2002
14.222222 Tue Apr 16 11:01:08 2002
14.666667 Tue Apr 16 11:31:11 2002
14.888889 Tue Apr 16 12:01:24 2002
14.444445 Tue Apr 16 12:31:29 2002
14.666667 Tue Apr 16 13:01:05 2002
14.444445 Tue Apr 16 13:31:07 2002
14.666667 Tue Apr 16 14:01:08 2002
14.444445 Tue Apr 16 14:31:11 2002
14.666667 Tue Apr 16 15:01:09 2002
14.888889 Tue Apr 16 15:31:19 2002
14.444445 Tue Apr 16 16:01:11 2002
14.444445 Tue Apr 16 16:31:22 2002
14.444445 Tue Apr 16 17:01:05 2002
14.444445 Tue Apr 16 17:31:11 2002
14.444445 Tue Apr 16 18:01:04 2002
14.000000 Tue Apr 16 18:31:10 2002
14.222222 Tue Apr 16 19:01:06 2002
16.222221 Tue Apr 16 19:31:09 2002
14.444445 Tue Apr 16 20:01:20 2002
14.666667 Tue Apr 16 20:31:25 2002
14.222222 Tue Apr 16 21:01:16 2002
14.666667 Tue Apr 16 21:31:19 2002
14.666667 Tue Apr 16 22:01:15 2002
14.666667 Tue Apr 16 22:31:18 2002
14.666667 Tue Apr 16 23:01:03 2002
14.444445 Tue Apr 16 23:31:12 2002
14.666667 Wed Apr 17 00:01:11 2002
14.666667 Wed Apr 17 00:31:20 2002
14.666667 Wed Apr 17 01:01:05 2002
15.111111 Wed Apr 17 01:31:08 2002
14.888889 Wed Apr 17 02:01:06 2002
15.333333 Wed Apr 17 02:31:11 2002
15.333333 Wed Apr 17 03:01:12 2002
15.333333 Wed Apr 17 03:31:17 2002
15.111111 Wed Apr 17 04:01:13 2002
15.111111 Wed Apr 17 04:31:22 2002
15.333333 Wed Apr 17 05:01:05 2002
15.333333 Wed Apr 17 05:31:08 2002
15.111111 Wed Apr 17 06:01:06 2002
15.111111 Wed Apr 17 06:31:16 2002
14.888889 Wed Apr 17 07:01:06 2002
15.111111 Wed Apr 17 07:31:20 2002
15.333333 Wed Apr 17 08:01:04 2002
15.333333 Wed Apr 17 08:31:16 2002
15.333333 Wed Apr 17 09:01:06 2002
15.777778 Wed Apr 17 09:31:19 2002
16.000000 Wed Apr 17 10:01:04 2002
16.000000 Wed Apr 17 10:31:07 2002
16.666666 Wed Apr 17 11:01:11 2002
17.111111 Wed Apr 17 11:31:14 2002
17.555555 Wed Apr 17 12:01:09 2002
17.777779 Wed Apr 17 12:31:13 2002
17.777779 Wed Apr 17 13:01:03 2002
17.111111 Wed Apr 17 13:31:09 2002
17.111111 Wed Apr 17 14:01:06 2002
17.555555 Wed Apr 17 14:31:10 2002
17.555555 Wed Apr 17 15:01:03 2002
17.333334 Wed Apr 17 15:31:10 2002
17.333334 Wed Apr 17 16:01:06 2002
17.111111 Wed Apr 17 16:31:13 2002
17.111111 Wed Apr 17 17:01:07 2002
17.111111 Wed Apr 17 17:31:12 2002
17.333334 Wed Apr 17 18:01:03 2002
17.111111 Wed Apr 17 18:31:06 2002
17.333334 Wed Apr 17 19:01:17 2002
17.111111 Wed Apr 17 19:31:27 2002
16.888889 Wed Apr 17 20:01:05 2002
17.111111 Wed Apr 17 20:31:23 2002
16.888889 Wed Apr 17 21:01:22 2002
16.888889 Wed Apr 17 21:31:28 2002
16.888889 Wed Apr 17 22:01:03 2002
16.666666 Wed Apr 17 22:31:11 2002
16.888889 Wed Apr 17 23:01:09 2002
18.000000 Wed Apr 17 23:31:12 2002
17.111111 Thu Apr 18 00:01:03 2002
16.888889 Thu Apr 18 00:31:12 2002
16.666666 Thu Apr 18 01:01:07 2002
16.666666 Thu Apr 18 01:31:12 2002
16.888889 Thu Apr 18 02:01:25 2002
16.666666 Thu Apr 18 02:31:29 2002
16.444445 Thu Apr 18 03:01:12 2002
16.666666 Thu Apr 18 03:31:19 2002
16.222221 Thu Apr 18 04:01:06 2002
16.444445 Thu Apr 18 04:31:11 2002
16.444445 Thu Apr 18 05:01:06 2002
16.222221 Thu Apr 18 05:31:09 2002
16.000000 Thu Apr 18 06:01:08 2002
16.000000 Thu Apr 18 06:31:15 2002
16.000000 Thu Apr 18 07:01:06 2002
16.222221 Thu Apr 18 07:31:13 2002
16.222221 Thu Apr 18 08:01:09 2002
16.666666 Thu Apr 18 08:31:26 2002
16.444445 Thu Apr 18 09:01:04 2002
17.111111 Thu Apr 18 09:31:13 2002
18.000000 Thu Apr 18 10:01:08 2002
18.222221 Thu Apr 18 10:31:11 2002
18.222221 Thu Apr 18 11:01:04 2002
17.333334 Thu Apr 18 11:31:16 2002
17.555555 Thu Apr 18 12:01:06 2002
17.111111 Thu Apr 18 12:31:23 2002
17.555555 Thu Apr 18 13:01:03 2002
17.333334 Thu Apr 18 13:31:15 2002
17.555555 Thu Apr 18 14:01:09 2002
16.888889 Thu Apr 18 14:31:14 2002
16.888889 Thu Apr 18 15:01:16 2002
17.333334 Thu Apr 18 15:31:42 2002
17.111111 Thu Apr 18 16:01:03 2002
16.888889 Thu Apr 18 16:31:06 2002
16.888889 Thu Apr 18 17:01:03 2002
16.888889 Thu Apr 18 17:31:06 2002
17.111111 Thu Apr 18 18:01:09 2002
16.888889 Thu Apr 18 18:31:19 2002
16.444445 Thu Apr 18 19:01:07 2002
16.666666 Thu Apr 18 19:31:16 2002
16.444445 Thu Apr 18 20:01:22 2002
16.666666 Thu Apr 18 20:31:36 2002
16.888889 Thu Apr 18 21:01:06 2002
16.444445 Thu Apr 18 21:31:16 2002
16.000000 Thu Apr 18 22:01:10 2002
16.222221 Thu Apr 18 22:31:22 2002
16.444445 Thu Apr 18 23:01:18 2002
16.666666 Thu Apr 18 23:31:24 2002
16.222221 Fri Apr 19 00:01:08 2002
16.222221 Fri Apr 19 00:31:22 2002
16.000000 Fri Apr 19 01:01:03 2002
16.000000 Fri Apr 19 01:31:20 2002
16.000000 Fri Apr 19 02:01:23 2002
15.777778 Fri Apr 19 02:31:31 2002
16.222221 Fri Apr 19 03:01:10 2002
16.222221 Fri Apr 19 03:31:26 2002
15.777778 Fri Apr 19 04:01:03 2002
15.333333 Fri Apr 19 04:31:16 2002
15.333333 Fri Apr 19 05:01:11 2002
15.555555 Fri Apr 19 05:31:14 2002
15.555555 Fri Apr 19 06:01:05 2002
15.111111 Fri Apr 19 06:31:16 2002
15.111111 Fri Apr 19 07:01:20 2002
14.666667 Fri Apr 19 07:31:24 2002
14.666667 Fri Apr 19 08:01:04 2002
15.111111 Fri Apr 19 08:31:13 2002
15.111111 Fri Apr 19 09:01:03 2002
15.555555 Fri Apr 19 09:31:11 2002
16.888889 Fri Apr 19 10:01:19 2002
18.000000 Fri Apr 19 10:31:28 2002
18.222221 Fri Apr 19 11:01:11 2002
18.000000 Fri Apr 19 11:31:33 2002
17.555555 Fri Apr 19 12:01:12 2002
17.555555 Fri Apr 19 12:31:24 2002
16.888889 Fri Apr 19 13:01:15 2002
16.666666 Fri Apr 19 13:31:29 2002
16.888889 Fri Apr 19 14:01:11 2002
16.888889 Fri Apr 19 14:31:14 2002
17.111111 Fri Apr 19 15:01:10 2002
17.333334 Fri Apr 19 15:31:16 2002
16.888889 Fri Apr 19 16:01:03 2002
17.111111 Fri Apr 19 16:31:09 2002
17.111111 Fri Apr 19 17:01:03 2002
16.888889 Fri Apr 19 17:31:09 2002
16.888889 Fri Apr 19 18:01:03 2002
17.111111 Fri Apr 19 18:31:09 2002
16.888889 Fri Apr 19 19:01:03 2002
16.888889 Fri Apr 19 19:31:08 2002
16.666666 Fri Apr 19 20:01:13 2002
16.666666 Fri Apr 19 20:31:18 2002
17.111111 Fri Apr 19 21:01:08 2002
16.444445 Fri Apr 19 21:31:28 2002
16.888889 Fri Apr 19 22:01:15 2002
16.444445 Fri Apr 19 22:31:21 2002
16.444445 Fri Apr 19 23:01:05 2002
16.444445 Fri Apr 19 23:31:13 2002
16.000000 Sat Apr 20 00:01:03 2002
16.222221 Sat Apr 20 00:31:09 2002
16.000000 Sat Apr 20 01:01:09 2002
16.000000 Sat Apr 20 01:31:11 2002
15.777778 Sat Apr 20 02:01:03 2002
16.222221 Sat Apr 20 02:31:10 2002
15.555555 Sat Apr 20 03:01:03 2002
15.777778 Sat Apr 20 03:31:07 2002
15.555555 Sat Apr 20 04:01:07 2002
15.555555 Sat Apr 20 04:31:28 2002
15.555555 Sat Apr 20 05:01:05 2002
15.333333 Sat Apr 20 05:31:16 2002
15.111111 Sat Apr 20 06:01:03 2002
14.888889 Sat Apr 20 06:31:16 2002
15.555555 Sat Apr 20 07:01:18 2002
15.111111 Sat Apr 20 07:31:21 2002
15.111111 Sat Apr 20 08:01:05 2002
15.333333 Sat Apr 20 08:31:15 2002
15.111111 Sat Apr 20 09:01:03 2002
15.111111 Sat Apr 20 09:31:10 2002
15.111111 Sat Apr 20 10:01:19 2002
15.333333 Sat Apr 20 10:31:25 2002
15.333333 Sat Apr 20 11:01:04 2002
15.555555 Sat Apr 20 11:31:07 2002
15.333333 Sat Apr 20 12:01:15 2002
15.111111 Sat Apr 20 12:31:18 2002
15.111111 Sat Apr 20 13:01:03 2002
15.555555 Sat Apr 20 13:31:06 2002
15.555555 Sat Apr 20 14:01:10 2002
15.555555 Sat Apr 20 14:31:19 2002
15.777778 Sat Apr 20 15:01:09 2002
16.000000 Sat Apr 20 15:31:29 2002
16.000000 Sat Apr 20 16:01:05 2002
15.555555 Sat Apr 20 16:31:24 2002
16.000000 Sat Apr 20 17:01:12 2002
15.777778 Sat Apr 20 17:31:22 2002
16.000000 Sat Apr 20 18:01:08 2002
15.777778 Sat Apr 20 18:31:18 2002
16.222221 Sat Apr 20 19:01:03 2002
16.000000 Sat Apr 20 19:31:16 2002
15.555555 Sat Apr 20 20:01:11 2002
15.555555 Sat Apr 20 20:31:14 2002
15.555555 Sat Apr 20 21:01:07 2002
15.777778 Sat Apr 20 21:31:10 2002
15.555555 Sat Apr 20 22:01:15 2002
15.555555 Sat Apr 20 22:31:22 2002
15.333333 Sat Apr 20 23:01:03 2002
15.333333 Sat Apr 20 23:31:07 2002
15.777778 Sun Apr 21 00:01:16 2002
15.333333 Sun Apr 21 00:31:19 2002
15.111111 Sun Apr 21 01:01:10 2002
15.111111 Sun Apr 21 01:31:20 2002
14.666667 Sun Apr 21 02:01:10 2002
14.888889 Sun Apr 21 02:31:17 2002
14.666667 Sun Apr 21 03:01:05 2002
15.111111 Sun Apr 21 03:31:29 2002
14.666667 Sun Apr 21 04:01:07 2002
15.111111 Sun Apr 21 04:31:22 2002
14.444445 Sun Apr 21 05:01:04 2002
14.222222 Sun Apr 21 05:31:11 2002
14.666667 Sun Apr 21 06:01:03 2002
14.222222 Sun Apr 21 06:31:12 2002
14.666667 Sun Apr 21 07:01:07 2002
14.222222 Sun Apr 21 07:31:10 2002
14.444445 Sun Apr 21 08:01:03 2002
14.666667 Sun Apr 21 08:31:31 2002
14.888889 Sun Apr 21 09:01:06 2002
16.222221 Sun Apr 21 09:31:19 2002
16.888889 Sun Apr 21 10:01:04 2002
17.333334 Sun Apr 21 10:31:10 2002
17.777779 Sun Apr 21 11:01:13 2002
18.222221 Sun Apr 21 11:31:18 2002
18.000000 Sun Apr 21 12:01:03 2002
18.000000 Sun Apr 21 12:31:09 2002
17.333334 Sun Apr 21 13:01:04 2002
17.333334 Sun Apr 21 13:31:11 2002
17.111111 Sun Apr 21 14:01:05 2002
17.333334 Sun Apr 21 14:31:24 2002
17.555555 Sun Apr 21 15:01:03 2002
17.555555 Sun Apr 21 15:31:28 2002
17.111111 Sun Apr 21 16:01:05 2002
17.333334 Sun Apr 21 16:31:09 2002
17.333334 Sun Apr 21 17:01:04 2002
17.111111 Sun Apr 21 17:31:09 2002
17.333334 Sun Apr 21 18:01:08 2002
17.333334 Sun Apr 21 18:31:18 2002
17.111111 Sun Apr 21 19:01:09 2002
17.333334 Sun Apr 21 19:31:20 2002
17.333334 Sun Apr 21 20:01:03 2002
17.111111 Sun Apr 21 20:31:14 2002
17.111111 Sun Apr 21 21:01:12 2002
17.111111 Sun Apr 21 21:31:15 2002
17.111111 Sun Apr 21 22:01:06 2002
16.888889 Sun Apr 21 22:31:10 2002
17.111111 Sun Apr 21 23:01:06 2002
16.888889 Sun Apr 21 23:31:14 2002
16.888889 Mon Apr 22 00:01:09 2002
16.666666 Mon Apr 22 00:31:12 2002
16.888889 Mon Apr 22 01:01:04 2002
16.444445 Mon Apr 22 01:31:07 2002
16.666666 Mon Apr 22 02:01:25 2002
16.666666 Mon Apr 22 02:31:32 2002
16.666666 Mon Apr 22 03:01:11 2002
16.666666 Mon Apr 22 03:31:20 2002
16.444445 Mon Apr 22 04:01:09 2002
16.222221 Mon Apr 22 04:31:12 2002
15.777778 Mon Apr 22 05:01:09 2002
16.222221 Mon Apr 22 05:31:14 2002
16.222221 Mon Apr 22 06:01:03 2002
16.000000 Mon Apr 22 06:31:21 2002
15.777778 Mon Apr 22 07:01:10 2002
15.777778 Mon Apr 22 07:31:14 2002
16.000000 Mon Apr 22 08:01:03 2002
16.222221 Mon Apr 22 08:31:10 2002
16.222221 Mon Apr 22 09:01:03 2002
17.111111 Mon Apr 22 09:31:15 2002
17.333334 Mon Apr 22 10:01:22 2002
17.111111 Mon Apr 22 10:31:30 2002
17.111111 Mon Apr 22 11:01:03 2002
17.111111 Mon Apr 22 11:31:06 2002
17.111111 Mon Apr 22 12:01:10 2002
17.555555 Mon Apr 22 12:31:13 2002
17.333334 Mon Apr 22 13:01:23 2002
17.555555 Mon Apr 22 13:31:26 2002
17.555555 Mon Apr 22 14:01:04 2002
17.555555 Mon Apr 22 14:31:22 2002
17.777779 Mon Apr 22 15:01:03 2002
17.777779 Mon Apr 22 15:31:06 2002
18.000000 Mon Apr 22 16:01:08 2002
17.777779 Mon Apr 22 16:31:19 2002
17.777779 Mon Apr 22 17:01:03 2002
17.777779 Mon Apr 22 17:31:13 2002
17.777779 Mon Apr 22 18:01:04 2002
17.777779 Mon Apr 22 18:31:14 2002
17.777779 Mon Apr 22 19:01:05 2002
18.000000 Mon Apr 22 19:31:09 2002
17.777779 Mon Apr 22 20:01:12 2002
17.777779 Mon Apr 22 20:31:15 2002
18.000000 Mon Apr 22 21:01:08 2002
17.777779 Mon Apr 22 21:31:13 2002
17.777779 Mon Apr 22 22:01:03 2002
17.777779 Mon Apr 22 22:31:06 2002
17.777779 Mon Apr 22 23:01:04 2002
17.333334 Mon Apr 22 23:31:07 2002
17.777779 Tue Apr 23 00:01:10 2002
17.777779 Tue Apr 23 00:31:17 2002
18.000000 Tue Apr 23 01:01:06 2002
18.000000 Tue Apr 23 01:31:13 2002
17.777779 Tue Apr 23 02:01:08 2002
17.555555 Tue Apr 23 02:31:12 2002
17.777779 Tue Apr 23 03:01:06 2002
17.333334 Tue Apr 23 03:31:09 2002
17.333334 Tue Apr 23 04:01:04 2002
17.333334 Tue Apr 23 04:31:07 2002
17.555555 Tue Apr 23 05:01:08 2002
17.333334 Tue Apr 23 05:31:18 2002
17.555555 Tue Apr 23 06:01:11 2002
17.333334 Tue Apr 23 06:31:25 2002
17.111111 Tue Apr 23 07:01:12 2002
17.333334 Tue Apr 23 07:31:15 2002
16.888889 Tue Apr 23 08:01:07 2002
17.333334 Tue Apr 23 08:31:29 2002
17.777779 Tue Apr 23 09:01:08 2002
18.222221 Tue Apr 23 09:31:26 2002
18.222221 Tue Apr 23 10:01:08 2002
18.888889 Tue Apr 23 10:31:13 2002
18.888889 Tue Apr 23 11:01:14 2002
19.111111 Tue Apr 23 11:31:21 2002
19.111111 Tue Apr 23 12:01:06 2002
18.888889 Tue Apr 23 12:31:13 2002
18.888889 Tue Apr 23 13:01:06 2002
18.666666 Tue Apr 23 13:31:26 2002
19.111111 Tue Apr 23 14:01:11 2002
18.888889 Tue Apr 23 14:31:19 2002
19.777779 Tue Apr 23 15:01:07 2002
19.333334 Tue Apr 23 15:31:10 2002
18.888889 Tue Apr 23 16:01:03 2002
19.333334 Tue Apr 23 16:31:11 2002
19.111111 Tue Apr 23 17:01:08 2002
19.111111 Tue Apr 23 17:31:25 2002
18.888889 Tue Apr 23 18:01:05 2002
19.111111 Tue Apr 23 18:31:09 2002
19.111111 Tue Apr 23 19:01:09 2002
18.888889 Tue Apr 23 19:31:14 2002
18.666666 Tue Apr 23 20:01:12 2002
18.888889 Tue Apr 23 20:31:19 2002
18.666666 Tue Apr 23 21:01:03 2002
17.777779 Tue Apr 23 21:31:07 2002
18.444445 Tue Apr 23 22:01:04 2002
18.666666 Tue Apr 23 22:31:06 2002
18.666666 Tue Apr 23 23:01:09 2002
18.222221 Tue Apr 23 23:31:15 2002
18.444445 Wed Apr 24 00:01:09 2002
18.888889 Wed Apr 24 00:31:13 2002
18.666666 Wed Apr 24 01:01:15 2002
18.666666 Wed Apr 24 01:31:17 2002
18.444445 Wed Apr 24 02:01:04 2002
18.666666 Wed Apr 24 02:31:08 2002
18.444445 Wed Apr 24 03:01:03 2002
18.444445 Wed Apr 24 03:31:16 2002
18.444445 Wed Apr 24 04:01:25 2002
18.666666 Wed Apr 24 04:31:29 2002
18.000000 Wed Apr 24 05:01:03 2002
18.000000 Wed Apr 24 05:31:08 2002
17.777779 Wed Apr 24 06:01:03 2002
18.000000 Wed Apr 24 06:31:07 2002
17.777779 Wed Apr 24 07:01:04 2002
17.777779 Wed Apr 24 07:31:10 2002
18.222221 Wed Apr 24 08:01:19 2002
17.777779 Wed Apr 24 08:31:26 2002
17.777779 Wed Apr 24 09:01:05 2002
18.000000 Wed Apr 24 09:31:31 2002
17.777779 Wed Apr 24 10:01:09 2002
18.444445 Wed Apr 24 10:31:13 2002
18.444445 Wed Apr 24 11:01:04 2002
19.111111 Wed Apr 24 11:31:12 2002
19.111111 Wed Apr 24 12:01:03 2002
19.111111 Wed Apr 24 12:31:11 2002
19.111111 Wed Apr 24 13:01:05 2002
18.888889 Wed Apr 24 13:31:15 2002
18.888889 Wed Apr 24 14:01:06 2002
19.333334 Wed Apr 24 14:31:19 2002
19.111111 Wed Apr 24 15:01:03 2002
19.111111 Wed Apr 24 15:31:20 2002
19.555555 Wed Apr 24 16:01:08 2002
19.555555 Wed Apr 24 16:31:19 2002
19.333334 Wed Apr 24 17:01:06 2002
19.333334 Wed Apr 24 17:31:09 2002
20.000000 Wed Apr 24 18:01:04 2002
19.555555 Wed Apr 24 18:31:07 2002
19.555555 Wed Apr 24 19:01:06 2002
19.777779 Wed Apr 24 19:31:11 2002
19.555555 Wed Apr 24 20:01:07 2002
19.555555 Wed Apr 24 20:31:24 2002
19.111111 Wed Apr 24 21:01:11 2002
19.111111 Wed Apr 24 21:31:14 2002
19.777779 Wed Apr 24 22:01:06 2002
19.111111 Wed Apr 24 22:31:09 2002
19.333334 Wed Apr 24 23:01:09 2002
19.111111 Wed Apr 24 23:31:17 2002
19.111111 Thu Apr 25 00:01:03 2002
18.666666 Thu Apr 25 00:31:07 2002
18.666666 Thu Apr 25 01:01:22 2002
18.444445 Thu Apr 25 01:31:29 2002
18.666666 Thu Apr 25 02:01:03 2002
18.222221 Thu Apr 25 02:31:06 2002
18.222221 Thu Apr 25 03:01:03 2002
18.000000 Thu Apr 25 03:31:09 2002
18.222221 Thu Apr 25 04:01:03 2002
18.000000 Thu Apr 25 04:31:07 2002
18.000000 Thu Apr 25 05:01:06 2002
18.000000 Thu Apr 25 05:31:11 2002
18.000000 Thu Apr 25 06:01:08 2002
18.000000 Thu Apr 25 06:31:17 2002
18.222221 Thu Apr 25 07:01:36 2002
18.222221 Thu Apr 25 07:31:43 2002
18.222221 Thu Apr 25 08:01:06 2002
18.444445 Thu Apr 25 08:31:19 2002
18.222221 Thu Apr 25 09:01:13 2002
19.333334 Thu Apr 25 09:31:22 2002
19.111111 Thu Apr 25 10:01:19 2002
19.555555 Thu Apr 25 10:31:31 2002
20.000000 Thu Apr 25 11:01:07 2002
19.555555 Thu Apr 25 11:31:20 2002
19.555555 Thu Apr 25 12:01:03 2002
19.777779 Thu Apr 25 12:31:10 2002
19.777779 Thu Apr 25 13:01:05 2002
19.777779 Thu Apr 25 13:31:24 2002
19.777779 Thu Apr 25 14:01:06 2002
19.333334 Thu Apr 25 14:31:19 2002
19.555555 Thu Apr 25 15:01:06 2002
19.777779 Thu Apr 25 15:31:19 2002
19.777779 Thu Apr 25 16:01:03 2002
19.555555 Thu Apr 25 16:31:06 2002
19.555555 Thu Apr 25 17:01:03 2002
19.555555 Thu Apr 25 17:31:06 2002
19.777779 Thu Apr 25 18:01:04 2002
19.777779 Thu Apr 25 18:31:08 2002
19.777779 Thu Apr 25 19:01:09 2002
19.333334 Thu Apr 25 19:31:24 2002
19.333334 Thu Apr 25 20:01:06 2002
19.333334 Thu Apr 25 20:31:15 2002
19.555555 Thu Apr 25 21:01:07 2002
18.888889 Thu Apr 25 21:31:10 2002
19.111111 Thu Apr 25 22:01:06 2002
18.888889 Thu Apr 25 22:31:12 2002
18.888889 Thu Apr 25 23:01:04 2002
18.888889 Thu Apr 25 23:31:13 2002
18.666666 Fri Apr 26 00:01:05 2002
18.888889 Fri Apr 26 00:31:08 2002
18.666666 Fri Apr 26 01:01:06 2002
18.222221 Fri Apr 26 01:31:16 2002
18.444445 Fri Apr 26 02:01:03 2002
18.000000 Fri Apr 26 02:31:13 2002
18.222221 Fri Apr 26 03:01:03 2002
18.000000 Fri Apr 26 03:31:14 2002
18.000000 Fri Apr 26 04:01:06 2002
18.000000 Fri Apr 26 04:31:15 2002
17.777779 Fri Apr 26 05:01:06 2002
17.555555 Fri Apr 26 05:31:22 2002
17.555555 Fri Apr 26 06:01:03 2002
18.000000 Fri Apr 26 06:31:10 2002
17.333334 Fri Apr 26 07:01:06 2002
17.555555 Fri Apr 26 07:31:12 2002
17.333334 Fri Apr 26 08:01:06 2002
17.555555 Fri Apr 26 08:31:25 2002
17.555555 Fri Apr 26 09:01:06 2002
17.777779 Fri Apr 26 09:31:16 2002
17.333334 Fri Apr 26 10:01:14 2002
16.888889 Fri Apr 26 10:31:27 2002
17.777779 Fri Apr 26 11:01:04 2002
17.777779 Fri Apr 26 11:31:19 2002
18.444445 Fri Apr 26 12:01:05 2002
18.222221 Fri Apr 26 12:31:08 2002
17.777779 Fri Apr 26 13:01:13 2002
17.555555 Fri Apr 26 13:31:22 2002
17.333334 Fri Apr 26 14:01:03 2002
17.333334 Fri Apr 26 14:31:10 2002
17.333334 Fri Apr 26 15:01:03 2002
17.333334 Fri Apr 26 15:31:11 2002
17.555555 Fri Apr 26 16:01:07 2002
17.555555 Fri Apr 26 16:31:10 2002
17.111111 Fri Apr 26 17:01:20 2002
17.333334 Fri Apr 26 17:31:26 2002
18.000000 Fri Apr 26 18:01:16 2002
17.555555 Fri Apr 26 18:31:52 2002
18.000000 Fri Apr 26 19:01:03 2002
17.777779 Fri Apr 26 19:31:09 2002
18.000000 Fri Apr 26 20:01:06 2002
17.777779 Fri Apr 26 20:31:09 2002
16.888889 Fri Apr 26 21:01:04 2002
16.888889 Fri Apr 26 21:31:27 2002
16.888889 Fri Apr 26 22:01:03 2002
16.666666 Fri Apr 26 22:31:06 2002
16.666666 Fri Apr 26 23:01:32 2002
16.444445 Fri Apr 26 23:31:36 2002
16.222221 Sat Apr 27 00:01:10 2002
16.222221 Sat Apr 27 00:31:17 2002
16.444445 Sat Apr 27 01:01:09 2002
16.222221 Sat Apr 27 01:31:19 2002
16.444445 Sat Apr 27 02:01:17 2002
16.000000 Sat Apr 27 02:31:38 2002
16.222221 Sat Apr 27 03:01:05 2002
16.444445 Sat Apr 27 03:31:22 2002
15.777778 Sat Apr 27 04:01:06 2002
16.000000 Sat Apr 27 04:31:23 2002
15.333333 Sat Apr 27 05:01:27 2002
15.555555 Sat Apr 27 05:31:45 2002
15.777778 Sat Apr 27 06:01:03 2002
15.555555 Sat Apr 27 06:31:06 2002
15.111111 Sat Apr 27 07:01:08 2002
15.555555 Sat Apr 27 07:31:18 2002
15.555555 Sat Apr 27 08:01:03 2002
15.555555 Sat Apr 27 08:31:09 2002
16.222221 Sat Apr 27 09:01:08 2002
16.222221 Sat Apr 27 09:31:12 2002
16.000000 Sat Apr 27 10:01:04 2002
16.666666 Sat Apr 27 10:31:12 2002
17.333334 Sat Apr 27 11:01:26 2002
17.111111 Sat Apr 27 11:31:29 2002
16.888889 Sat Apr 27 12:01:12 2002
16.000000 Sat Apr 27 12:31:28 2002
16.444445 Sat Apr 27 13:01:18 2002
16.444445 Sat Apr 27 13:31:21 2002
16.444445 Sat Apr 27 14:01:13 2002
16.222221 Sat Apr 27 14:31:21 2002
16.444445 Sat Apr 27 15:01:07 2002
15.555555 Sat Apr 27 15:31:11 2002
16.222221 Sat Apr 27 16:01:12 2002
16.222221 Sat Apr 27 16:31:15 2002
16.222221 Sat Apr 27 17:01:07 2002
16.222221 Sat Apr 27 17:31:13 2002
16.222221 Sat Apr 27 18:01:06 2002
16.222221 Sat Apr 27 18:31:18 2002
16.222221 Sat Apr 27 19:01:03 2002
15.555555 Sat Apr 27 19:31:10 2002
15.777778 Sat Apr 27 20:01:12 2002
15.555555 Sat Apr 27 20:31:18 2002
15.555555 Sat Apr 27 21:01:03 2002
15.111111 Sat Apr 27 21:31:07 2002
15.555555 Sat Apr 27 22:01:03 2002
15.555555 Sat Apr 27 22:31:15 2002
15.555555 Sat Apr 27 23:01:05 2002
15.555555 Sat Apr 27 23:31:08 2002
15.333333 Sun Apr 28 00:01:07 2002
15.777778 Sun Apr 28 00:31:17 2002
15.555555 Sun Apr 28 01:01:11 2002
15.555555 Sun Apr 28 01:31:39 2002
15.111111 Sun Apr 28 02:01:11 2002
15.333333 Sun Apr 28 02:31:21 2002
15.111111 Sun Apr 28 03:01:03 2002
15.333333 Sun Apr 28 03:31:06 2002
15.111111 Sun Apr 28 04:01:03 2002
15.111111 Sun Apr 28 04:31:06 2002
14.888889 Sun Apr 28 05:01:14 2002
14.666667 Sun Apr 28 05:31:22 2002
15.111111 Sun Apr 28 06:01:09 2002
14.888889 Sun Apr 28 06:31:36 2002
15.111111 Sun Apr 28 07:01:08 2002
14.666667 Sun Apr 28 07:31:13 2002
14.666667 Sun Apr 28 08:01:06 2002
14.666667 Sun Apr 28 08:31:21 2002
14.888889 Sun Apr 28 09:01:06 2002
14.444445 Sun Apr 28 09:31:12 2002
14.222222 Sun Apr 28 10:01:03 2002
14.444445 Sun Apr 28 10:31:17 2002
14.666667 Sun Apr 28 11:01:08 2002
14.666667 Sun Apr 28 11:31:12 2002
14.666667 Sun Apr 28 12:01:04 2002
14.666667 Sun Apr 28 12:31:07 2002
14.222222 Sun Apr 28 13:01:05 2002
14.222222 Sun Apr 28 13:31:09 2002
14.444445 Sun Apr 28 14:01:06 2002
15.111111 Sun Apr 28 14:31:15 2002
14.666667 Sun Apr 28 15:01:08 2002
15.333333 Sun Apr 28 15:31:14 2002
15.555555 Sun Apr 28 16:01:05 2002
15.111111 Sun Apr 28 16:31:21 2002
15.333333 Sun Apr 28 17:01:04 2002
15.333333 Sun Apr 28 17:31:10 2002
15.111111 Sun Apr 28 18:01:13 2002
15.111111 Sun Apr 28 18:31:23 2002
15.111111 Sun Apr 28 19:01:13 2002
15.333333 Sun Apr 28 19:31:16 2002
15.555555 Sun Apr 28 20:01:16 2002
15.111111 Sun Apr 28 20:31:19 2002
15.111111 Sun Apr 28 21:01:12 2002
15.111111 Sun Apr 28 21:31:16 2002
15.111111 Sun Apr 28 22:01:05 2002
15.111111 Sun Apr 28 22:31:19 2002
15.555555 Sun Apr 28 23:01:10 2002
15.111111 Sun Apr 28 23:31:13 2002
15.555555 Mon Apr 29 00:01:16 2002
15.111111 Mon Apr 29 00:31:19 2002
15.333333 Mon Apr 29 01:01:18 2002
15.333333 Mon Apr 29 01:31:26 2002
15.555555 Mon Apr 29 02:01:28 2002
15.555555 Mon Apr 29 02:31:32 2002
15.555555 Mon Apr 29 03:01:16 2002
15.555555 Mon Apr 29 03:31:19 2002
15.777778 Mon Apr 29 04:01:08 2002
15.555555 Mon Apr 29 04:31:21 2002
15.333333 Mon Apr 29 05:01:12 2002
15.555555 Mon Apr 29 05:31:16 2002
15.555555 Mon Apr 29 06:01:03 2002
15.333333 Mon Apr 29 06:31:09 2002
15.555555 Mon Apr 29 07:01:03 2002
15.333333 Mon Apr 29 07:31:08 2002
15.333333 Mon Apr 29 08:01:05 2002
15.555555 Mon Apr 29 08:31:15 2002
15.777778 Mon Apr 29 09:01:03 2002
16.888889 Mon Apr 29 09:31:12 2002
17.111111 Mon Apr 29 10:01:11 2002
17.555555 Mon Apr 29 10:31:15 2002
17.777779 Mon Apr 29 11:01:16 2002
17.555555 Mon Apr 29 11:31:22 2002
16.888889 Mon Apr 29 12:01:04 2002
16.666666 Mon Apr 29 12:31:12 2002
16.444445 Mon Apr 29 13:01:12 2002
16.666666 Mon Apr 29 13:31:15 2002
16.666666 Mon Apr 29 14:01:03 2002
16.666666 Mon Apr 29 14:31:09 2002
17.111111 Mon Apr 29 15:01:03 2002
16.888889 Mon Apr 29 15:31:09 2002
16.888889 Mon Apr 29 16:01:03 2002
17.111111 Mon Apr 29 16:31:10 2002
17.333334 Mon Apr 29 17:01:03 2002
17.111111 Mon Apr 29 17:31:06 2002
17.111111 Mon Apr 29 18:01:10 2002
17.333334 Mon Apr 29 18:31:13 2002
17.333334 Mon Apr 29 19:01:10 2002
17.333334 Mon Apr 29 19:31:22 2002
17.111111 Mon Apr 29 20:01:07 2002
17.333334 Mon Apr 29 20:31:13 2002
17.111111 Mon Apr 29 21:01:07 2002
17.111111 Mon Apr 29 21:31:10 2002
17.111111 Mon Apr 29 22:01:10 2002
44.444443 Mon Apr 29 22:31:11 2002
17.111111 Mon Apr 29 23:01:03 2002
16.666666 Mon Apr 29 23:31:20 2002
16.888889 Tue Apr 30 00:01:05 2002
16.888889 Tue Apr 30 00:31:13 2002
16.666666 Tue Apr 30 01:01:16 2002
16.666666 Tue Apr 30 01:31:45 2002
16.666666 Tue Apr 30 02:01:03 2002
16.666666 Tue Apr 30 02:31:08 2002
16.888889 Tue Apr 30 03:01:05 2002
16.444445 Tue Apr 30 03:31:08 2002
16.666666 Tue Apr 30 04:01:07 2002
16.444445 Tue Apr 30 04:31:10 2002
16.666666 Tue Apr 30 05:01:04 2002
16.222221 Tue Apr 30 05:31:09 2002
16.000000 Tue Apr 30 06:01:05 2002
16.222221 Tue Apr 30 06:31:16 2002
16.000000 Tue Apr 30 07:01:04 2002
16.222221 Tue Apr 30 07:31:08 2002
16.222221 Tue Apr 30 08:01:03 2002
16.444445 Tue Apr 30 08:31:09 2002
16.888889 Tue Apr 30 09:01:18 2002
16.444445 Tue Apr 30 09:31:20 2002
17.333334 Tue Apr 30 10:01:04 2002
17.111111 Tue Apr 30 10:31:30 2002
17.111111 Tue Apr 30 11:01:16 2002
17.111111 Tue Apr 30 11:31:20 2002
16.888889 Tue Apr 30 12:01:03 2002
16.222221 Tue Apr 30 12:31:25 2002
16.666666 Tue Apr 30 13:01:11 2002
16.444445 Tue Apr 30 13:31:17 2002
16.222221 Tue Apr 30 14:01:06 2002
16.444445 Tue Apr 30 14:31:10 2002
16.666666 Tue Apr 30 15:01:03 2002
16.444445 Tue Apr 30 15:31:07 2002
16.666666 Tue Apr 30 16:01:19 2002
16.444445 Tue Apr 30 16:31:26 2002
16.888889 Tue Apr 30 17:01:04 2002
16.666666 Tue Apr 30 17:31:14 2002
16.666666 Tue Apr 30 18:01:03 2002
16.666666 Tue Apr 30 18:31:14 2002
16.444445 Tue Apr 30 19:01:18 2002
16.666666 Tue Apr 30 19:31:28 2002
16.444445 Tue Apr 30 20:01:04 2002
17.111111 Tue Apr 30 20:31:13 2002
16.666666 Tue Apr 30 21:01:06 2002
16.888889 Tue Apr 30 21:31:11 2002
16.444445 Tue Apr 30 22:01:05 2002
16.666666 Tue Apr 30 22:31:09 2002
16.666666 Tue Apr 30 23:01:33 2002
16.888889 Tue Apr 30 23:31:41 2002
16.444445 Wed May  1 00:01:13 2002
16.444445 Wed May  1 00:31:16 2002
16.444445 Wed May  1 01:01:19 2002
16.444445 Wed May  1 01:31:29 2002
16.444445 Wed May  1 02:01:03 2002
16.888889 Wed May  1 02:31:30 2002
16.444445 Wed May  1 03:01:04 2002
16.666666 Wed May  1 03:31:16 2002
16.444445 Wed May  1 04:01:10 2002
16.444445 Wed May  1 04:31:25 2002
16.666666 Wed May  1 05:01:05 2002
16.444445 Wed May  1 05:31:12 2002
16.222221 Wed May  1 06:01:05 2002
16.222221 Wed May  1 06:31:08 2002
16.222221 Wed May  1 07:01:07 2002
16.222221 Wed May  1 07:31:13 2002
16.222221 Wed May  1 08:01:11 2002
16.222221 Wed May  1 08:31:14 2002
16.444445 Wed May  1 09:01:05 2002
17.555555 Wed May  1 09:31:11 2002
17.777779 Wed May  1 10:01:06 2002
18.000000 Wed May  1 10:31:13 2002
18.444445 Wed May  1 11:01:10 2002
18.444445 Wed May  1 11:31:18 2002
18.222221 Wed May  1 12:01:09 2002
18.444445 Wed May  1 12:31:25 2002
18.000000 Wed May  1 13:01:09 2002
18.000000 Wed May  1 13:31:16 2002
17.555555 Wed May  1 14:01:09 2002
17.555555 Wed May  1 14:31:13 2002
17.555555 Wed May  1 15:01:05 2002
17.555555 Wed May  1 15:31:32 2002
17.777779 Wed May  1 16:01:33 2002
17.333334 Wed May  1 16:31:37 2002
17.777779 Wed May  1 17:01:03 2002
17.777779 Wed May  1 17:31:10 2002
17.555555 Wed May  1 18:01:05 2002
17.777779 Wed May  1 18:31:12 2002
17.555555 Wed May  1 19:01:15 2002
17.333334 Wed May  1 19:31:22 2002
17.333334 Wed May  1 20:01:19 2002
17.333334 Wed May  1 20:31:22 2002
17.333334 Wed May  1 21:01:03 2002
17.333334 Wed May  1 21:31:11 2002
17.333334 Wed May  1 22:01:06 2002
17.111111 Wed May  1 22:31:16 2002
16.888889 Wed May  1 23:01:13 2002
17.333334 Wed May  1 23:31:29 2002
17.333334 Thu May  2 00:01:04 2002
17.111111 Thu May  2 00:31:12 2002
16.444445 Thu May  2 01:01:05 2002
16.444445 Thu May  2 01:31:10 2002
16.444445 Thu May  2 02:01:03 2002
16.444445 Thu May  2 02:31:10 2002
16.444445 Thu May  2 03:01:12 2002
16.222221 Thu May  2 03:31:25 2002
16.222221 Thu May  2 04:01:15 2002
16.222221 Thu May  2 04:31:25 2002
16.444445 Thu May  2 05:01:03 2002
16.444445 Thu May  2 05:31:32 2002
16.222221 Thu May  2 06:01:05 2002
16.444445 Thu May  2 06:31:09 2002
16.222221 Thu May  2 07:01:14 2002
16.000000 Thu May  2 07:31:19 2002
16.444445 Thu May  2 08:01:05 2002
16.222221 Thu May  2 08:31:09 2002
16.222221 Thu May  2 09:01:03 2002
16.222221 Thu May  2 09:31:27 2002
16.222221 Thu May  2 10:01:08 2002
16.444445 Thu May  2 10:31:19 2002
17.111111 Thu May  2 11:01:11 2002
17.111111 Thu May  2 11:31:19 2002
16.888889 Thu May  2 12:01:11 2002
16.888889 Thu May  2 12:31:14 2002
17.111111 Thu May  2 13:01:03 2002
17.555555 Thu May  2 13:31:06 2002
17.333334 Thu May  2 14:01:03 2002
17.333334 Thu May  2 14:31:21 2002
17.333334 Thu May  2 15:01:12 2002
17.333334 Thu May  2 15:31:15 2002
17.333334 Thu May  2 16:01:05 2002
17.111111 Thu May  2 16:31:27 2002
17.111111 Thu May  2 17:01:06 2002
17.333334 Thu May  2 17:31:09 2002
17.333334 Thu May  2 18:01:03 2002
17.333334 Thu May  2 18:31:10 2002
17.111111 Thu May  2 19:01:03 2002
17.111111 Thu May  2 19:31:09 2002
17.333334 Thu May  2 20:01:08 2002
17.111111 Thu May  2 20:31:21 2002
17.111111 Thu May  2 21:01:04 2002
16.888889 Thu May  2 21:31:13 2002
16.666666 Thu May  2 22:01:03 2002
16.666666 Thu May  2 22:31:15 2002
17.111111 Thu May  2 23:01:17 2002
16.888889 Thu May  2 23:31:22 2002
16.666666 Fri May  3 00:01:03 2002
16.888889 Fri May  3 00:31:06 2002
16.444445 Fri May  3 01:01:10 2002
16.444445 Fri May  3 01:31:13 2002
16.444445 Fri May  3 02:01:06 2002
16.222221 Fri May  3 02:31:09 2002
16.444445 Fri May  3 03:01:13 2002
16.222221 Fri May  3 03:31:21 2002
16.222221 Fri May  3 04:01:31 2002
16.222221 Fri May  3 04:31:33 2002
16.222221 Fri May  3 05:01:04 2002
16.222221 Fri May  3 05:31:07 2002
16.000000 Fri May  3 06:01:07 2002
16.000000 Fri May  3 06:31:13 2002
16.222221 Fri May  3 07:01:30 2002
15.555555 Fri May  3 07:31:39 2002
16.000000 Fri May  3 08:01:20 2002
16.000000 Fri May  3 08:31:23 2002
16.222221 Fri May  3 09:01:11 2002
15.777778 Fri May  3 09:31:14 2002
16.000000 Fri May  3 10:01:06 2002
17.111111 Fri May  3 11:01:13 2002
15.777778 Fri May  3 11:31:19 2002
15.555555 Fri May  3 12:01:05 2002
15.777778 Fri May  3 12:31:22 2002
15.333333 Fri May  3 13:01:17 2002
15.555555 Fri May  3 13:31:20 2002
15.777778 Fri May  3 14:01:03 2002
44.444443 Fri May  3 16:01:02 2002
44.444443 Fri May  3 16:31:04 2002
44.444443 Fri May  3 17:01:02 2002
44.444443 Fri May  3 17:31:03 2002
44.444443 Fri May  3 18:01:02 2002
44.444443 Fri May  3 18:31:03 2002
44.444443 Fri May  3 19:01:02 2002
44.444443 Fri May  3 19:31:04 2002
44.444443 Fri May  3 20:01:02 2002
44.444443 Fri May  3 20:31:03 2002
44.444443 Fri May  3 21:01:01 2002
44.444443 Fri May  3 21:31:03 2002
44.444443 Fri May  3 22:01:02 2002
44.444443 Fri May  3 22:31:04 2002
44.444443 Fri May  3 23:01:02 2002
44.444443 Fri May  3 23:31:04 2002
44.444443 Sat May  4 00:01:02 2002
44.444443 Sat May  4 00:31:03 2002
44.444443 Sat May  4 01:01:02 2002
44.444443 Sat May  4 01:31:04 2002
44.444443 Sat May  4 02:01:02 2002
44.444443 Sat May  4 02:31:03 2002
44.444443 Sat May  4 03:01:01 2002
44.444443 Sat May  4 03:31:03 2002
44.444443 Sat May  4 04:01:01 2002
44.444443 Sat May  4 04:31:03 2002
44.444443 Sat May  4 05:01:02 2002
44.444443 Sat May  4 05:31:04 2002
44.444443 Sat May  4 06:01:01 2002
44.444443 Sat May  4 06:31:03 2002
44.444443 Sat May  4 07:01:02 2002
44.444443 Sat May  4 07:31:04 2002
44.444443 Sat May  4 08:01:02 2002
44.444443 Sat May  4 08:31:03 2002
44.444443 Sat May  4 09:01:02 2002
44.444443 Sat May  4 09:31:04 2002
44.444443 Sat May  4 10:01:02 2002
44.444443 Sat May  4 10:31:03 2002
44.444443 Sat May  4 11:01:01 2002
44.444443 Sat May  4 11:31:03 2002
44.444443 Sat May  4 12:01:02 2002
44.444443 Sat May  4 12:31:03 2002
44.444443 Sat May  4 13:01:02 2002
44.444443 Sat May  4 13:31:03 2002
44.444443 Sat May  4 14:01:02 2002
44.444443 Sat May  4 14:31:03 2002
44.444443 Sat May  4 15:01:02 2002
44.444443 Sat May  4 15:31:04 2002
44.444443 Sat May  4 16:01:02 2002
44.444443 Sat May  4 16:31:03 2002
44.444443 Sat May  4 17:01:02 2002
44.444443 Sat May  4 17:31:04 2002
44.444443 Sat May  4 18:01:02 2002
44.444443 Sat May  4 18:31:03 2002
44.444443 Sat May  4 19:01:02 2002
44.444443 Sat May  4 19:31:03 2002
44.444443 Sun May  5 15:01:02 2002
44.444443 Sun May  5 15:31:04 2002
44.444443 Sun May  5 16:01:02 2002
44.444443 Sun May  5 16:31:03 2002
44.444443 Sun May  5 17:01:02 2002
44.444443 Sun May  5 17:31:04 2002
44.444443 Sun May  5 18:01:02 2002
44.444443 Sun May  5 18:31:03 2002
44.444443 Sun May  5 19:01:01 2002
44.444443 Sun May  5 19:31:03 2002
44.444443 Sun May  5 20:01:02 2002
44.444443 Sun May  5 20:31:04 2002
44.444443 Sun May  5 21:01:01 2002
44.444443 Sun May  5 21:31:03 2002
44.444443 Sun May  5 22:01:02 2002
44.444443 Sun May  5 22:31:03 2002
44.444443 Sun May  5 23:01:02 2002
44.444443 Sun May  5 23:31:03 2002
44.444443 Mon May  6 00:01:02 2002
44.444443 Mon May  6 00:31:03 2002
44.444443 Mon May  6 01:01:01 2002
44.444443 Mon May  6 01:31:03 2002
44.444443 Mon May  6 02:01:01 2002
44.444443 Mon May  6 02:31:03 2002
44.444443 Mon May  6 03:01:02 2002
44.444443 Mon May  6 03:31:03 2002
44.444443 Mon May  6 04:01:01 2002
44.444443 Mon May  6 04:31:03 2002
44.444443 Mon May  6 05:01:02 2002
44.444443 Mon May  6 05:31:04 2002
44.444443 Mon May  6 06:01:02 2002
44.444443 Mon May  6 06:30:15 2002
44.444443 Mon May  6 06:31:03 2002
44.444443 Mon May  6 07:01:02 2002
44.444443 Mon May  6 07:31:03 2002
44.444443 Mon May  6 08:01:02 2002
44.444443 Mon May  6 08:31:04 2002
44.444443 Mon May  6 09:01:02 2002
44.444443 Mon May  6 09:31:03 2002
44.444443 Mon May  6 10:01:02 2002
44.444443 Mon May  6 10:31:03 2002
44.444443 Mon May  6 11:01:02 2002
44.444443 Mon May  6 11:31:03 2002
44.444443 Mon May  6 12:01:02 2002
44.444443 Mon May  6 12:31:03 2002
44.444443 Mon May  6 13:01:02 2002
44.444443 Mon May  6 13:31:04 2002
44.444443 Mon May  6 14:01:02 2002
44.444443 Mon May  6 14:31:04 2002
44.444443 Mon May  6 15:01:01 2002
44.444443 Mon May  6 15:31:03 2002
44.444443 Mon May  6 16:01:02 2002
44.444443 Mon May  6 16:31:03 2002
44.444443 Mon May  6 17:01:01 2002
44.444443 Mon May  6 17:31:03 2002
44.444443 Mon May  6 18:01:01 2002
44.444443 Mon May  6 18:31:03 2002
44.444443 Mon May  6 19:01:02 2002
44.444443 Mon May  6 19:31:03 2002
44.444443 Mon May  6 20:01:03 2002
44.444443 Mon May  6 20:31:04 2002
44.444443 Mon May  6 21:01:02 2002
44.444443 Mon May  6 21:31:03 2002
44.444443 Mon May  6 22:01:02 2002
44.444443 Mon May  6 22:31:03 2002
44.444443 Mon May  6 23:01:02 2002
44.444443 Mon May  6 23:31:04 2002
44.444443 Tue May  7 00:01:02 2002
44.444443 Tue May  7 00:31:04 2002
44.444443 Tue May  7 01:01:02 2002
44.444443 Tue May  7 01:31:04 2002
44.444443 Tue May  7 02:01:02 2002
44.444443 Tue May  7 02:31:04 2002
44.444443 Tue May  7 03:01:02 2002
44.444443 Tue May  7 03:31:03 2002
44.444443 Tue May  7 04:01:01 2002
44.444443 Tue May  7 04:31:03 2002
44.444443 Tue May  7 05:01:02 2002
44.444443 Tue May  7 05:31:04 2002
44.444443 Tue May  7 06:01:02 2002
44.444443 Tue May  7 06:31:03 2002
44.444443 Tue May  7 07:01:02 2002
44.444443 Tue May  7 07:31:04 2002
44.444443 Tue May  7 08:01:01 2002
44.444443 Tue May  7 08:31:03 2002
44.444443 Tue May  7 09:01:02 2002
44.444443 Tue May  7 09:31:03 2002
44.444443 Tue May  7 10:01:01 2002
44.444443 Tue May  7 10:31:03 2002
44.444443 Tue May  7 11:01:02 2002
44.444443 Tue May  7 11:31:03 2002
44.444443 Tue May  7 12:01:02 2002
44.444443 Tue May  7 12:31:03 2002
44.444443 Tue May  7 13:01:01 2002
44.444443 Tue May  7 13:31:03 2002
44.444443 Tue May  7 14:01:02 2002
44.444443 Tue May  7 14:31:03 2002
44.444443 Tue May  7 15:01:01 2002
44.444443 Tue May  7 15:31:03 2002
44.444443 Tue May  7 16:01:02 2002
44.444443 Tue May  7 16:31:03 2002
44.444443 Tue May  7 17:01:02 2002
44.444443 Tue May  7 17:31:03 2002
44.444443 Tue May  7 18:01:02 2002
44.444443 Tue May  7 18:31:03 2002
44.444443 Tue May  7 19:01:02 2002
44.444443 Tue May  7 19:31:03 2002
44.444443 Tue May  7 20:01:01 2002
44.444443 Tue May  7 20:31:03 2002
44.444443 Tue May  7 21:01:02 2002
44.444443 Tue May  7 21:31:03 2002
44.444443 Tue May  7 22:01:01 2002
44.444443 Tue May  7 22:31:03 2002
44.444443 Tue May  7 23:01:01 2002
44.444443 Tue May  7 23:31:03 2002
44.444443 Wed May  8 00:01:01 2002
44.444443 Wed May  8 00:31:03 2002
44.444443 Wed May  8 01:01:01 2002
44.444443 Wed May  8 01:31:03 2002
44.444443 Wed May  8 02:01:01 2002
44.444443 Wed May  8 02:31:03 2002
44.444443 Wed May  8 03:01:02 2002
44.444443 Wed May  8 03:31:03 2002
44.444443 Wed May  8 04:01:02 2002
44.444443 Wed May  8 04:31:03 2002
44.444443 Wed May  8 05:01:03 2002
44.444443 Wed May  8 05:31:05 2002
44.444443 Wed May  8 06:01:02 2002
44.444443 Wed May  8 06:31:03 2002
44.444443 Wed May  8 07:01:01 2002
44.444443 Wed May  8 07:31:03 2002
44.444443 Wed May  8 08:01:01 2002
44.444443 Wed May  8 08:31:03 2002
44.444443 Wed May  8 09:01:01 2002
44.444443 Wed May  8 09:31:03 2002
44.444443 Wed May  8 10:01:01 2002
44.444443 Wed May  8 10:31:03 2002
44.444443 Wed May  8 11:01:01 2002
44.444443 Wed May  8 11:31:03 2002
44.444443 Wed May  8 12:01:01 2002
44.444443 Wed May  8 12:31:03 2002
44.444443 Wed May  8 13:01:02 2002
44.444443 Wed May  8 13:31:03 2002
44.444443 Wed May  8 14:01:01 2002
44.444443 Wed May  8 14:31:03 2002
44.444443 Wed May  8 15:01:02 2002
44.444443 Wed May  8 15:31:03 2002
44.444443 Wed May  8 16:01:02 2002
44.444443 Wed May  8 16:31:03 2002
44.444443 Wed May  8 17:01:02 2002
44.444443 Wed May  8 17:31:03 2002
44.444443 Wed May  8 18:01:02 2002
44.444443 Wed May  8 18:31:04 2002
44.444443 Wed May  8 19:01:02 2002
44.444443 Wed May  8 19:31:03 2002
44.444443 Wed May  8 20:01:02 2002
44.444443 Wed May  8 20:31:04 2002
44.444443 Wed May  8 21:01:02 2002
44.444443 Wed May  8 21:31:03 2002
44.444443 Wed May  8 22:01:02 2002
44.444443 Wed May  8 22:31:04 2002
44.444443 Wed May  8 23:01:02 2002
44.444443 Wed May  8 23:31:03 2002
44.444443 Thu May  9 00:01:01 2002
44.444443 Thu May  9 00:31:03 2002
44.444443 Thu May  9 01:01:02 2002
44.444443 Thu May  9 01:31:03 2002
44.444443 Thu May  9 02:01:02 2002
44.444443 Thu May  9 02:31:03 2002
44.444443 Thu May  9 03:01:02 2002
44.444443 Thu May  9 03:31:03 2002
44.444443 Thu May  9 04:01:02 2002
44.444443 Thu May  9 04:31:03 2002
44.444443 Thu May  9 05:01:02 2002
44.444443 Thu May  9 05:31:04 2002
44.444443 Thu May  9 06:01:02 2002
44.444443 Thu May  9 06:31:03 2002
44.444443 Thu May  9 07:01:02 2002
44.444443 Thu May  9 07:31:04 2002
44.444443 Thu May  9 08:01:02 2002
44.444443 Thu May  9 08:31:03 2002
44.444443 Thu May  9 09:01:01 2002
44.444443 Thu May  9 09:31:03 2002
44.444443 Thu May  9 10:01:02 2002
44.444443 Thu May  9 10:31:03 2002
44.444443 Thu May  9 11:01:01 2002
44.444443 Thu May  9 11:31:03 2002
44.444443 Thu May  9 12:01:02 2002
44.444443 Thu May  9 12:31:04 2002
44.444443 Thu May  9 13:01:01 2002
44.444443 Thu May  9 13:31:03 2002
44.444443 Thu May  9 14:01:02 2002
44.444443 Thu May  9 14:31:04 2002
44.444443 Thu May  9 15:01:02 2002
44.444443 Thu May  9 15:31:04 2002
44.444443 Thu May  9 16:01:02 2002
44.444443 Thu May  9 16:31:03 2002
44.444443 Thu May  9 17:01:02 2002
44.444443 Thu May  9 17:31:04 2002
44.444443 Thu May  9 18:01:02 2002
44.444443 Thu May  9 18:31:03 2002
44.444443 Thu May  9 19:01:01 2002
44.444443 Thu May  9 19:31:03 2002
44.444443 Thu May  9 20:01:02 2002
44.444443 Thu May  9 20:31:03 2002
44.444443 Thu May  9 21:01:01 2002
44.444443 Thu May  9 21:31:03 2002
44.444443 Thu May  9 22:01:02 2002
44.444443 Thu May  9 22:31:03 2002
44.444443 Thu May  9 23:01:01 2002
44.444443 Thu May  9 23:31:03 2002
44.444443 Fri May 10 00:01:02 2002
44.444443 Fri May 10 00:31:03 2002
44.444443 Fri May 10 01:01:01 2002
44.444443 Fri May 10 01:31:03 2002
44.444443 Fri May 10 02:01:02 2002
44.444443 Fri May 10 02:31:03 2002
44.444443 Fri May 10 03:01:02 2002
44.444443 Fri May 10 03:31:04 2002
44.444443 Fri May 10 04:01:02 2002
44.444443 Fri May 10 04:31:03 2002
44.444443 Fri May 10 05:01:02 2002
44.444443 Fri May 10 05:31:04 2002
44.444443 Fri May 10 06:01:02 2002
44.444443 Fri May 10 06:31:03 2002
44.444443 Fri May 10 07:01:02 2002
44.444443 Fri May 10 07:31:03 2002
44.444443 Fri May 10 08:01:02 2002
44.444443 Fri May 10 08:31:03 2002
44.444443 Fri May 10 09:01:01 2002
44.444443 Fri May 10 09:31:03 2002
44.444443 Fri May 10 10:01:02 2002
44.444443 Fri May 10 10:31:03 2002
44.444443 Fri May 10 11:01:01 2002
44.444443 Fri May 10 11:31:03 2002
44.444443 Fri May 10 12:01:01 2002
44.444443 Fri May 10 12:31:03 2002
44.444443 Fri May 10 13:01:02 2002
44.444443 Fri May 10 13:31:03 2002
44.444443 Fri May 10 14:01:02 2002
44.444443 Fri May 10 14:31:03 2002
44.444443 Fri May 10 15:01:02 2002
44.444443 Fri May 10 15:31:03 2002
44.444443 Fri May 10 16:01:02 2002
44.444443 Fri May 10 16:31:03 2002
44.444443 Fri May 10 17:01:02 2002
44.444443 Fri May 10 17:31:04 2002
44.444443 Fri May 10 18:01:02 2002
44.444443 Fri May 10 18:31:03 2002
44.444443 Fri May 10 19:01:02 2002
44.444443 Fri May 10 19:31:03 2002
44.444443 Fri May 10 20:01:02 2002
44.444443 Fri May 10 20:31:03 2002
44.444443 Fri May 10 21:01:02 2002
44.444443 Fri May 10 21:31:03 2002
44.444443 Fri May 10 22:01:01 2002
44.444443 Fri May 10 22:31:03 2002
44.444443 Fri May 10 23:01:01 2002
44.444443 Fri May 10 23:31:03 2002
44.444443 Sat May 11 00:01:02 2002
44.444443 Sat May 11 00:31:03 2002
44.444443 Sat May 11 01:01:02 2002
44.444443 Sat May 11 01:31:04 2002
44.444443 Sat May 11 02:01:02 2002
44.444443 Sat May 11 02:31:03 2002
44.444443 Sat May 11 03:01:02 2002
44.444443 Sat May 11 03:31:03 2002
44.444443 Sat May 11 04:01:02 2002
44.444443 Sat May 11 04:31:03 2002
44.444443 Sat May 11 05:01:02 2002
44.444443 Sat May 11 05:31:03 2002
44.444443 Sat May 11 06:01:02 2002
44.444443 Sat May 11 06:31:03 2002
44.444443 Sat May 11 07:01:01 2002
44.444443 Sat May 11 07:31:03 2002
44.444443 Sat May 11 08:01:02 2002
44.444443 Sat May 11 08:31:04 2002
44.444443 Sat May 11 09:01:01 2002
44.444443 Sat May 11 09:31:03 2002
44.444443 Sat May 11 10:01:01 2002
44.444443 Sat May 11 10:31:03 2002
44.444443 Sat May 11 11:01:02 2002
44.444443 Sat May 11 11:31:03 2002
44.444443 Sat May 11 12:01:01 2002
44.444443 Sat May 11 12:31:03 2002
44.444443 Sat May 11 13:01:02 2002
44.444443 Sat May 11 13:31:03 2002
44.444443 Sat May 11 14:01:01 2002
44.444443 Sat May 11 14:31:03 2002
44.444443 Sat May 11 15:01:01 2002
44.444443 Sat May 11 15:31:03 2002
44.444443 Sat May 11 16:01:01 2002
44.444443 Sat May 11 16:31:03 2002
44.444443 Sat May 11 17:01:01 2002
44.444443 Sat May 11 17:31:03 2002
44.444443 Sat May 11 18:01:01 2002
44.444443 Sat May 11 18:31:03 2002
44.444443 Sat May 11 19:01:02 2002
44.444443 Sat May 11 19:31:03 2002
19.111111 Wed May 15 17:52:17 2002
