20.400000 Sat Mar  9 16:50:12 2002
20.200001 Sat Mar  9 16:50:38 2002
20.400000 Sat Mar  9 16:51:04 2002
20.200001 Sat Mar  9 16:51:30 2002
20.600000 Sat Mar  9 16:51:57 2002
20.400000 Sat Mar  9 16:52:23 2002
20.200001 Sat Mar  9 16:52:49 2002
20.400000 Sat Mar  9 16:53:15 2002
20.600000 Sat Mar  9 16:53:42 2002
20.400000 Sat Mar  9 16:54:08 2002
20.400000 Sat Mar  9 16:54:34 2002
20.600000 Sat Mar  9 16:55:01 2002
20.400000 Sat Mar  9 16:55:27 2002
20.600000 Sat Mar  9 16:57:58 2002
20.600000 Sat Mar  9 16:58:25 2002
20.400000 Sat Mar  9 17:00:29 2002
20.400000 Sat Mar  9 17:00:55 2002
20.400000 Sat Mar  9 17:01:21 2002
20.600000 Sat Mar  9 17:01:47 2002
20.400000 Sat Mar  9 17:02:51 2002
20.600000 Sat Mar  9 17:03:18 2002
20.600000 Sat Mar  9 17:05:30 2002
20.600000 Sat Mar  9 17:05:56 2002
20.600000 Sat Mar  9 17:06:23 2002
-10.000000 Sat Mar  9 21:03:17 2002
